<?xml version="1.0" encoding="UTF-8" standalone="no"?>
<!-- Created with Inkscape (http://www.inkscape.org/) -->

<svg
   xmlns:dc="http://purl.org/dc/elements/1.1/"
   xmlns:cc="http://creativecommons.org/ns#"
   xmlns:rdf="http://www.w3.org/1999/02/22-rdf-syntax-ns#"
   xmlns:svg="http://www.w3.org/2000/svg"
   xmlns="http://www.w3.org/2000/svg"
   xmlns:sodipodi="http://sodipodi.sourceforge.net/DTD/sodipodi-0.dtd"
   xmlns:inkscape="http://www.inkscape.org/namespaces/inkscape"
   width="63mm"
   height="88mm"
   viewBox="0 0 223.22835 311.81102"
   id="svg15595"
   version="1.1"
   inkscape:version="0.91 r13725"
   sodipodi:docname="h01.svg">
  <defs
     id="defs15597">
    <filter
       height="1"
       width="1"
       y="0"
       x="0"
       id="filter19349"
       style="color-interpolation-filters:sRGB"
       inkscape:menu-tooltip="Blend an image with its hue opposite"
       inkscape:menu="Color"
       inkscape:label="Blend Opposites">
      <feColorMatrix
         id="feColorMatrix19351"
         in="SourceGraphic"
         result="fbSourceGraphic"
         values="180"
         type="hueRotate" />
      <feColorMatrix
         id="feColorMatrix19353"
         result="result1"
         in="SourceGraphic"
         values="1 0 0 0 0 0 1 0 0 0 0 0 1 0 0 -0.2125 -0.7154 -0.0721 1 0 " />
      <feColorMatrix
         id="feColorMatrix19355"
         values="0"
         type="hueRotate" />
      <feColorMatrix
         id="feColorMatrix19357"
         result="result3"
         values="1 0 0 0 0 0 1 0 0 0 0 0 1 0 0 0 0 0 1 0 " />
      <feComposite
         id="feComposite19359"
         operator="atop"
         result="result6"
         in2="result3" />
      <feComposite
         k4="0"
         id="feComposite19361"
         result="result4"
         in="result6"
         k3="0.5"
         k1="0.5"
         k2="0.5"
         operator="arithmetic"
         in2="result6" />
      <feBlend
         id="feBlend19363"
         in="result4"
         result="result2"
         mode="normal"
         in2="fbSourceGraphic" />
      <feComposite
         k4="0"
         k3="0"
         k1="0"
         id="feComposite19365"
         result="result5"
         k2="1"
         operator="arithmetic"
         in2="result2" />
      <feComposite
         id="feComposite19367"
         result="result5"
         operator="in"
         in2="SourceGraphic" />
    </filter>
    <filter
       height="1"
       width="1"
       y="0"
       x="0"
       id="filter19349-2"
       style="color-interpolation-filters:sRGB"
       inkscape:menu-tooltip="Blend an image with its hue opposite"
       inkscape:menu="Color"
       inkscape:label="Blend Opposites">
      <feColorMatrix
         id="feColorMatrix19351-7"
         in="SourceGraphic"
         result="fbSourceGraphic"
         values="180"
         type="hueRotate" />
      <feColorMatrix
         id="feColorMatrix19353-9"
         result="result1"
         in="SourceGraphic"
         values="1 0 0 0 0 0 1 0 0 0 0 0 1 0 0 -0.2125 -0.7154 -0.0721 1 0 " />
      <feColorMatrix
         id="feColorMatrix19355-8"
         values="0"
         type="hueRotate" />
      <feColorMatrix
         id="feColorMatrix19357-3"
         result="result3"
         values="1 0 0 0 0 0 1 0 0 0 0 0 1 0 0 0 0 0 1 0 " />
      <feComposite
         id="feComposite19359-4"
         operator="atop"
         result="result6"
         in2="result3" />
      <feComposite
         k4="0"
         id="feComposite19361-1"
         result="result4"
         in="result6"
         k3="0.5"
         k1="0.5"
         k2="0.5"
         operator="arithmetic"
         in2="result6" />
      <feBlend
         id="feBlend19363-4"
         in="result4"
         result="result2"
         mode="normal"
         in2="fbSourceGraphic" />
      <feComposite
         k4="0"
         k3="0"
         k1="0"
         id="feComposite19365-5"
         result="result5"
         k2="1"
         operator="arithmetic"
         in2="result2" />
      <feComposite
         id="feComposite19367-8"
         result="result5"
         operator="in"
         in2="SourceGraphic" />
    </filter>
    <filter
       height="1"
       width="1"
       y="0"
       x="0"
       id="filter19349-0"
       style="color-interpolation-filters:sRGB"
       inkscape:menu-tooltip="Blend an image with its hue opposite"
       inkscape:menu="Color"
       inkscape:label="Blend Opposites">
      <feColorMatrix
         id="feColorMatrix19351-0"
         in="SourceGraphic"
         result="fbSourceGraphic"
         values="180"
         type="hueRotate" />
      <feColorMatrix
         id="feColorMatrix19353-1"
         result="result1"
         in="SourceGraphic"
         values="1 0 0 0 0 0 1 0 0 0 0 0 1 0 0 -0.2125 -0.7154 -0.0721 1 0 " />
      <feColorMatrix
         id="feColorMatrix19355-7"
         values="0"
         type="hueRotate" />
      <feColorMatrix
         id="feColorMatrix19357-32"
         result="result3"
         values="1 0 0 0 0 0 1 0 0 0 0 0 1 0 0 0 0 0 1 0 " />
      <feComposite
         id="feComposite19359-3"
         operator="atop"
         result="result6"
         in2="result3" />
      <feComposite
         k4="0"
         id="feComposite19361-6"
         result="result4"
         in="result6"
         k3="0.5"
         k1="0.5"
         k2="0.5"
         operator="arithmetic"
         in2="result6" />
      <feBlend
         id="feBlend19363-44"
         in="result4"
         result="result2"
         mode="normal"
         in2="fbSourceGraphic" />
      <feComposite
         k4="0"
         k3="0"
         k1="0"
         id="feComposite19365-6"
         result="result5"
         k2="1"
         operator="arithmetic"
         in2="result2" />
      <feComposite
         id="feComposite19367-7"
         result="result5"
         operator="in"
         in2="SourceGraphic" />
    </filter>
    <filter
       height="1"
       width="1"
       y="0"
       x="0"
       id="filter19349-20"
       style="color-interpolation-filters:sRGB"
       inkscape:menu-tooltip="Blend an image with its hue opposite"
       inkscape:menu="Color"
       inkscape:label="Blend Opposites">
      <feColorMatrix
         id="feColorMatrix19351-2"
         in="SourceGraphic"
         result="fbSourceGraphic"
         values="180"
         type="hueRotate" />
      <feColorMatrix
         id="feColorMatrix19353-6"
         result="result1"
         in="SourceGraphic"
         values="1 0 0 0 0 0 1 0 0 0 0 0 1 0 0 -0.2125 -0.7154 -0.0721 1 0 " />
      <feColorMatrix
         id="feColorMatrix19355-2"
         values="0"
         type="hueRotate" />
      <feColorMatrix
         id="feColorMatrix19357-6"
         result="result3"
         values="1 0 0 0 0 0 1 0 0 0 0 0 1 0 0 0 0 0 1 0 " />
      <feComposite
         id="feComposite19359-0"
         operator="atop"
         result="result6"
         in2="result3" />
      <feComposite
         k4="0"
         id="feComposite19361-66"
         result="result4"
         in="result6"
         k3="0.5"
         k1="0.5"
         k2="0.5"
         operator="arithmetic"
         in2="result6" />
      <feBlend
         id="feBlend19363-43"
         in="result4"
         result="result2"
         mode="normal"
         in2="fbSourceGraphic" />
      <feComposite
         k4="0"
         k3="0"
         k1="0"
         id="feComposite19365-7"
         result="result5"
         k2="1"
         operator="arithmetic"
         in2="result2" />
      <feComposite
         id="feComposite19367-3"
         result="result5"
         operator="in"
         in2="SourceGraphic" />
    </filter>
    <filter
       height="1"
       width="1"
       y="0"
       x="0"
       id="filter19349-8"
       style="color-interpolation-filters:sRGB"
       inkscape:menu-tooltip="Blend an image with its hue opposite"
       inkscape:menu="Color"
       inkscape:label="Blend Opposites">
      <feColorMatrix
         id="feColorMatrix19351-26"
         in="SourceGraphic"
         result="fbSourceGraphic"
         values="180"
         type="hueRotate" />
      <feColorMatrix
         id="feColorMatrix19353-2"
         result="result1"
         in="SourceGraphic"
         values="1 0 0 0 0 0 1 0 0 0 0 0 1 0 0 -0.2125 -0.7154 -0.0721 1 0 " />
      <feColorMatrix
         id="feColorMatrix19355-9"
         values="0"
         type="hueRotate" />
      <feColorMatrix
         id="feColorMatrix19357-7"
         result="result3"
         values="1 0 0 0 0 0 1 0 0 0 0 0 1 0 0 0 0 0 1 0 " />
      <feComposite
         id="feComposite19359-5"
         operator="atop"
         result="result6"
         in2="result3" />
      <feComposite
         k4="0"
         id="feComposite19361-9"
         result="result4"
         in="result6"
         k3="0.5"
         k1="0.5"
         k2="0.5"
         operator="arithmetic"
         in2="result6" />
      <feBlend
         id="feBlend19363-8"
         in="result4"
         result="result2"
         mode="normal"
         in2="fbSourceGraphic" />
      <feComposite
         k4="0"
         k3="0"
         k1="0"
         id="feComposite19365-2"
         result="result5"
         k2="1"
         operator="arithmetic"
         in2="result2" />
      <feComposite
         id="feComposite19367-33"
         result="result5"
         operator="in"
         in2="SourceGraphic" />
    </filter>
    <filter
       height="1"
       width="1"
       y="0"
       x="0"
       id="filter19349-7"
       style="color-interpolation-filters:sRGB"
       inkscape:menu-tooltip="Blend an image with its hue opposite"
       inkscape:menu="Color"
       inkscape:label="Blend Opposites">
      <feColorMatrix
         id="feColorMatrix19351-1"
         in="SourceGraphic"
         result="fbSourceGraphic"
         values="180"
         type="hueRotate" />
      <feColorMatrix
         id="feColorMatrix19353-7"
         result="result1"
         in="SourceGraphic"
         values="1 0 0 0 0 0 1 0 0 0 0 0 1 0 0 -0.2125 -0.7154 -0.0721 1 0 " />
      <feColorMatrix
         id="feColorMatrix19355-29"
         values="0"
         type="hueRotate" />
      <feColorMatrix
         id="feColorMatrix19357-4"
         result="result3"
         values="1 0 0 0 0 0 1 0 0 0 0 0 1 0 0 0 0 0 1 0 " />
      <feComposite
         id="feComposite19359-6"
         operator="atop"
         result="result6"
         in2="result3" />
      <feComposite
         k4="0"
         id="feComposite19361-18"
         result="result4"
         in="result6"
         k3="0.5"
         k1="0.5"
         k2="0.5"
         operator="arithmetic"
         in2="result6" />
      <feBlend
         id="feBlend19363-2"
         in="result4"
         result="result2"
         mode="normal"
         in2="fbSourceGraphic" />
      <feComposite
         k4="0"
         k3="0"
         k1="0"
         id="feComposite19365-4"
         result="result5"
         k2="1"
         operator="arithmetic"
         in2="result2" />
      <feComposite
         id="feComposite19367-4"
         result="result5"
         operator="in"
         in2="SourceGraphic" />
    </filter>
    <filter
       height="1"
       width="1"
       y="0"
       x="0"
       id="filter19349-4"
       style="color-interpolation-filters:sRGB"
       inkscape:menu-tooltip="Blend an image with its hue opposite"
       inkscape:menu="Color"
       inkscape:label="Blend Opposites">
      <feColorMatrix
         id="feColorMatrix19351-03"
         in="SourceGraphic"
         result="fbSourceGraphic"
         values="180"
         type="hueRotate" />
      <feColorMatrix
         id="feColorMatrix19353-15"
         result="result1"
         in="SourceGraphic"
         values="1 0 0 0 0 0 1 0 0 0 0 0 1 0 0 -0.2125 -0.7154 -0.0721 1 0 " />
      <feColorMatrix
         id="feColorMatrix19355-24"
         values="0"
         type="hueRotate" />
      <feColorMatrix
         id="feColorMatrix19357-64"
         result="result3"
         values="1 0 0 0 0 0 1 0 0 0 0 0 1 0 0 0 0 0 1 0 " />
      <feComposite
         id="feComposite19359-2"
         operator="atop"
         result="result6"
         in2="result3" />
      <feComposite
         k4="0"
         id="feComposite19361-8"
         result="result4"
         in="result6"
         k3="0.5"
         k1="0.5"
         k2="0.5"
         operator="arithmetic"
         in2="result6" />
      <feBlend
         id="feBlend19363-5"
         in="result4"
         result="result2"
         mode="normal"
         in2="fbSourceGraphic" />
      <feComposite
         k4="0"
         k3="0"
         k1="0"
         id="feComposite19365-9"
         result="result5"
         k2="1"
         operator="arithmetic"
         in2="result2" />
      <feComposite
         id="feComposite19367-35"
         result="result5"
         operator="in"
         in2="SourceGraphic" />
    </filter>
    <filter
       height="1"
       width="1"
       y="0"
       x="0"
       id="filter19349-08"
       style="color-interpolation-filters:sRGB"
       inkscape:menu-tooltip="Blend an image with its hue opposite"
       inkscape:menu="Color"
       inkscape:label="Blend Opposites">
      <feColorMatrix
         id="feColorMatrix19351-035"
         in="SourceGraphic"
         result="fbSourceGraphic"
         values="180"
         type="hueRotate" />
      <feColorMatrix
         id="feColorMatrix19353-12"
         result="result1"
         in="SourceGraphic"
         values="1 0 0 0 0 0 1 0 0 0 0 0 1 0 0 -0.2125 -0.7154 -0.0721 1 0 " />
      <feColorMatrix
         id="feColorMatrix19355-90"
         values="0"
         type="hueRotate" />
      <feColorMatrix
         id="feColorMatrix19357-75"
         result="result3"
         values="1 0 0 0 0 0 1 0 0 0 0 0 1 0 0 0 0 0 1 0 " />
      <feComposite
         id="feComposite19359-1"
         operator="atop"
         result="result6"
         in2="result3" />
      <feComposite
         k4="0"
         id="feComposite19361-7"
         result="result4"
         in="result6"
         k3="0.5"
         k1="0.5"
         k2="0.5"
         operator="arithmetic"
         in2="result6" />
      <feBlend
         id="feBlend19363-0"
         in="result4"
         result="result2"
         mode="normal"
         in2="fbSourceGraphic" />
      <feComposite
         k4="0"
         k3="0"
         k1="0"
         id="feComposite19365-74"
         result="result5"
         k2="1"
         operator="arithmetic"
         in2="result2" />
      <feComposite
         id="feComposite19367-49"
         result="result5"
         operator="in"
         in2="SourceGraphic" />
    </filter>
    <filter
       height="1"
       width="1"
       y="0"
       x="0"
       id="filter19349-75"
       style="color-interpolation-filters:sRGB"
       inkscape:menu-tooltip="Blend an image with its hue opposite"
       inkscape:menu="Color"
       inkscape:label="Blend Opposites">
      <feColorMatrix
         id="feColorMatrix19351-5"
         in="SourceGraphic"
         result="fbSourceGraphic"
         values="180"
         type="hueRotate" />
      <feColorMatrix
         id="feColorMatrix19353-11"
         result="result1"
         in="SourceGraphic"
         values="1 0 0 0 0 0 1 0 0 0 0 0 1 0 0 -0.2125 -0.7154 -0.0721 1 0 " />
      <feColorMatrix
         id="feColorMatrix19355-1"
         values="0"
         type="hueRotate" />
      <feColorMatrix
         id="feColorMatrix19357-8"
         result="result3"
         values="1 0 0 0 0 0 1 0 0 0 0 0 1 0 0 0 0 0 1 0 " />
      <feComposite
         id="feComposite19359-61"
         operator="atop"
         result="result6"
         in2="result3" />
      <feComposite
         k4="0"
         id="feComposite19361-3"
         result="result4"
         in="result6"
         k3="0.5"
         k1="0.5"
         k2="0.5"
         operator="arithmetic"
         in2="result6" />
      <feBlend
         id="feBlend19363-57"
         in="result4"
         result="result2"
         mode="normal"
         in2="fbSourceGraphic" />
      <feComposite
         k4="0"
         k3="0"
         k1="0"
         id="feComposite19365-8"
         result="result5"
         k2="1"
         operator="arithmetic"
         in2="result2" />
      <feComposite
         id="feComposite19367-75"
         result="result5"
         operator="in"
         in2="SourceGraphic" />
    </filter>
    <filter
       height="1"
       width="1"
       y="0"
       x="0"
       id="filter19349-80"
       style="color-interpolation-filters:sRGB"
       inkscape:menu-tooltip="Blend an image with its hue opposite"
       inkscape:menu="Color"
       inkscape:label="Blend Opposites">
      <feColorMatrix
         id="feColorMatrix19351-21"
         in="SourceGraphic"
         result="fbSourceGraphic"
         values="180"
         type="hueRotate" />
      <feColorMatrix
         id="feColorMatrix19353-5"
         result="result1"
         in="SourceGraphic"
         values="1 0 0 0 0 0 1 0 0 0 0 0 1 0 0 -0.2125 -0.7154 -0.0721 1 0 " />
      <feColorMatrix
         id="feColorMatrix19355-21"
         values="0"
         type="hueRotate" />
      <feColorMatrix
         id="feColorMatrix19357-49"
         result="result3"
         values="1 0 0 0 0 0 1 0 0 0 0 0 1 0 0 0 0 0 1 0 " />
      <feComposite
         id="feComposite19359-51"
         operator="atop"
         result="result6"
         in2="result3" />
      <feComposite
         k4="0"
         id="feComposite19361-94"
         result="result4"
         in="result6"
         k3="0.5"
         k1="0.5"
         k2="0.5"
         operator="arithmetic"
         in2="result6" />
      <feBlend
         id="feBlend19363-56"
         in="result4"
         result="result2"
         mode="normal"
         in2="fbSourceGraphic" />
      <feComposite
         k4="0"
         k3="0"
         k1="0"
         id="feComposite19365-44"
         result="result5"
         k2="1"
         operator="arithmetic"
         in2="result2" />
      <feComposite
         id="feComposite19367-31"
         result="result5"
         operator="in"
         in2="SourceGraphic" />
    </filter>
    <filter
       height="1"
       width="1"
       y="0"
       x="0"
       id="filter19349-6"
       style="color-interpolation-filters:sRGB"
       inkscape:menu-tooltip="Blend an image with its hue opposite"
       inkscape:menu="Color"
       inkscape:label="Blend Opposites">
      <feColorMatrix
         id="feColorMatrix19351-74"
         in="SourceGraphic"
         result="fbSourceGraphic"
         values="180"
         type="hueRotate" />
      <feColorMatrix
         id="feColorMatrix19353-4"
         result="result1"
         in="SourceGraphic"
         values="1 0 0 0 0 0 1 0 0 0 0 0 1 0 0 -0.2125 -0.7154 -0.0721 1 0 " />
      <feColorMatrix
         id="feColorMatrix19355-3"
         values="0"
         type="hueRotate" />
      <feColorMatrix
         id="feColorMatrix19357-5"
         result="result3"
         values="1 0 0 0 0 0 1 0 0 0 0 0 1 0 0 0 0 0 1 0 " />
      <feComposite
         id="feComposite19359-7"
         operator="atop"
         result="result6"
         in2="result3" />
      <feComposite
         k4="0"
         id="feComposite19361-0"
         result="result4"
         in="result6"
         k3="0.5"
         k1="0.5"
         k2="0.5"
         operator="arithmetic"
         in2="result6" />
      <feBlend
         id="feBlend19363-48"
         in="result4"
         result="result2"
         mode="normal"
         in2="fbSourceGraphic" />
      <feComposite
         k4="0"
         k3="0"
         k1="0"
         id="feComposite19365-81"
         result="result5"
         k2="1"
         operator="arithmetic"
         in2="result2" />
      <feComposite
         id="feComposite19367-6"
         result="result5"
         operator="in"
         in2="SourceGraphic" />
    </filter>
    <filter
       height="1"
       width="1"
       y="0"
       x="0"
       id="filter19349-06"
       style="color-interpolation-filters:sRGB"
       inkscape:menu-tooltip="Blend an image with its hue opposite"
       inkscape:menu="Color"
       inkscape:label="Blend Opposites">
      <feColorMatrix
         id="feColorMatrix19351-8"
         in="SourceGraphic"
         result="fbSourceGraphic"
         values="180"
         type="hueRotate" />
      <feColorMatrix
         id="feColorMatrix19353-58"
         result="result1"
         in="SourceGraphic"
         values="1 0 0 0 0 0 1 0 0 0 0 0 1 0 0 -0.2125 -0.7154 -0.0721 1 0 " />
      <feColorMatrix
         id="feColorMatrix19355-19"
         values="0"
         type="hueRotate" />
      <feColorMatrix
         id="feColorMatrix19357-9"
         result="result3"
         values="1 0 0 0 0 0 1 0 0 0 0 0 1 0 0 0 0 0 1 0 " />
      <feComposite
         id="feComposite19359-8"
         operator="atop"
         result="result6"
         in2="result3" />
      <feComposite
         k4="0"
         id="feComposite19361-11"
         result="result4"
         in="result6"
         k3="0.5"
         k1="0.5"
         k2="0.5"
         operator="arithmetic"
         in2="result6" />
      <feBlend
         id="feBlend19363-3"
         in="result4"
         result="result2"
         mode="normal"
         in2="fbSourceGraphic" />
      <feComposite
         k4="0"
         k3="0"
         k1="0"
         id="feComposite19365-87"
         result="result5"
         k2="1"
         operator="arithmetic"
         in2="result2" />
      <feComposite
         id="feComposite19367-73"
         result="result5"
         operator="in"
         in2="SourceGraphic" />
    </filter>
    <filter
       height="1"
       width="1"
       y="0"
       x="0"
       id="filter19349-209"
       style="color-interpolation-filters:sRGB"
       inkscape:menu-tooltip="Blend an image with its hue opposite"
       inkscape:menu="Color"
       inkscape:label="Blend Opposites">
      <feColorMatrix
         id="feColorMatrix19351-9"
         in="SourceGraphic"
         result="fbSourceGraphic"
         values="180"
         type="hueRotate" />
      <feColorMatrix
         id="feColorMatrix19353-45"
         result="result1"
         in="SourceGraphic"
         values="1 0 0 0 0 0 1 0 0 0 0 0 1 0 0 -0.2125 -0.7154 -0.0721 1 0 " />
      <feColorMatrix
         id="feColorMatrix19355-4"
         values="0"
         type="hueRotate" />
      <feColorMatrix
         id="feColorMatrix19357-1"
         result="result3"
         values="1 0 0 0 0 0 1 0 0 0 0 0 1 0 0 0 0 0 1 0 " />
      <feComposite
         id="feComposite19359-25"
         operator="atop"
         result="result6"
         in2="result3" />
      <feComposite
         k4="0"
         id="feComposite19361-60"
         result="result4"
         in="result6"
         k3="0.5"
         k1="0.5"
         k2="0.5"
         operator="arithmetic"
         in2="result6" />
      <feBlend
         id="feBlend19363-579"
         in="result4"
         result="result2"
         mode="normal"
         in2="fbSourceGraphic" />
      <feComposite
         k4="0"
         k3="0"
         k1="0"
         id="feComposite19365-53"
         result="result5"
         k2="1"
         operator="arithmetic"
         in2="result2" />
      <feComposite
         id="feComposite19367-9"
         result="result5"
         operator="in"
         in2="SourceGraphic" />
    </filter>
    <filter
       height="1"
       width="1"
       y="0"
       x="0"
       id="filter19349-3"
       style="color-interpolation-filters:sRGB"
       inkscape:menu-tooltip="Blend an image with its hue opposite"
       inkscape:menu="Color"
       inkscape:label="Blend Opposites">
      <feColorMatrix
         id="feColorMatrix19351-3"
         in="SourceGraphic"
         result="fbSourceGraphic"
         values="180"
         type="hueRotate" />
      <feColorMatrix
         id="feColorMatrix19353-0"
         result="result1"
         in="SourceGraphic"
         values="1 0 0 0 0 0 1 0 0 0 0 0 1 0 0 -0.2125 -0.7154 -0.0721 1 0 " />
      <feColorMatrix
         id="feColorMatrix19355-45"
         values="0"
         type="hueRotate" />
      <feColorMatrix
         id="feColorMatrix19357-17"
         result="result3"
         values="1 0 0 0 0 0 1 0 0 0 0 0 1 0 0 0 0 0 1 0 " />
      <feComposite
         id="feComposite19359-64"
         operator="atop"
         result="result6"
         in2="result3" />
      <feComposite
         k4="0"
         id="feComposite19361-63"
         result="result4"
         in="result6"
         k3="0.5"
         k1="0.5"
         k2="0.5"
         operator="arithmetic"
         in2="result6" />
      <feBlend
         id="feBlend19363-39"
         in="result4"
         result="result2"
         mode="normal"
         in2="fbSourceGraphic" />
      <feComposite
         k4="0"
         k3="0"
         k1="0"
         id="feComposite19365-73"
         result="result5"
         k2="1"
         operator="arithmetic"
         in2="result2" />
      <feComposite
         id="feComposite19367-0"
         result="result5"
         operator="in"
         in2="SourceGraphic" />
    </filter>
    <filter
       height="1"
       width="1"
       y="0"
       x="0"
       id="filter19349-79"
       style="color-interpolation-filters:sRGB"
       inkscape:menu-tooltip="Blend an image with its hue opposite"
       inkscape:menu="Color"
       inkscape:label="Blend Opposites">
      <feColorMatrix
         id="feColorMatrix19351-51"
         in="SourceGraphic"
         result="fbSourceGraphic"
         values="180"
         type="hueRotate" />
      <feColorMatrix
         id="feColorMatrix19353-09"
         result="result1"
         in="SourceGraphic"
         values="1 0 0 0 0 0 1 0 0 0 0 0 1 0 0 -0.2125 -0.7154 -0.0721 1 0 " />
      <feColorMatrix
         id="feColorMatrix19355-6"
         values="0"
         type="hueRotate" />
      <feColorMatrix
         id="feColorMatrix19357-80"
         result="result3"
         values="1 0 0 0 0 0 1 0 0 0 0 0 1 0 0 0 0 0 1 0 " />
      <feComposite
         id="feComposite19359-38"
         operator="atop"
         result="result6"
         in2="result3" />
      <feComposite
         k4="0"
         id="feComposite19361-113"
         result="result4"
         in="result6"
         k3="0.5"
         k1="0.5"
         k2="0.5"
         operator="arithmetic"
         in2="result6" />
      <feBlend
         id="feBlend19363-04"
         in="result4"
         result="result2"
         mode="normal"
         in2="fbSourceGraphic" />
      <feComposite
         k4="0"
         k3="0"
         k1="0"
         id="feComposite19365-92"
         result="result5"
         k2="1"
         operator="arithmetic"
         in2="result2" />
      <feComposite
         id="feComposite19367-84"
         result="result5"
         operator="in"
         in2="SourceGraphic" />
    </filter>
    <filter
       height="1"
       width="1"
       y="0"
       x="0"
       id="filter19349-5"
       style="color-interpolation-filters:sRGB"
       inkscape:menu-tooltip="Blend an image with its hue opposite"
       inkscape:menu="Color"
       inkscape:label="Blend Opposites">
      <feColorMatrix
         id="feColorMatrix19351-52"
         in="SourceGraphic"
         result="fbSourceGraphic"
         values="180"
         type="hueRotate" />
      <feColorMatrix
         id="feColorMatrix19353-69"
         result="result1"
         in="SourceGraphic"
         values="1 0 0 0 0 0 1 0 0 0 0 0 1 0 0 -0.2125 -0.7154 -0.0721 1 0 " />
      <feColorMatrix
         id="feColorMatrix19355-22"
         values="0"
         type="hueRotate" />
      <feColorMatrix
         id="feColorMatrix19357-85"
         result="result3"
         values="1 0 0 0 0 0 1 0 0 0 0 0 1 0 0 0 0 0 1 0 " />
      <feComposite
         id="feComposite19359-24"
         operator="atop"
         result="result6"
         in2="result3" />
      <feComposite
         k4="0"
         id="feComposite19361-08"
         result="result4"
         in="result6"
         k3="0.5"
         k1="0.5"
         k2="0.5"
         operator="arithmetic"
         in2="result6" />
      <feBlend
         id="feBlend19363-6"
         in="result4"
         result="result2"
         mode="normal"
         in2="fbSourceGraphic" />
      <feComposite
         k4="0"
         k3="0"
         k1="0"
         id="feComposite19365-0"
         result="result5"
         k2="1"
         operator="arithmetic"
         in2="result2" />
      <feComposite
         id="feComposite19367-41"
         result="result5"
         operator="in"
         in2="SourceGraphic" />
    </filter>
    <filter
       height="1"
       width="1"
       y="0"
       x="0"
       id="filter19349-27"
       style="color-interpolation-filters:sRGB"
       inkscape:menu-tooltip="Blend an image with its hue opposite"
       inkscape:menu="Color"
       inkscape:label="Blend Opposites">
      <feColorMatrix
         id="feColorMatrix19351-50"
         in="SourceGraphic"
         result="fbSourceGraphic"
         values="180"
         type="hueRotate" />
      <feColorMatrix
         id="feColorMatrix19353-27"
         result="result1"
         in="SourceGraphic"
         values="1 0 0 0 0 0 1 0 0 0 0 0 1 0 0 -0.2125 -0.7154 -0.0721 1 0 " />
      <feColorMatrix
         id="feColorMatrix19355-82"
         values="0"
         type="hueRotate" />
      <feColorMatrix
         id="feColorMatrix19357-2"
         result="result3"
         values="1 0 0 0 0 0 1 0 0 0 0 0 1 0 0 0 0 0 1 0 " />
      <feComposite
         id="feComposite19359-74"
         operator="atop"
         result="result6"
         in2="result3" />
      <feComposite
         k4="0"
         id="feComposite19361-5"
         result="result4"
         in="result6"
         k3="0.5"
         k1="0.5"
         k2="0.5"
         operator="arithmetic"
         in2="result6" />
      <feBlend
         id="feBlend19363-7"
         in="result4"
         result="result2"
         mode="normal"
         in2="fbSourceGraphic" />
      <feComposite
         k4="0"
         k3="0"
         k1="0"
         id="feComposite19365-52"
         result="result5"
         k2="1"
         operator="arithmetic"
         in2="result2" />
      <feComposite
         id="feComposite19367-2"
         result="result5"
         operator="in"
         in2="SourceGraphic" />
    </filter>
    <filter
       height="1"
       width="1"
       y="0"
       x="0"
       id="filter19349-803"
       style="color-interpolation-filters:sRGB"
       inkscape:menu-tooltip="Blend an image with its hue opposite"
       inkscape:menu="Color"
       inkscape:label="Blend Opposites">
      <feColorMatrix
         id="feColorMatrix19351-22"
         in="SourceGraphic"
         result="fbSourceGraphic"
         values="180"
         type="hueRotate" />
      <feColorMatrix
         id="feColorMatrix19353-3"
         result="result1"
         in="SourceGraphic"
         values="1 0 0 0 0 0 1 0 0 0 0 0 1 0 0 -0.2125 -0.7154 -0.0721 1 0 " />
      <feColorMatrix
         id="feColorMatrix19355-95"
         values="0"
         type="hueRotate" />
      <feColorMatrix
         id="feColorMatrix19357-70"
         result="result3"
         values="1 0 0 0 0 0 1 0 0 0 0 0 1 0 0 0 0 0 1 0 " />
      <feComposite
         id="feComposite19359-53"
         operator="atop"
         result="result6"
         in2="result3" />
      <feComposite
         k4="0"
         id="feComposite19361-00"
         result="result4"
         in="result6"
         k3="0.5"
         k1="0.5"
         k2="0.5"
         operator="arithmetic"
         in2="result6" />
      <feBlend
         id="feBlend19363-64"
         in="result4"
         result="result2"
         mode="normal"
         in2="fbSourceGraphic" />
      <feComposite
         k4="0"
         k3="0"
         k1="0"
         id="feComposite19365-94"
         result="result5"
         k2="1"
         operator="arithmetic"
         in2="result2" />
      <feComposite
         id="feComposite19367-42"
         result="result5"
         operator="in"
         in2="SourceGraphic" />
    </filter>
    <filter
       height="1"
       width="1"
       y="0"
       x="0"
       id="filter19349-35"
       style="color-interpolation-filters:sRGB"
       inkscape:menu-tooltip="Blend an image with its hue opposite"
       inkscape:menu="Color"
       inkscape:label="Blend Opposites">
      <feColorMatrix
         id="feColorMatrix19351-6"
         in="SourceGraphic"
         result="fbSourceGraphic"
         values="180"
         type="hueRotate" />
      <feColorMatrix
         id="feColorMatrix19353-52"
         result="result1"
         in="SourceGraphic"
         values="1 0 0 0 0 0 1 0 0 0 0 0 1 0 0 -0.2125 -0.7154 -0.0721 1 0 " />
      <feColorMatrix
         id="feColorMatrix19355-0"
         values="0"
         type="hueRotate" />
      <feColorMatrix
         id="feColorMatrix19357-0"
         result="result3"
         values="1 0 0 0 0 0 1 0 0 0 0 0 1 0 0 0 0 0 1 0 " />
      <feComposite
         id="feComposite19359-9"
         operator="atop"
         result="result6"
         in2="result3" />
      <feComposite
         k4="0"
         id="feComposite19361-83"
         result="result4"
         in="result6"
         k3="0.5"
         k1="0.5"
         k2="0.5"
         operator="arithmetic"
         in2="result6" />
      <feBlend
         id="feBlend19363-46"
         in="result4"
         result="result2"
         mode="normal"
         in2="fbSourceGraphic" />
      <feComposite
         k4="0"
         k3="0"
         k1="0"
         id="feComposite19365-3"
         result="result5"
         k2="1"
         operator="arithmetic"
         in2="result2" />
      <feComposite
         id="feComposite19367-78"
         result="result5"
         operator="in"
         in2="SourceGraphic" />
    </filter>
    <filter
       height="1"
       width="1"
       y="0"
       x="0"
       id="filter19349-83"
       style="color-interpolation-filters:sRGB"
       inkscape:menu-tooltip="Blend an image with its hue opposite"
       inkscape:menu="Color"
       inkscape:label="Blend Opposites">
      <feColorMatrix
         id="feColorMatrix19351-05"
         in="SourceGraphic"
         result="fbSourceGraphic"
         values="180"
         type="hueRotate" />
      <feColorMatrix
         id="feColorMatrix19353-20"
         result="result1"
         in="SourceGraphic"
         values="1 0 0 0 0 0 1 0 0 0 0 0 1 0 0 -0.2125 -0.7154 -0.0721 1 0 " />
      <feColorMatrix
         id="feColorMatrix19355-06"
         values="0"
         type="hueRotate" />
      <feColorMatrix
         id="feColorMatrix19357-02"
         result="result3"
         values="1 0 0 0 0 0 1 0 0 0 0 0 1 0 0 0 0 0 1 0 " />
      <feComposite
         id="feComposite19359-46"
         operator="atop"
         result="result6"
         in2="result3" />
      <feComposite
         k4="0"
         id="feComposite19361-2"
         result="result4"
         in="result6"
         k3="0.5"
         k1="0.5"
         k2="0.5"
         operator="arithmetic"
         in2="result6" />
      <feBlend
         id="feBlend19363-81"
         in="result4"
         result="result2"
         mode="normal"
         in2="fbSourceGraphic" />
      <feComposite
         k4="0"
         k3="0"
         k1="0"
         id="feComposite19365-63"
         result="result5"
         k2="1"
         operator="arithmetic"
         in2="result2" />
      <feComposite
         id="feComposite19367-64"
         result="result5"
         operator="in"
         in2="SourceGraphic" />
    </filter>
    <filter
       height="1"
       width="1"
       y="0"
       x="0"
       id="filter19349-807"
       style="color-interpolation-filters:sRGB"
       inkscape:menu-tooltip="Blend an image with its hue opposite"
       inkscape:menu="Color"
       inkscape:label="Blend Opposites">
      <feColorMatrix
         id="feColorMatrix19351-12"
         in="SourceGraphic"
         result="fbSourceGraphic"
         values="180"
         type="hueRotate" />
      <feColorMatrix
         id="feColorMatrix19353-56"
         result="result1"
         in="SourceGraphic"
         values="1 0 0 0 0 0 1 0 0 0 0 0 1 0 0 -0.2125 -0.7154 -0.0721 1 0 " />
      <feColorMatrix
         id="feColorMatrix19355-83"
         values="0"
         type="hueRotate" />
      <feColorMatrix
         id="feColorMatrix19357-173"
         result="result3"
         values="1 0 0 0 0 0 1 0 0 0 0 0 1 0 0 0 0 0 1 0 " />
      <feComposite
         id="feComposite19359-90"
         operator="atop"
         result="result6"
         in2="result3" />
      <feComposite
         k4="0"
         id="feComposite19361-34"
         result="result4"
         in="result6"
         k3="0.5"
         k1="0.5"
         k2="0.5"
         operator="arithmetic"
         in2="result6" />
      <feBlend
         id="feBlend19363-33"
         in="result4"
         result="result2"
         mode="normal"
         in2="fbSourceGraphic" />
      <feComposite
         k4="0"
         k3="0"
         k1="0"
         id="feComposite19365-71"
         result="result5"
         k2="1"
         operator="arithmetic"
         in2="result2" />
      <feComposite
         id="feComposite19367-5"
         result="result5"
         operator="in"
         in2="SourceGraphic" />
    </filter>
    <filter
       height="1"
       width="1"
       y="0"
       x="0"
       id="filter19349-9"
       style="color-interpolation-filters:sRGB"
       inkscape:menu-tooltip="Blend an image with its hue opposite"
       inkscape:menu="Color"
       inkscape:label="Blend Opposites">
      <feColorMatrix
         id="feColorMatrix19351-72"
         in="SourceGraphic"
         result="fbSourceGraphic"
         values="180"
         type="hueRotate" />
      <feColorMatrix
         id="feColorMatrix19353-38"
         result="result1"
         in="SourceGraphic"
         values="1 0 0 0 0 0 1 0 0 0 0 0 1 0 0 -0.2125 -0.7154 -0.0721 1 0 " />
      <feColorMatrix
         id="feColorMatrix19355-5"
         values="0"
         type="hueRotate" />
      <feColorMatrix
         id="feColorMatrix19357-11"
         result="result3"
         values="1 0 0 0 0 0 1 0 0 0 0 0 1 0 0 0 0 0 1 0 " />
      <feComposite
         id="feComposite19359-36"
         operator="atop"
         result="result6"
         in2="result3" />
      <feComposite
         k4="0"
         id="feComposite19361-05"
         result="result4"
         in="result6"
         k3="0.5"
         k1="0.5"
         k2="0.5"
         operator="arithmetic"
         in2="result6" />
      <feBlend
         id="feBlend19363-53"
         in="result4"
         result="result2"
         mode="normal"
         in2="fbSourceGraphic" />
      <feComposite
         k4="0"
         k3="0"
         k1="0"
         id="feComposite19365-70"
         result="result5"
         k2="1"
         operator="arithmetic"
         in2="result2" />
      <feComposite
         id="feComposite19367-95"
         result="result5"
         operator="in"
         in2="SourceGraphic" />
    </filter>
    <filter
       height="1"
       width="1"
       y="0"
       x="0"
       id="filter19349-30"
       style="color-interpolation-filters:sRGB"
       inkscape:menu-tooltip="Blend an image with its hue opposite"
       inkscape:menu="Color"
       inkscape:label="Blend Opposites">
      <feColorMatrix
         id="feColorMatrix19351-38"
         in="SourceGraphic"
         result="fbSourceGraphic"
         values="180"
         type="hueRotate" />
      <feColorMatrix
         id="feColorMatrix19353-25"
         result="result1"
         in="SourceGraphic"
         values="1 0 0 0 0 0 1 0 0 0 0 0 1 0 0 -0.2125 -0.7154 -0.0721 1 0 " />
      <feColorMatrix
         id="feColorMatrix19355-28"
         values="0"
         type="hueRotate" />
      <feColorMatrix
         id="feColorMatrix19357-855"
         result="result3"
         values="1 0 0 0 0 0 1 0 0 0 0 0 1 0 0 0 0 0 1 0 " />
      <feComposite
         id="feComposite19359-13"
         operator="atop"
         result="result6"
         in2="result3" />
      <feComposite
         k4="0"
         id="feComposite19361-79"
         result="result4"
         in="result6"
         k3="0.5"
         k1="0.5"
         k2="0.5"
         operator="arithmetic"
         in2="result6" />
      <feBlend
         id="feBlend19363-72"
         in="result4"
         result="result2"
         mode="normal"
         in2="fbSourceGraphic" />
      <feComposite
         k4="0"
         k3="0"
         k1="0"
         id="feComposite19365-72"
         result="result5"
         k2="1"
         operator="arithmetic"
         in2="result2" />
      <feComposite
         id="feComposite19367-48"
         result="result5"
         operator="in"
         in2="SourceGraphic" />
    </filter>
    <filter
       height="1"
       width="1"
       y="0"
       x="0"
       id="filter19349-72"
       style="color-interpolation-filters:sRGB"
       inkscape:menu-tooltip="Blend an image with its hue opposite"
       inkscape:menu="Color"
       inkscape:label="Blend Opposites">
      <feColorMatrix
         id="feColorMatrix19351-02"
         in="SourceGraphic"
         result="fbSourceGraphic"
         values="180"
         type="hueRotate" />
      <feColorMatrix
         id="feColorMatrix19353-73"
         result="result1"
         in="SourceGraphic"
         values="1 0 0 0 0 0 1 0 0 0 0 0 1 0 0 -0.2125 -0.7154 -0.0721 1 0 " />
      <feColorMatrix
         id="feColorMatrix19355-09"
         values="0"
         type="hueRotate" />
      <feColorMatrix
         id="feColorMatrix19357-47"
         result="result3"
         values="1 0 0 0 0 0 1 0 0 0 0 0 1 0 0 0 0 0 1 0 " />
      <feComposite
         id="feComposite19359-47"
         operator="atop"
         result="result6"
         in2="result3" />
      <feComposite
         k4="0"
         id="feComposite19361-22"
         result="result4"
         in="result6"
         k3="0.5"
         k1="0.5"
         k2="0.5"
         operator="arithmetic"
         in2="result6" />
      <feBlend
         id="feBlend19363-9"
         in="result4"
         result="result2"
         mode="normal"
         in2="fbSourceGraphic" />
      <feComposite
         k4="0"
         k3="0"
         k1="0"
         id="feComposite19365-84"
         result="result5"
         k2="1"
         operator="arithmetic"
         in2="result2" />
      <feComposite
         id="feComposite19367-98"
         result="result5"
         operator="in"
         in2="SourceGraphic" />
    </filter>
    <filter
       height="1"
       width="1"
       y="0"
       x="0"
       id="filter19349-25"
       style="color-interpolation-filters:sRGB"
       inkscape:menu-tooltip="Blend an image with its hue opposite"
       inkscape:menu="Color"
       inkscape:label="Blend Opposites">
      <feColorMatrix
         id="feColorMatrix19351-07"
         in="SourceGraphic"
         result="fbSourceGraphic"
         values="180"
         type="hueRotate" />
      <feColorMatrix
         id="feColorMatrix19353-41"
         result="result1"
         in="SourceGraphic"
         values="1 0 0 0 0 0 1 0 0 0 0 0 1 0 0 -0.2125 -0.7154 -0.0721 1 0 " />
      <feColorMatrix
         id="feColorMatrix19355-46"
         values="0"
         type="hueRotate" />
      <feColorMatrix
         id="feColorMatrix19357-88"
         result="result3"
         values="1 0 0 0 0 0 1 0 0 0 0 0 1 0 0 0 0 0 1 0 " />
      <feComposite
         id="feComposite19359-28"
         operator="atop"
         result="result6"
         in2="result3" />
      <feComposite
         k4="0"
         id="feComposite19361-56"
         result="result4"
         in="result6"
         k3="0.5"
         k1="0.5"
         k2="0.5"
         operator="arithmetic"
         in2="result6" />
      <feBlend
         id="feBlend19363-1"
         in="result4"
         result="result2"
         mode="normal"
         in2="fbSourceGraphic" />
      <feComposite
         k4="0"
         k3="0"
         k1="0"
         id="feComposite19365-75"
         result="result5"
         k2="1"
         operator="arithmetic"
         in2="result2" />
      <feComposite
         id="feComposite19367-494"
         result="result5"
         operator="in"
         in2="SourceGraphic" />
    </filter>
    <filter
       height="1"
       width="1"
       y="0"
       x="0"
       id="filter19349-1"
       style="color-interpolation-filters:sRGB"
       inkscape:menu-tooltip="Blend an image with its hue opposite"
       inkscape:menu="Color"
       inkscape:label="Blend Opposites">
      <feColorMatrix
         id="feColorMatrix19351-70"
         in="SourceGraphic"
         result="fbSourceGraphic"
         values="180"
         type="hueRotate" />
      <feColorMatrix
         id="feColorMatrix19353-8"
         result="result1"
         in="SourceGraphic"
         values="1 0 0 0 0 0 1 0 0 0 0 0 1 0 0 -0.2125 -0.7154 -0.0721 1 0 " />
      <feColorMatrix
         id="feColorMatrix19355-13"
         values="0"
         type="hueRotate" />
      <feColorMatrix
         id="feColorMatrix19357-99"
         result="result3"
         values="1 0 0 0 0 0 1 0 0 0 0 0 1 0 0 0 0 0 1 0 " />
      <feComposite
         id="feComposite19359-98"
         operator="atop"
         result="result6"
         in2="result3" />
      <feComposite
         k4="0"
         id="feComposite19361-03"
         result="result4"
         in="result6"
         k3="0.5"
         k1="0.5"
         k2="0.5"
         operator="arithmetic"
         in2="result6" />
      <feBlend
         id="feBlend19363-50"
         in="result4"
         result="result2"
         mode="normal"
         in2="fbSourceGraphic" />
      <feComposite
         k4="0"
         k3="0"
         k1="0"
         id="feComposite19365-09"
         result="result5"
         k2="1"
         operator="arithmetic"
         in2="result2" />
      <feComposite
         id="feComposite19367-1"
         result="result5"
         operator="in"
         in2="SourceGraphic" />
    </filter>
    <filter
       height="1"
       width="1"
       y="0"
       x="0"
       id="filter19349-68"
       style="color-interpolation-filters:sRGB"
       inkscape:menu-tooltip="Blend an image with its hue opposite"
       inkscape:menu="Color"
       inkscape:label="Blend Opposites">
      <feColorMatrix
         id="feColorMatrix19351-14"
         in="SourceGraphic"
         result="fbSourceGraphic"
         values="180"
         type="hueRotate" />
      <feColorMatrix
         id="feColorMatrix19353-21"
         result="result1"
         in="SourceGraphic"
         values="1 0 0 0 0 0 1 0 0 0 0 0 1 0 0 -0.2125 -0.7154 -0.0721 1 0 " />
      <feColorMatrix
         id="feColorMatrix19355-99"
         values="0"
         type="hueRotate" />
      <feColorMatrix
         id="feColorMatrix19357-27"
         result="result3"
         values="1 0 0 0 0 0 1 0 0 0 0 0 1 0 0 0 0 0 1 0 " />
      <feComposite
         id="feComposite19359-49"
         operator="atop"
         result="result6"
         in2="result3" />
      <feComposite
         k4="0"
         id="feComposite19361-61"
         result="result4"
         in="result6"
         k3="0.5"
         k1="0.5"
         k2="0.5"
         operator="arithmetic"
         in2="result6" />
      <feBlend
         id="feBlend19363-05"
         in="result4"
         result="result2"
         mode="normal"
         in2="fbSourceGraphic" />
      <feComposite
         k4="0"
         k3="0"
         k1="0"
         id="feComposite19365-1"
         result="result5"
         k2="1"
         operator="arithmetic"
         in2="result2" />
      <feComposite
         id="feComposite19367-07"
         result="result5"
         operator="in"
         in2="SourceGraphic" />
    </filter>
    <filter
       height="1"
       width="1"
       y="0"
       x="0"
       id="filter19349-69"
       style="color-interpolation-filters:sRGB"
       inkscape:menu-tooltip="Blend an image with its hue opposite"
       inkscape:menu="Color"
       inkscape:label="Blend Opposites">
      <feColorMatrix
         id="feColorMatrix19351-88"
         in="SourceGraphic"
         result="fbSourceGraphic"
         values="180"
         type="hueRotate" />
      <feColorMatrix
         id="feColorMatrix19353-78"
         result="result1"
         in="SourceGraphic"
         values="1 0 0 0 0 0 1 0 0 0 0 0 1 0 0 -0.2125 -0.7154 -0.0721 1 0 " />
      <feColorMatrix
         id="feColorMatrix19355-130"
         values="0"
         type="hueRotate" />
      <feColorMatrix
         id="feColorMatrix19357-44"
         result="result3"
         values="1 0 0 0 0 0 1 0 0 0 0 0 1 0 0 0 0 0 1 0 " />
      <feComposite
         id="feComposite19359-30"
         operator="atop"
         result="result6"
         in2="result3" />
      <feComposite
         k4="0"
         id="feComposite19361-4"
         result="result4"
         in="result6"
         k3="0.5"
         k1="0.5"
         k2="0.5"
         operator="arithmetic"
         in2="result6" />
      <feBlend
         id="feBlend19363-47"
         in="result4"
         result="result2"
         mode="normal"
         in2="fbSourceGraphic" />
      <feComposite
         k4="0"
         k3="0"
         k1="0"
         id="feComposite19365-76"
         result="result5"
         k2="1"
         operator="arithmetic"
         in2="result2" />
      <feComposite
         id="feComposite19367-68"
         result="result5"
         operator="in"
         in2="SourceGraphic" />
    </filter>
    <filter
       height="1"
       width="1"
       y="0"
       x="0"
       id="filter19349-03"
       style="color-interpolation-filters:sRGB"
       inkscape:menu-tooltip="Blend an image with its hue opposite"
       inkscape:menu="Color"
       inkscape:label="Blend Opposites">
      <feColorMatrix
         id="feColorMatrix19351-4"
         in="SourceGraphic"
         result="fbSourceGraphic"
         values="180"
         type="hueRotate" />
      <feColorMatrix
         id="feColorMatrix19353-92"
         result="result1"
         in="SourceGraphic"
         values="1 0 0 0 0 0 1 0 0 0 0 0 1 0 0 -0.2125 -0.7154 -0.0721 1 0 " />
      <feColorMatrix
         id="feColorMatrix19355-59"
         values="0"
         type="hueRotate" />
      <feColorMatrix
         id="feColorMatrix19357-999"
         result="result3"
         values="1 0 0 0 0 0 1 0 0 0 0 0 1 0 0 0 0 0 1 0 " />
      <feComposite
         id="feComposite19359-87"
         operator="atop"
         result="result6"
         in2="result3" />
      <feComposite
         k4="0"
         id="feComposite19361-07"
         result="result4"
         in="result6"
         k3="0.5"
         k1="0.5"
         k2="0.5"
         operator="arithmetic"
         in2="result6" />
      <feBlend
         id="feBlend19363-507"
         in="result4"
         result="result2"
         mode="normal"
         in2="fbSourceGraphic" />
      <feComposite
         k4="0"
         k3="0"
         k1="0"
         id="feComposite19365-95"
         result="result5"
         k2="1"
         operator="arithmetic"
         in2="result2" />
      <feComposite
         id="feComposite19367-05"
         result="result5"
         operator="in"
         in2="SourceGraphic" />
    </filter>
    <filter
       height="1"
       width="1"
       y="0"
       x="0"
       id="filter19349-93"
       style="color-interpolation-filters:sRGB"
       inkscape:menu-tooltip="Blend an image with its hue opposite"
       inkscape:menu="Color"
       inkscape:label="Blend Opposites">
      <feColorMatrix
         id="feColorMatrix19351-76"
         in="SourceGraphic"
         result="fbSourceGraphic"
         values="180"
         type="hueRotate" />
      <feColorMatrix
         id="feColorMatrix19353-04"
         result="result1"
         in="SourceGraphic"
         values="1 0 0 0 0 0 1 0 0 0 0 0 1 0 0 -0.2125 -0.7154 -0.0721 1 0 " />
      <feColorMatrix
         id="feColorMatrix19355-58"
         values="0"
         type="hueRotate" />
      <feColorMatrix
         id="feColorMatrix19357-13"
         result="result3"
         values="1 0 0 0 0 0 1 0 0 0 0 0 1 0 0 0 0 0 1 0 " />
      <feComposite
         id="feComposite19359-86"
         operator="atop"
         result="result6"
         in2="result3" />
      <feComposite
         k4="0"
         id="feComposite19361-90"
         result="result4"
         in="result6"
         k3="0.5"
         k1="0.5"
         k2="0.5"
         operator="arithmetic"
         in2="result6" />
      <feBlend
         id="feBlend19363-07"
         in="result4"
         result="result2"
         mode="normal"
         in2="fbSourceGraphic" />
      <feComposite
         k4="0"
         k3="0"
         k1="0"
         id="feComposite19365-10"
         result="result5"
         k2="1"
         operator="arithmetic"
         in2="result2" />
      <feComposite
         id="feComposite19367-63"
         result="result5"
         operator="in"
         in2="SourceGraphic" />
    </filter>
    <filter
       height="1"
       width="1"
       y="0"
       x="0"
       id="filter19349-833"
       style="color-interpolation-filters:sRGB"
       inkscape:menu-tooltip="Blend an image with its hue opposite"
       inkscape:menu="Color"
       inkscape:label="Blend Opposites">
      <feColorMatrix
         id="feColorMatrix19351-71"
         in="SourceGraphic"
         result="fbSourceGraphic"
         values="180"
         type="hueRotate" />
      <feColorMatrix
         id="feColorMatrix19353-37"
         result="result1"
         in="SourceGraphic"
         values="1 0 0 0 0 0 1 0 0 0 0 0 1 0 0 -0.2125 -0.7154 -0.0721 1 0 " />
      <feColorMatrix
         id="feColorMatrix19355-287"
         values="0"
         type="hueRotate" />
      <feColorMatrix
         id="feColorMatrix19357-702"
         result="result3"
         values="1 0 0 0 0 0 1 0 0 0 0 0 1 0 0 0 0 0 1 0 " />
      <feComposite
         id="feComposite19359-464"
         operator="atop"
         result="result6"
         in2="result3" />
      <feComposite
         k4="0"
         id="feComposite19361-91"
         result="result4"
         in="result6"
         k3="0.5"
         k1="0.5"
         k2="0.5"
         operator="arithmetic"
         in2="result6" />
      <feBlend
         id="feBlend19363-20"
         in="result4"
         result="result2"
         mode="normal"
         in2="fbSourceGraphic" />
      <feComposite
         k4="0"
         k3="0"
         k1="0"
         id="feComposite19365-638"
         result="result5"
         k2="1"
         operator="arithmetic"
         in2="result2" />
      <feComposite
         id="feComposite19367-55"
         result="result5"
         operator="in"
         in2="SourceGraphic" />
    </filter>
    <filter
       height="1"
       width="1"
       y="0"
       x="0"
       id="filter19349-92"
       style="color-interpolation-filters:sRGB"
       inkscape:menu-tooltip="Blend an image with its hue opposite"
       inkscape:menu="Color"
       inkscape:label="Blend Opposites">
      <feColorMatrix
         id="feColorMatrix19351-61"
         in="SourceGraphic"
         result="fbSourceGraphic"
         values="180"
         type="hueRotate" />
      <feColorMatrix
         id="feColorMatrix19353-091"
         result="result1"
         in="SourceGraphic"
         values="1 0 0 0 0 0 1 0 0 0 0 0 1 0 0 -0.2125 -0.7154 -0.0721 1 0 " />
      <feColorMatrix
         id="feColorMatrix19355-63"
         values="0"
         type="hueRotate" />
      <feColorMatrix
         id="feColorMatrix19357-97"
         result="result3"
         values="1 0 0 0 0 0 1 0 0 0 0 0 1 0 0 0 0 0 1 0 " />
      <feComposite
         id="feComposite19359-88"
         operator="atop"
         result="result6"
         in2="result3" />
      <feComposite
         k4="0"
         id="feComposite19361-97"
         result="result4"
         in="result6"
         k3="0.5"
         k1="0.5"
         k2="0.5"
         operator="arithmetic"
         in2="result6" />
      <feBlend
         id="feBlend19363-58"
         in="result4"
         result="result2"
         mode="normal"
         in2="fbSourceGraphic" />
      <feComposite
         k4="0"
         k3="0"
         k1="0"
         id="feComposite19365-99"
         result="result5"
         k2="1"
         operator="arithmetic"
         in2="result2" />
      <feComposite
         id="feComposite19367-27"
         result="result5"
         operator="in"
         in2="SourceGraphic" />
    </filter>
    <filter
       height="1"
       width="1"
       y="0"
       x="0"
       id="filter19349-41"
       style="color-interpolation-filters:sRGB"
       inkscape:menu-tooltip="Blend an image with its hue opposite"
       inkscape:menu="Color"
       inkscape:label="Blend Opposites">
      <feColorMatrix
         id="feColorMatrix19351-883"
         in="SourceGraphic"
         result="fbSourceGraphic"
         values="180"
         type="hueRotate" />
      <feColorMatrix
         id="feColorMatrix19353-63"
         result="result1"
         in="SourceGraphic"
         values="1 0 0 0 0 0 1 0 0 0 0 0 1 0 0 -0.2125 -0.7154 -0.0721 1 0 " />
      <feColorMatrix
         id="feColorMatrix19355-218"
         values="0"
         type="hueRotate" />
      <feColorMatrix
         id="feColorMatrix19357-36"
         result="result3"
         values="1 0 0 0 0 0 1 0 0 0 0 0 1 0 0 0 0 0 1 0 " />
      <feComposite
         id="feComposite19359-56"
         operator="atop"
         result="result6"
         in2="result3" />
      <feComposite
         k4="0"
         id="feComposite19361-64"
         result="result4"
         in="result6"
         k3="0.5"
         k1="0.5"
         k2="0.5"
         operator="arithmetic"
         in2="result6" />
      <feBlend
         id="feBlend19363-729"
         in="result4"
         result="result2"
         mode="normal"
         in2="fbSourceGraphic" />
      <feComposite
         k4="0"
         k3="0"
         k1="0"
         id="feComposite19365-61"
         result="result5"
         k2="1"
         operator="arithmetic"
         in2="result2" />
      <feComposite
         id="feComposite19367-842"
         result="result5"
         operator="in"
         in2="SourceGraphic" />
    </filter>
    <filter
       height="1"
       width="1"
       y="0"
       x="0"
       id="filter19349-71"
       style="color-interpolation-filters:sRGB"
       inkscape:menu-tooltip="Blend an image with its hue opposite"
       inkscape:menu="Color"
       inkscape:label="Blend Opposites">
      <feColorMatrix
         id="feColorMatrix19351-06"
         in="SourceGraphic"
         result="fbSourceGraphic"
         values="180"
         type="hueRotate" />
      <feColorMatrix
         id="feColorMatrix19353-13"
         result="result1"
         in="SourceGraphic"
         values="1 0 0 0 0 0 1 0 0 0 0 0 1 0 0 -0.2125 -0.7154 -0.0721 1 0 " />
      <feColorMatrix
         id="feColorMatrix19355-37"
         values="0"
         type="hueRotate" />
      <feColorMatrix
         id="feColorMatrix19357-43"
         result="result3"
         values="1 0 0 0 0 0 1 0 0 0 0 0 1 0 0 0 0 0 1 0 " />
      <feComposite
         id="feComposite19359-50"
         operator="atop"
         result="result6"
         in2="result3" />
      <feComposite
         k4="0"
         id="feComposite19361-99"
         result="result4"
         in="result6"
         k3="0.5"
         k1="0.5"
         k2="0.5"
         operator="arithmetic"
         in2="result6" />
      <feBlend
         id="feBlend19363-42"
         in="result4"
         result="result2"
         mode="normal"
         in2="fbSourceGraphic" />
      <feComposite
         k4="0"
         k3="0"
         k1="0"
         id="feComposite19365-97"
         result="result5"
         k2="1"
         operator="arithmetic"
         in2="result2" />
      <feComposite
         id="feComposite19367-845"
         result="result5"
         operator="in"
         in2="SourceGraphic" />
    </filter>
    <filter
       height="1"
       width="1"
       y="0"
       x="0"
       id="filter19349-51"
       style="color-interpolation-filters:sRGB"
       inkscape:menu-tooltip="Blend an image with its hue opposite"
       inkscape:menu="Color"
       inkscape:label="Blend Opposites">
      <feColorMatrix
         id="feColorMatrix19351-29"
         in="SourceGraphic"
         result="fbSourceGraphic"
         values="180"
         type="hueRotate" />
      <feColorMatrix
         id="feColorMatrix19353-01"
         result="result1"
         in="SourceGraphic"
         values="1 0 0 0 0 0 1 0 0 0 0 0 1 0 0 -0.2125 -0.7154 -0.0721 1 0 " />
      <feColorMatrix
         id="feColorMatrix19355-18"
         values="0"
         type="hueRotate" />
      <feColorMatrix
         id="feColorMatrix19357-53"
         result="result3"
         values="1 0 0 0 0 0 1 0 0 0 0 0 1 0 0 0 0 0 1 0 " />
      <feComposite
         id="feComposite19359-59"
         operator="atop"
         result="result6"
         in2="result3" />
      <feComposite
         k4="0"
         id="feComposite19361-43"
         result="result4"
         in="result6"
         k3="0.5"
         k1="0.5"
         k2="0.5"
         operator="arithmetic"
         in2="result6" />
      <feBlend
         id="feBlend19363-27"
         in="result4"
         result="result2"
         mode="normal"
         in2="fbSourceGraphic" />
      <feComposite
         k4="0"
         k3="0"
         k1="0"
         id="feComposite19365-89"
         result="result5"
         k2="1"
         operator="arithmetic"
         in2="result2" />
      <feComposite
         id="feComposite19367-316"
         result="result5"
         operator="in"
         in2="SourceGraphic" />
    </filter>
    <filter
       height="1"
       width="1"
       y="0"
       x="0"
       id="filter19349-32"
       style="color-interpolation-filters:sRGB"
       inkscape:menu-tooltip="Blend an image with its hue opposite"
       inkscape:menu="Color"
       inkscape:label="Blend Opposites">
      <feColorMatrix
         id="feColorMatrix19351-77"
         in="SourceGraphic"
         result="fbSourceGraphic"
         values="180"
         type="hueRotate" />
      <feColorMatrix
         id="feColorMatrix19353-57"
         result="result1"
         in="SourceGraphic"
         values="1 0 0 0 0 0 1 0 0 0 0 0 1 0 0 -0.2125 -0.7154 -0.0721 1 0 " />
      <feColorMatrix
         id="feColorMatrix19355-65"
         values="0"
         type="hueRotate" />
      <feColorMatrix
         id="feColorMatrix19357-31"
         result="result3"
         values="1 0 0 0 0 0 1 0 0 0 0 0 1 0 0 0 0 0 1 0 " />
      <feComposite
         id="feComposite19359-246"
         operator="atop"
         result="result6"
         in2="result3" />
      <feComposite
         k4="0"
         id="feComposite19361-25"
         result="result4"
         in="result6"
         k3="0.5"
         k1="0.5"
         k2="0.5"
         operator="arithmetic"
         in2="result6" />
      <feBlend
         id="feBlend19363-75"
         in="result4"
         result="result2"
         mode="normal"
         in2="fbSourceGraphic" />
      <feComposite
         k4="0"
         k3="0"
         k1="0"
         id="feComposite19365-54"
         result="result5"
         k2="1"
         operator="arithmetic"
         in2="result2" />
      <feComposite
         id="feComposite19367-83"
         result="result5"
         operator="in"
         in2="SourceGraphic" />
    </filter>
    <filter
       height="1"
       width="1"
       y="0"
       x="0"
       id="filter19349-34"
       style="color-interpolation-filters:sRGB"
       inkscape:menu-tooltip="Blend an image with its hue opposite"
       inkscape:menu="Color"
       inkscape:label="Blend Opposites">
      <feColorMatrix
         id="feColorMatrix19351-67"
         in="SourceGraphic"
         result="fbSourceGraphic"
         values="180"
         type="hueRotate" />
      <feColorMatrix
         id="feColorMatrix19353-35"
         result="result1"
         in="SourceGraphic"
         values="1 0 0 0 0 0 1 0 0 0 0 0 1 0 0 -0.2125 -0.7154 -0.0721 1 0 " />
      <feColorMatrix
         id="feColorMatrix19355-67"
         values="0"
         type="hueRotate" />
      <feColorMatrix
         id="feColorMatrix19357-852"
         result="result3"
         values="1 0 0 0 0 0 1 0 0 0 0 0 1 0 0 0 0 0 1 0 " />
      <feComposite
         id="feComposite19359-12"
         operator="atop"
         result="result6"
         in2="result3" />
      <feComposite
         k4="0"
         id="feComposite19361-28"
         result="result4"
         in="result6"
         k3="0.5"
         k1="0.5"
         k2="0.5"
         operator="arithmetic"
         in2="result6" />
      <feBlend
         id="feBlend19363-10"
         in="result4"
         result="result2"
         mode="normal"
         in2="fbSourceGraphic" />
      <feComposite
         k4="0"
         k3="0"
         k1="0"
         id="feComposite19365-55"
         result="result5"
         k2="1"
         operator="arithmetic"
         in2="result2" />
      <feComposite
         id="feComposite19367-481"
         result="result5"
         operator="in"
         in2="SourceGraphic" />
    </filter>
    <filter
       height="1"
       width="1"
       y="0"
       x="0"
       id="filter19349-02"
       style="color-interpolation-filters:sRGB"
       inkscape:menu-tooltip="Blend an image with its hue opposite"
       inkscape:menu="Color"
       inkscape:label="Blend Opposites">
      <feColorMatrix
         id="feColorMatrix19351-677"
         in="SourceGraphic"
         result="fbSourceGraphic"
         values="180"
         type="hueRotate" />
      <feColorMatrix
         id="feColorMatrix19353-417"
         result="result1"
         in="SourceGraphic"
         values="1 0 0 0 0 0 1 0 0 0 0 0 1 0 0 -0.2125 -0.7154 -0.0721 1 0 " />
      <feColorMatrix
         id="feColorMatrix19355-77"
         values="0"
         type="hueRotate" />
      <feColorMatrix
         id="feColorMatrix19357-434"
         result="result3"
         values="1 0 0 0 0 0 1 0 0 0 0 0 1 0 0 0 0 0 1 0 " />
      <feComposite
         id="feComposite19359-70"
         operator="atop"
         result="result6"
         in2="result3" />
      <feComposite
         k4="0"
         id="feComposite19361-36"
         result="result4"
         in="result6"
         k3="0.5"
         k1="0.5"
         k2="0.5"
         operator="arithmetic"
         in2="result6" />
      <feBlend
         id="feBlend19363-98"
         in="result4"
         result="result2"
         mode="normal"
         in2="fbSourceGraphic" />
      <feComposite
         k4="0"
         k3="0"
         k1="0"
         id="feComposite19365-922"
         result="result5"
         k2="1"
         operator="arithmetic"
         in2="result2" />
      <feComposite
         id="feComposite19367-30"
         result="result5"
         operator="in"
         in2="SourceGraphic" />
    </filter>
    <filter
       height="1"
       width="1"
       y="0"
       x="0"
       id="filter19349-43"
       style="color-interpolation-filters:sRGB"
       inkscape:menu-tooltip="Blend an image with its hue opposite"
       inkscape:menu="Color"
       inkscape:label="Blend Opposites">
      <feColorMatrix
         id="feColorMatrix19351-519"
         in="SourceGraphic"
         result="fbSourceGraphic"
         values="180"
         type="hueRotate" />
      <feColorMatrix
         id="feColorMatrix19353-54"
         result="result1"
         in="SourceGraphic"
         values="1 0 0 0 0 0 1 0 0 0 0 0 1 0 0 -0.2125 -0.7154 -0.0721 1 0 " />
      <feColorMatrix
         id="feColorMatrix19355-97"
         values="0"
         type="hueRotate" />
      <feColorMatrix
         id="feColorMatrix19357-18"
         result="result3"
         values="1 0 0 0 0 0 1 0 0 0 0 0 1 0 0 0 0 0 1 0 " />
      <feComposite
         id="feComposite19359-67"
         operator="atop"
         result="result6"
         in2="result3" />
      <feComposite
         k4="0"
         id="feComposite19361-26"
         result="result4"
         in="result6"
         k3="0.5"
         k1="0.5"
         k2="0.5"
         operator="arithmetic"
         in2="result6" />
      <feBlend
         id="feBlend19363-49"
         in="result4"
         result="result2"
         mode="normal"
         in2="fbSourceGraphic" />
      <feComposite
         k4="0"
         k3="0"
         k1="0"
         id="feComposite19365-095"
         result="result5"
         k2="1"
         operator="arithmetic"
         in2="result2" />
      <feComposite
         id="feComposite19367-90"
         result="result5"
         operator="in"
         in2="SourceGraphic" />
    </filter>
    <filter
       height="1"
       width="1"
       y="0"
       x="0"
       id="filter19349-86"
       style="color-interpolation-filters:sRGB"
       inkscape:menu-tooltip="Blend an image with its hue opposite"
       inkscape:menu="Color"
       inkscape:label="Blend Opposites">
      <feColorMatrix
         id="feColorMatrix19351-98"
         in="SourceGraphic"
         result="fbSourceGraphic"
         values="180"
         type="hueRotate" />
      <feColorMatrix
         id="feColorMatrix19353-71"
         result="result1"
         in="SourceGraphic"
         values="1 0 0 0 0 0 1 0 0 0 0 0 1 0 0 -0.2125 -0.7154 -0.0721 1 0 " />
      <feColorMatrix
         id="feColorMatrix19355-10"
         values="0"
         type="hueRotate" />
      <feColorMatrix
         id="feColorMatrix19357-37"
         result="result3"
         values="1 0 0 0 0 0 1 0 0 0 0 0 1 0 0 0 0 0 1 0 " />
      <feComposite
         id="feComposite19359-58"
         operator="atop"
         result="result6"
         in2="result3" />
      <feComposite
         k4="0"
         id="feComposite19361-076"
         result="result4"
         in="result6"
         k3="0.5"
         k1="0.5"
         k2="0.5"
         operator="arithmetic"
         in2="result6" />
      <feBlend
         id="feBlend19363-465"
         in="result4"
         result="result2"
         mode="normal"
         in2="fbSourceGraphic" />
      <feComposite
         k4="0"
         k3="0"
         k1="0"
         id="feComposite19365-77"
         result="result5"
         k2="1"
         operator="arithmetic"
         in2="result2" />
      <feComposite
         id="feComposite19367-44"
         result="result5"
         operator="in"
         in2="SourceGraphic" />
    </filter>
  </defs>
  <sodipodi:namedview
     id="base"
     pagecolor="#ffffff"
     bordercolor="#666666"
     borderopacity="1.0"
     inkscape:pageopacity="0.0"
     inkscape:pageshadow="2"
     inkscape:zoom="0.35"
     inkscape:cx="375"
     inkscape:cy="748.57145"
     inkscape:document-units="px"
     inkscape:current-layer="layer1"
     showgrid="false"
     fit-margin-top="0"
     fit-margin-left="0"
     fit-margin-right="0"
     fit-margin-bottom="0"
     inkscape:window-width="1871"
     inkscape:window-height="1056"
     inkscape:window-x="49"
     inkscape:window-y="24"
     inkscape:window-maximized="1" />
  <metadata
     id="metadata15600">
    <rdf:RDF>
      <cc:Work
         rdf:about="">
        <dc:format>image/svg+xml</dc:format>
        <dc:type
           rdf:resource="http://purl.org/dc/dcmitype/StillImage" />
        <dc:title></dc:title>
      </cc:Work>
    </rdf:RDF>
  </metadata>
  <g
     inkscape:label="Layer 1"
     inkscape:groupmode="layer"
     id="layer1"
     transform="translate(1.153949e-6,-740.5512)">
    <g
       transform="matrix(1.0044823,0,0,1.0032089,-465.61124,1820.0806)"
       style="filter:url(#filter19349-86)"
       id="g100747">
      <rect
         ry="10.59592"
         rx="10.582486"
         style="display:inline;fill:#ffffff;fill-opacity:1;stroke:#000000;stroke-width:0.99291563;stroke-miterlimit:4;stroke-dasharray:none;stroke-opacity:1"
         id="rect5589"
         width="222.23224"
         height="310.81366"
         x="463.53354"
         y="-1076.0764" />
      <path
         sodipodi:nodetypes="cccscsccc"
         inkscape:connector-curvature="0"
         style="display:inline;opacity:1;fill:#d40000"
         d="m 480.67388,-1006.3268 c 0,0 -2.21477,-3.1796 -5.20238,-6.9179 -1.99874,-2.5017 -3.59658,-5.2105 -3.74521,-7.5438 -0.17034,-2.6653 1.44254,-5.3393 4.36255,-5.4689 2.91831,-0.1295 4.10281,2.0551 4.58504,3.8563 0.48224,-1.8012 1.66683,-3.9858 4.58505,-3.8563 2.92001,0.1296 4.53298,2.8036 4.36255,5.4689 -0.14854,2.3333 -1.74647,5.0421 -3.74512,7.5438 -2.9877,3.7383 -5.20248,6.9179 -5.20248,6.9179 z"
         id="path9698-0-0" />
      <path
         sodipodi:nodetypes="cccscsccc"
         inkscape:connector-curvature="0"
         style="display:inline;opacity:1;fill:#d40000"
         d="m 668.62593,-835.01193 c 0,0 -2.21477,3.17958 -5.20238,6.91791 -1.99874,2.50166 -3.59658,5.2105 -3.74521,7.54374 -0.17034,2.66533 1.44253,5.33927 4.36254,5.46888 2.91832,0.12951 4.10281,-2.05509 4.58505,-3.85622 0.48224,1.80113 1.66683,3.98573 4.58505,3.85622 2.92001,-0.12961 4.53298,-2.80355 4.36254,-5.46888 -0.14853,-2.33324 -1.74647,-5.04208 -3.74511,-7.54374 -2.98771,-3.73833 -5.20248,-6.91791 -5.20248,-6.91791 z"
         id="path9700-3-2" />
      <path
         sodipodi:nodetypes="cccscsccc"
         inkscape:connector-curvature="0"
         style="display:inline;opacity:1;fill:#d40000"
         d="m 574.6495,-896.74621 c 0,0 -4.64548,-7.63099 -10.91199,-16.60299 -4.19221,-6.00399 -7.54379,-12.5052 -7.85539,-18.10499 -0.3574,-6.39678 3.02564,-12.81426 9.15038,-13.12529 6.12107,-0.31085 8.60563,4.9322 9.617,9.25491 1.01146,-4.32271 3.49603,-9.56576 9.61709,-9.25491 6.12475,0.31103 9.50778,6.72851 9.15039,13.12529 -0.31161,5.59979 -3.66318,12.101 -7.85539,18.10499 -6.26652,8.972 -10.91209,16.60299 -10.91209,16.60299 z"
         id="path9714-6-6" />
      <path
         d="m 470.62542,-1029.3884 0,-2.8127 2.68029,0 5.7098,-30.0817 3.24984,0 6.2897,30.0817 2.1644,0 0,2.8127 -7.37514,0 0,-2.8127 1.99038,0 -0.79484,-4.6099 -7.44035,0 -0.57472,4.6099 1.99028,0 0,2.8127 -7.88964,0 z m 13.27958,-10.7063 -3.2345,-16.1008 -3.02963,16.1008 6.26413,0 z m 0,0"
         id="path41-87-8-3-9"
         inkscape:connector-curvature="0"
         style="opacity:1;fill:#d40000;fill-opacity:1;stroke-width:1;stroke-miterlimit:4;stroke-dasharray:none" />
      <path
         d="m 658.57748,-811.95041 0,2.81267 2.68029,0 5.7098,30.08177 3.24984,0 6.2897,-30.08177 2.1644,0 0,-2.81267 -7.37514,0 0,2.81267 1.99038,0 -0.79484,4.60981 -7.44035,0 -0.57472,-4.60981 1.99028,0 0,-2.81267 -7.88964,0 z m 13.27958,10.70634 -3.2345,16.10073 -3.02963,-16.10073 6.26413,0 z m 0,0"
         id="path41-8-5-1-8-7"
         inkscape:connector-curvature="0"
         style="opacity:1;fill:#d40000;fill-opacity:1" />
    </g>
  </g>
</svg>
