<?xml version="1.0" encoding="UTF-8" standalone="no"?>
<!-- Created with Inkscape (http://www.inkscape.org/) -->

<svg
   xmlns:dc="http://purl.org/dc/elements/1.1/"
   xmlns:cc="http://creativecommons.org/ns#"
   xmlns:rdf="http://www.w3.org/1999/02/22-rdf-syntax-ns#"
   xmlns:svg="http://www.w3.org/2000/svg"
   xmlns="http://www.w3.org/2000/svg"
   xmlns:sodipodi="http://sodipodi.sourceforge.net/DTD/sodipodi-0.dtd"
   xmlns:inkscape="http://www.inkscape.org/namespaces/inkscape"
   width="63mm"
   height="88mm"
   viewBox="0 0 223.22835 311.81102"
   id="svg15595"
   version="1.1"
   inkscape:version="0.91 r13725"
   sodipodi:docname="h06.svg">
  <defs
     id="defs15597">
    <filter
       height="1"
       width="1"
       y="0"
       x="0"
       id="filter19349"
       style="color-interpolation-filters:sRGB"
       inkscape:menu-tooltip="Blend an image with its hue opposite"
       inkscape:menu="Color"
       inkscape:label="Blend Opposites">
      <feColorMatrix
         id="feColorMatrix19351"
         in="SourceGraphic"
         result="fbSourceGraphic"
         values="180"
         type="hueRotate" />
      <feColorMatrix
         id="feColorMatrix19353"
         result="result1"
         in="SourceGraphic"
         values="1 0 0 0 0 0 1 0 0 0 0 0 1 0 0 -0.2125 -0.7154 -0.0721 1 0 " />
      <feColorMatrix
         id="feColorMatrix19355"
         values="0"
         type="hueRotate" />
      <feColorMatrix
         id="feColorMatrix19357"
         result="result3"
         values="1 0 0 0 0 0 1 0 0 0 0 0 1 0 0 0 0 0 1 0 " />
      <feComposite
         id="feComposite19359"
         operator="atop"
         result="result6"
         in2="result3" />
      <feComposite
         k4="0"
         id="feComposite19361"
         result="result4"
         in="result6"
         k3="0.5"
         k1="0.5"
         k2="0.5"
         operator="arithmetic"
         in2="result6" />
      <feBlend
         id="feBlend19363"
         in="result4"
         result="result2"
         mode="normal"
         in2="fbSourceGraphic" />
      <feComposite
         k4="0"
         k3="0"
         k1="0"
         id="feComposite19365"
         result="result5"
         k2="1"
         operator="arithmetic"
         in2="result2" />
      <feComposite
         id="feComposite19367"
         result="result5"
         operator="in"
         in2="SourceGraphic" />
    </filter>
    <filter
       height="1"
       width="1"
       y="0"
       x="0"
       id="filter19349-2"
       style="color-interpolation-filters:sRGB"
       inkscape:menu-tooltip="Blend an image with its hue opposite"
       inkscape:menu="Color"
       inkscape:label="Blend Opposites">
      <feColorMatrix
         id="feColorMatrix19351-7"
         in="SourceGraphic"
         result="fbSourceGraphic"
         values="180"
         type="hueRotate" />
      <feColorMatrix
         id="feColorMatrix19353-9"
         result="result1"
         in="SourceGraphic"
         values="1 0 0 0 0 0 1 0 0 0 0 0 1 0 0 -0.2125 -0.7154 -0.0721 1 0 " />
      <feColorMatrix
         id="feColorMatrix19355-8"
         values="0"
         type="hueRotate" />
      <feColorMatrix
         id="feColorMatrix19357-3"
         result="result3"
         values="1 0 0 0 0 0 1 0 0 0 0 0 1 0 0 0 0 0 1 0 " />
      <feComposite
         id="feComposite19359-4"
         operator="atop"
         result="result6"
         in2="result3" />
      <feComposite
         k4="0"
         id="feComposite19361-1"
         result="result4"
         in="result6"
         k3="0.5"
         k1="0.5"
         k2="0.5"
         operator="arithmetic"
         in2="result6" />
      <feBlend
         id="feBlend19363-4"
         in="result4"
         result="result2"
         mode="normal"
         in2="fbSourceGraphic" />
      <feComposite
         k4="0"
         k3="0"
         k1="0"
         id="feComposite19365-5"
         result="result5"
         k2="1"
         operator="arithmetic"
         in2="result2" />
      <feComposite
         id="feComposite19367-8"
         result="result5"
         operator="in"
         in2="SourceGraphic" />
    </filter>
    <filter
       height="1"
       width="1"
       y="0"
       x="0"
       id="filter19349-0"
       style="color-interpolation-filters:sRGB"
       inkscape:menu-tooltip="Blend an image with its hue opposite"
       inkscape:menu="Color"
       inkscape:label="Blend Opposites">
      <feColorMatrix
         id="feColorMatrix19351-0"
         in="SourceGraphic"
         result="fbSourceGraphic"
         values="180"
         type="hueRotate" />
      <feColorMatrix
         id="feColorMatrix19353-1"
         result="result1"
         in="SourceGraphic"
         values="1 0 0 0 0 0 1 0 0 0 0 0 1 0 0 -0.2125 -0.7154 -0.0721 1 0 " />
      <feColorMatrix
         id="feColorMatrix19355-7"
         values="0"
         type="hueRotate" />
      <feColorMatrix
         id="feColorMatrix19357-32"
         result="result3"
         values="1 0 0 0 0 0 1 0 0 0 0 0 1 0 0 0 0 0 1 0 " />
      <feComposite
         id="feComposite19359-3"
         operator="atop"
         result="result6"
         in2="result3" />
      <feComposite
         k4="0"
         id="feComposite19361-6"
         result="result4"
         in="result6"
         k3="0.5"
         k1="0.5"
         k2="0.5"
         operator="arithmetic"
         in2="result6" />
      <feBlend
         id="feBlend19363-44"
         in="result4"
         result="result2"
         mode="normal"
         in2="fbSourceGraphic" />
      <feComposite
         k4="0"
         k3="0"
         k1="0"
         id="feComposite19365-6"
         result="result5"
         k2="1"
         operator="arithmetic"
         in2="result2" />
      <feComposite
         id="feComposite19367-7"
         result="result5"
         operator="in"
         in2="SourceGraphic" />
    </filter>
    <filter
       height="1"
       width="1"
       y="0"
       x="0"
       id="filter19349-20"
       style="color-interpolation-filters:sRGB"
       inkscape:menu-tooltip="Blend an image with its hue opposite"
       inkscape:menu="Color"
       inkscape:label="Blend Opposites">
      <feColorMatrix
         id="feColorMatrix19351-2"
         in="SourceGraphic"
         result="fbSourceGraphic"
         values="180"
         type="hueRotate" />
      <feColorMatrix
         id="feColorMatrix19353-6"
         result="result1"
         in="SourceGraphic"
         values="1 0 0 0 0 0 1 0 0 0 0 0 1 0 0 -0.2125 -0.7154 -0.0721 1 0 " />
      <feColorMatrix
         id="feColorMatrix19355-2"
         values="0"
         type="hueRotate" />
      <feColorMatrix
         id="feColorMatrix19357-6"
         result="result3"
         values="1 0 0 0 0 0 1 0 0 0 0 0 1 0 0 0 0 0 1 0 " />
      <feComposite
         id="feComposite19359-0"
         operator="atop"
         result="result6"
         in2="result3" />
      <feComposite
         k4="0"
         id="feComposite19361-66"
         result="result4"
         in="result6"
         k3="0.5"
         k1="0.5"
         k2="0.5"
         operator="arithmetic"
         in2="result6" />
      <feBlend
         id="feBlend19363-43"
         in="result4"
         result="result2"
         mode="normal"
         in2="fbSourceGraphic" />
      <feComposite
         k4="0"
         k3="0"
         k1="0"
         id="feComposite19365-7"
         result="result5"
         k2="1"
         operator="arithmetic"
         in2="result2" />
      <feComposite
         id="feComposite19367-3"
         result="result5"
         operator="in"
         in2="SourceGraphic" />
    </filter>
    <filter
       height="1"
       width="1"
       y="0"
       x="0"
       id="filter19349-8"
       style="color-interpolation-filters:sRGB"
       inkscape:menu-tooltip="Blend an image with its hue opposite"
       inkscape:menu="Color"
       inkscape:label="Blend Opposites">
      <feColorMatrix
         id="feColorMatrix19351-26"
         in="SourceGraphic"
         result="fbSourceGraphic"
         values="180"
         type="hueRotate" />
      <feColorMatrix
         id="feColorMatrix19353-2"
         result="result1"
         in="SourceGraphic"
         values="1 0 0 0 0 0 1 0 0 0 0 0 1 0 0 -0.2125 -0.7154 -0.0721 1 0 " />
      <feColorMatrix
         id="feColorMatrix19355-9"
         values="0"
         type="hueRotate" />
      <feColorMatrix
         id="feColorMatrix19357-7"
         result="result3"
         values="1 0 0 0 0 0 1 0 0 0 0 0 1 0 0 0 0 0 1 0 " />
      <feComposite
         id="feComposite19359-5"
         operator="atop"
         result="result6"
         in2="result3" />
      <feComposite
         k4="0"
         id="feComposite19361-9"
         result="result4"
         in="result6"
         k3="0.5"
         k1="0.5"
         k2="0.5"
         operator="arithmetic"
         in2="result6" />
      <feBlend
         id="feBlend19363-8"
         in="result4"
         result="result2"
         mode="normal"
         in2="fbSourceGraphic" />
      <feComposite
         k4="0"
         k3="0"
         k1="0"
         id="feComposite19365-2"
         result="result5"
         k2="1"
         operator="arithmetic"
         in2="result2" />
      <feComposite
         id="feComposite19367-33"
         result="result5"
         operator="in"
         in2="SourceGraphic" />
    </filter>
    <filter
       height="1"
       width="1"
       y="0"
       x="0"
       id="filter19349-7"
       style="color-interpolation-filters:sRGB"
       inkscape:menu-tooltip="Blend an image with its hue opposite"
       inkscape:menu="Color"
       inkscape:label="Blend Opposites">
      <feColorMatrix
         id="feColorMatrix19351-1"
         in="SourceGraphic"
         result="fbSourceGraphic"
         values="180"
         type="hueRotate" />
      <feColorMatrix
         id="feColorMatrix19353-7"
         result="result1"
         in="SourceGraphic"
         values="1 0 0 0 0 0 1 0 0 0 0 0 1 0 0 -0.2125 -0.7154 -0.0721 1 0 " />
      <feColorMatrix
         id="feColorMatrix19355-29"
         values="0"
         type="hueRotate" />
      <feColorMatrix
         id="feColorMatrix19357-4"
         result="result3"
         values="1 0 0 0 0 0 1 0 0 0 0 0 1 0 0 0 0 0 1 0 " />
      <feComposite
         id="feComposite19359-6"
         operator="atop"
         result="result6"
         in2="result3" />
      <feComposite
         k4="0"
         id="feComposite19361-18"
         result="result4"
         in="result6"
         k3="0.5"
         k1="0.5"
         k2="0.5"
         operator="arithmetic"
         in2="result6" />
      <feBlend
         id="feBlend19363-2"
         in="result4"
         result="result2"
         mode="normal"
         in2="fbSourceGraphic" />
      <feComposite
         k4="0"
         k3="0"
         k1="0"
         id="feComposite19365-4"
         result="result5"
         k2="1"
         operator="arithmetic"
         in2="result2" />
      <feComposite
         id="feComposite19367-4"
         result="result5"
         operator="in"
         in2="SourceGraphic" />
    </filter>
    <filter
       height="1"
       width="1"
       y="0"
       x="0"
       id="filter19349-4"
       style="color-interpolation-filters:sRGB"
       inkscape:menu-tooltip="Blend an image with its hue opposite"
       inkscape:menu="Color"
       inkscape:label="Blend Opposites">
      <feColorMatrix
         id="feColorMatrix19351-03"
         in="SourceGraphic"
         result="fbSourceGraphic"
         values="180"
         type="hueRotate" />
      <feColorMatrix
         id="feColorMatrix19353-15"
         result="result1"
         in="SourceGraphic"
         values="1 0 0 0 0 0 1 0 0 0 0 0 1 0 0 -0.2125 -0.7154 -0.0721 1 0 " />
      <feColorMatrix
         id="feColorMatrix19355-24"
         values="0"
         type="hueRotate" />
      <feColorMatrix
         id="feColorMatrix19357-64"
         result="result3"
         values="1 0 0 0 0 0 1 0 0 0 0 0 1 0 0 0 0 0 1 0 " />
      <feComposite
         id="feComposite19359-2"
         operator="atop"
         result="result6"
         in2="result3" />
      <feComposite
         k4="0"
         id="feComposite19361-8"
         result="result4"
         in="result6"
         k3="0.5"
         k1="0.5"
         k2="0.5"
         operator="arithmetic"
         in2="result6" />
      <feBlend
         id="feBlend19363-5"
         in="result4"
         result="result2"
         mode="normal"
         in2="fbSourceGraphic" />
      <feComposite
         k4="0"
         k3="0"
         k1="0"
         id="feComposite19365-9"
         result="result5"
         k2="1"
         operator="arithmetic"
         in2="result2" />
      <feComposite
         id="feComposite19367-35"
         result="result5"
         operator="in"
         in2="SourceGraphic" />
    </filter>
    <filter
       height="1"
       width="1"
       y="0"
       x="0"
       id="filter19349-08"
       style="color-interpolation-filters:sRGB"
       inkscape:menu-tooltip="Blend an image with its hue opposite"
       inkscape:menu="Color"
       inkscape:label="Blend Opposites">
      <feColorMatrix
         id="feColorMatrix19351-035"
         in="SourceGraphic"
         result="fbSourceGraphic"
         values="180"
         type="hueRotate" />
      <feColorMatrix
         id="feColorMatrix19353-12"
         result="result1"
         in="SourceGraphic"
         values="1 0 0 0 0 0 1 0 0 0 0 0 1 0 0 -0.2125 -0.7154 -0.0721 1 0 " />
      <feColorMatrix
         id="feColorMatrix19355-90"
         values="0"
         type="hueRotate" />
      <feColorMatrix
         id="feColorMatrix19357-75"
         result="result3"
         values="1 0 0 0 0 0 1 0 0 0 0 0 1 0 0 0 0 0 1 0 " />
      <feComposite
         id="feComposite19359-1"
         operator="atop"
         result="result6"
         in2="result3" />
      <feComposite
         k4="0"
         id="feComposite19361-7"
         result="result4"
         in="result6"
         k3="0.5"
         k1="0.5"
         k2="0.5"
         operator="arithmetic"
         in2="result6" />
      <feBlend
         id="feBlend19363-0"
         in="result4"
         result="result2"
         mode="normal"
         in2="fbSourceGraphic" />
      <feComposite
         k4="0"
         k3="0"
         k1="0"
         id="feComposite19365-74"
         result="result5"
         k2="1"
         operator="arithmetic"
         in2="result2" />
      <feComposite
         id="feComposite19367-49"
         result="result5"
         operator="in"
         in2="SourceGraphic" />
    </filter>
    <filter
       height="1"
       width="1"
       y="0"
       x="0"
       id="filter19349-75"
       style="color-interpolation-filters:sRGB"
       inkscape:menu-tooltip="Blend an image with its hue opposite"
       inkscape:menu="Color"
       inkscape:label="Blend Opposites">
      <feColorMatrix
         id="feColorMatrix19351-5"
         in="SourceGraphic"
         result="fbSourceGraphic"
         values="180"
         type="hueRotate" />
      <feColorMatrix
         id="feColorMatrix19353-11"
         result="result1"
         in="SourceGraphic"
         values="1 0 0 0 0 0 1 0 0 0 0 0 1 0 0 -0.2125 -0.7154 -0.0721 1 0 " />
      <feColorMatrix
         id="feColorMatrix19355-1"
         values="0"
         type="hueRotate" />
      <feColorMatrix
         id="feColorMatrix19357-8"
         result="result3"
         values="1 0 0 0 0 0 1 0 0 0 0 0 1 0 0 0 0 0 1 0 " />
      <feComposite
         id="feComposite19359-61"
         operator="atop"
         result="result6"
         in2="result3" />
      <feComposite
         k4="0"
         id="feComposite19361-3"
         result="result4"
         in="result6"
         k3="0.5"
         k1="0.5"
         k2="0.5"
         operator="arithmetic"
         in2="result6" />
      <feBlend
         id="feBlend19363-57"
         in="result4"
         result="result2"
         mode="normal"
         in2="fbSourceGraphic" />
      <feComposite
         k4="0"
         k3="0"
         k1="0"
         id="feComposite19365-8"
         result="result5"
         k2="1"
         operator="arithmetic"
         in2="result2" />
      <feComposite
         id="feComposite19367-75"
         result="result5"
         operator="in"
         in2="SourceGraphic" />
    </filter>
    <filter
       height="1"
       width="1"
       y="0"
       x="0"
       id="filter19349-80"
       style="color-interpolation-filters:sRGB"
       inkscape:menu-tooltip="Blend an image with its hue opposite"
       inkscape:menu="Color"
       inkscape:label="Blend Opposites">
      <feColorMatrix
         id="feColorMatrix19351-21"
         in="SourceGraphic"
         result="fbSourceGraphic"
         values="180"
         type="hueRotate" />
      <feColorMatrix
         id="feColorMatrix19353-5"
         result="result1"
         in="SourceGraphic"
         values="1 0 0 0 0 0 1 0 0 0 0 0 1 0 0 -0.2125 -0.7154 -0.0721 1 0 " />
      <feColorMatrix
         id="feColorMatrix19355-21"
         values="0"
         type="hueRotate" />
      <feColorMatrix
         id="feColorMatrix19357-49"
         result="result3"
         values="1 0 0 0 0 0 1 0 0 0 0 0 1 0 0 0 0 0 1 0 " />
      <feComposite
         id="feComposite19359-51"
         operator="atop"
         result="result6"
         in2="result3" />
      <feComposite
         k4="0"
         id="feComposite19361-94"
         result="result4"
         in="result6"
         k3="0.5"
         k1="0.5"
         k2="0.5"
         operator="arithmetic"
         in2="result6" />
      <feBlend
         id="feBlend19363-56"
         in="result4"
         result="result2"
         mode="normal"
         in2="fbSourceGraphic" />
      <feComposite
         k4="0"
         k3="0"
         k1="0"
         id="feComposite19365-44"
         result="result5"
         k2="1"
         operator="arithmetic"
         in2="result2" />
      <feComposite
         id="feComposite19367-31"
         result="result5"
         operator="in"
         in2="SourceGraphic" />
    </filter>
    <filter
       height="1"
       width="1"
       y="0"
       x="0"
       id="filter19349-6"
       style="color-interpolation-filters:sRGB"
       inkscape:menu-tooltip="Blend an image with its hue opposite"
       inkscape:menu="Color"
       inkscape:label="Blend Opposites">
      <feColorMatrix
         id="feColorMatrix19351-74"
         in="SourceGraphic"
         result="fbSourceGraphic"
         values="180"
         type="hueRotate" />
      <feColorMatrix
         id="feColorMatrix19353-4"
         result="result1"
         in="SourceGraphic"
         values="1 0 0 0 0 0 1 0 0 0 0 0 1 0 0 -0.2125 -0.7154 -0.0721 1 0 " />
      <feColorMatrix
         id="feColorMatrix19355-3"
         values="0"
         type="hueRotate" />
      <feColorMatrix
         id="feColorMatrix19357-5"
         result="result3"
         values="1 0 0 0 0 0 1 0 0 0 0 0 1 0 0 0 0 0 1 0 " />
      <feComposite
         id="feComposite19359-7"
         operator="atop"
         result="result6"
         in2="result3" />
      <feComposite
         k4="0"
         id="feComposite19361-0"
         result="result4"
         in="result6"
         k3="0.5"
         k1="0.5"
         k2="0.5"
         operator="arithmetic"
         in2="result6" />
      <feBlend
         id="feBlend19363-48"
         in="result4"
         result="result2"
         mode="normal"
         in2="fbSourceGraphic" />
      <feComposite
         k4="0"
         k3="0"
         k1="0"
         id="feComposite19365-81"
         result="result5"
         k2="1"
         operator="arithmetic"
         in2="result2" />
      <feComposite
         id="feComposite19367-6"
         result="result5"
         operator="in"
         in2="SourceGraphic" />
    </filter>
    <filter
       height="1"
       width="1"
       y="0"
       x="0"
       id="filter19349-06"
       style="color-interpolation-filters:sRGB"
       inkscape:menu-tooltip="Blend an image with its hue opposite"
       inkscape:menu="Color"
       inkscape:label="Blend Opposites">
      <feColorMatrix
         id="feColorMatrix19351-8"
         in="SourceGraphic"
         result="fbSourceGraphic"
         values="180"
         type="hueRotate" />
      <feColorMatrix
         id="feColorMatrix19353-58"
         result="result1"
         in="SourceGraphic"
         values="1 0 0 0 0 0 1 0 0 0 0 0 1 0 0 -0.2125 -0.7154 -0.0721 1 0 " />
      <feColorMatrix
         id="feColorMatrix19355-19"
         values="0"
         type="hueRotate" />
      <feColorMatrix
         id="feColorMatrix19357-9"
         result="result3"
         values="1 0 0 0 0 0 1 0 0 0 0 0 1 0 0 0 0 0 1 0 " />
      <feComposite
         id="feComposite19359-8"
         operator="atop"
         result="result6"
         in2="result3" />
      <feComposite
         k4="0"
         id="feComposite19361-11"
         result="result4"
         in="result6"
         k3="0.5"
         k1="0.5"
         k2="0.5"
         operator="arithmetic"
         in2="result6" />
      <feBlend
         id="feBlend19363-3"
         in="result4"
         result="result2"
         mode="normal"
         in2="fbSourceGraphic" />
      <feComposite
         k4="0"
         k3="0"
         k1="0"
         id="feComposite19365-87"
         result="result5"
         k2="1"
         operator="arithmetic"
         in2="result2" />
      <feComposite
         id="feComposite19367-73"
         result="result5"
         operator="in"
         in2="SourceGraphic" />
    </filter>
    <filter
       height="1"
       width="1"
       y="0"
       x="0"
       id="filter19349-209"
       style="color-interpolation-filters:sRGB"
       inkscape:menu-tooltip="Blend an image with its hue opposite"
       inkscape:menu="Color"
       inkscape:label="Blend Opposites">
      <feColorMatrix
         id="feColorMatrix19351-9"
         in="SourceGraphic"
         result="fbSourceGraphic"
         values="180"
         type="hueRotate" />
      <feColorMatrix
         id="feColorMatrix19353-45"
         result="result1"
         in="SourceGraphic"
         values="1 0 0 0 0 0 1 0 0 0 0 0 1 0 0 -0.2125 -0.7154 -0.0721 1 0 " />
      <feColorMatrix
         id="feColorMatrix19355-4"
         values="0"
         type="hueRotate" />
      <feColorMatrix
         id="feColorMatrix19357-1"
         result="result3"
         values="1 0 0 0 0 0 1 0 0 0 0 0 1 0 0 0 0 0 1 0 " />
      <feComposite
         id="feComposite19359-25"
         operator="atop"
         result="result6"
         in2="result3" />
      <feComposite
         k4="0"
         id="feComposite19361-60"
         result="result4"
         in="result6"
         k3="0.5"
         k1="0.5"
         k2="0.5"
         operator="arithmetic"
         in2="result6" />
      <feBlend
         id="feBlend19363-579"
         in="result4"
         result="result2"
         mode="normal"
         in2="fbSourceGraphic" />
      <feComposite
         k4="0"
         k3="0"
         k1="0"
         id="feComposite19365-53"
         result="result5"
         k2="1"
         operator="arithmetic"
         in2="result2" />
      <feComposite
         id="feComposite19367-9"
         result="result5"
         operator="in"
         in2="SourceGraphic" />
    </filter>
    <filter
       height="1"
       width="1"
       y="0"
       x="0"
       id="filter19349-3"
       style="color-interpolation-filters:sRGB"
       inkscape:menu-tooltip="Blend an image with its hue opposite"
       inkscape:menu="Color"
       inkscape:label="Blend Opposites">
      <feColorMatrix
         id="feColorMatrix19351-3"
         in="SourceGraphic"
         result="fbSourceGraphic"
         values="180"
         type="hueRotate" />
      <feColorMatrix
         id="feColorMatrix19353-0"
         result="result1"
         in="SourceGraphic"
         values="1 0 0 0 0 0 1 0 0 0 0 0 1 0 0 -0.2125 -0.7154 -0.0721 1 0 " />
      <feColorMatrix
         id="feColorMatrix19355-45"
         values="0"
         type="hueRotate" />
      <feColorMatrix
         id="feColorMatrix19357-17"
         result="result3"
         values="1 0 0 0 0 0 1 0 0 0 0 0 1 0 0 0 0 0 1 0 " />
      <feComposite
         id="feComposite19359-64"
         operator="atop"
         result="result6"
         in2="result3" />
      <feComposite
         k4="0"
         id="feComposite19361-63"
         result="result4"
         in="result6"
         k3="0.5"
         k1="0.5"
         k2="0.5"
         operator="arithmetic"
         in2="result6" />
      <feBlend
         id="feBlend19363-39"
         in="result4"
         result="result2"
         mode="normal"
         in2="fbSourceGraphic" />
      <feComposite
         k4="0"
         k3="0"
         k1="0"
         id="feComposite19365-73"
         result="result5"
         k2="1"
         operator="arithmetic"
         in2="result2" />
      <feComposite
         id="feComposite19367-0"
         result="result5"
         operator="in"
         in2="SourceGraphic" />
    </filter>
    <filter
       height="1"
       width="1"
       y="0"
       x="0"
       id="filter19349-79"
       style="color-interpolation-filters:sRGB"
       inkscape:menu-tooltip="Blend an image with its hue opposite"
       inkscape:menu="Color"
       inkscape:label="Blend Opposites">
      <feColorMatrix
         id="feColorMatrix19351-51"
         in="SourceGraphic"
         result="fbSourceGraphic"
         values="180"
         type="hueRotate" />
      <feColorMatrix
         id="feColorMatrix19353-09"
         result="result1"
         in="SourceGraphic"
         values="1 0 0 0 0 0 1 0 0 0 0 0 1 0 0 -0.2125 -0.7154 -0.0721 1 0 " />
      <feColorMatrix
         id="feColorMatrix19355-6"
         values="0"
         type="hueRotate" />
      <feColorMatrix
         id="feColorMatrix19357-80"
         result="result3"
         values="1 0 0 0 0 0 1 0 0 0 0 0 1 0 0 0 0 0 1 0 " />
      <feComposite
         id="feComposite19359-38"
         operator="atop"
         result="result6"
         in2="result3" />
      <feComposite
         k4="0"
         id="feComposite19361-113"
         result="result4"
         in="result6"
         k3="0.5"
         k1="0.5"
         k2="0.5"
         operator="arithmetic"
         in2="result6" />
      <feBlend
         id="feBlend19363-04"
         in="result4"
         result="result2"
         mode="normal"
         in2="fbSourceGraphic" />
      <feComposite
         k4="0"
         k3="0"
         k1="0"
         id="feComposite19365-92"
         result="result5"
         k2="1"
         operator="arithmetic"
         in2="result2" />
      <feComposite
         id="feComposite19367-84"
         result="result5"
         operator="in"
         in2="SourceGraphic" />
    </filter>
    <filter
       height="1"
       width="1"
       y="0"
       x="0"
       id="filter19349-5"
       style="color-interpolation-filters:sRGB"
       inkscape:menu-tooltip="Blend an image with its hue opposite"
       inkscape:menu="Color"
       inkscape:label="Blend Opposites">
      <feColorMatrix
         id="feColorMatrix19351-52"
         in="SourceGraphic"
         result="fbSourceGraphic"
         values="180"
         type="hueRotate" />
      <feColorMatrix
         id="feColorMatrix19353-69"
         result="result1"
         in="SourceGraphic"
         values="1 0 0 0 0 0 1 0 0 0 0 0 1 0 0 -0.2125 -0.7154 -0.0721 1 0 " />
      <feColorMatrix
         id="feColorMatrix19355-22"
         values="0"
         type="hueRotate" />
      <feColorMatrix
         id="feColorMatrix19357-85"
         result="result3"
         values="1 0 0 0 0 0 1 0 0 0 0 0 1 0 0 0 0 0 1 0 " />
      <feComposite
         id="feComposite19359-24"
         operator="atop"
         result="result6"
         in2="result3" />
      <feComposite
         k4="0"
         id="feComposite19361-08"
         result="result4"
         in="result6"
         k3="0.5"
         k1="0.5"
         k2="0.5"
         operator="arithmetic"
         in2="result6" />
      <feBlend
         id="feBlend19363-6"
         in="result4"
         result="result2"
         mode="normal"
         in2="fbSourceGraphic" />
      <feComposite
         k4="0"
         k3="0"
         k1="0"
         id="feComposite19365-0"
         result="result5"
         k2="1"
         operator="arithmetic"
         in2="result2" />
      <feComposite
         id="feComposite19367-41"
         result="result5"
         operator="in"
         in2="SourceGraphic" />
    </filter>
    <filter
       height="1"
       width="1"
       y="0"
       x="0"
       id="filter19349-27"
       style="color-interpolation-filters:sRGB"
       inkscape:menu-tooltip="Blend an image with its hue opposite"
       inkscape:menu="Color"
       inkscape:label="Blend Opposites">
      <feColorMatrix
         id="feColorMatrix19351-50"
         in="SourceGraphic"
         result="fbSourceGraphic"
         values="180"
         type="hueRotate" />
      <feColorMatrix
         id="feColorMatrix19353-27"
         result="result1"
         in="SourceGraphic"
         values="1 0 0 0 0 0 1 0 0 0 0 0 1 0 0 -0.2125 -0.7154 -0.0721 1 0 " />
      <feColorMatrix
         id="feColorMatrix19355-82"
         values="0"
         type="hueRotate" />
      <feColorMatrix
         id="feColorMatrix19357-2"
         result="result3"
         values="1 0 0 0 0 0 1 0 0 0 0 0 1 0 0 0 0 0 1 0 " />
      <feComposite
         id="feComposite19359-74"
         operator="atop"
         result="result6"
         in2="result3" />
      <feComposite
         k4="0"
         id="feComposite19361-5"
         result="result4"
         in="result6"
         k3="0.5"
         k1="0.5"
         k2="0.5"
         operator="arithmetic"
         in2="result6" />
      <feBlend
         id="feBlend19363-7"
         in="result4"
         result="result2"
         mode="normal"
         in2="fbSourceGraphic" />
      <feComposite
         k4="0"
         k3="0"
         k1="0"
         id="feComposite19365-52"
         result="result5"
         k2="1"
         operator="arithmetic"
         in2="result2" />
      <feComposite
         id="feComposite19367-2"
         result="result5"
         operator="in"
         in2="SourceGraphic" />
    </filter>
    <filter
       height="1"
       width="1"
       y="0"
       x="0"
       id="filter19349-803"
       style="color-interpolation-filters:sRGB"
       inkscape:menu-tooltip="Blend an image with its hue opposite"
       inkscape:menu="Color"
       inkscape:label="Blend Opposites">
      <feColorMatrix
         id="feColorMatrix19351-22"
         in="SourceGraphic"
         result="fbSourceGraphic"
         values="180"
         type="hueRotate" />
      <feColorMatrix
         id="feColorMatrix19353-3"
         result="result1"
         in="SourceGraphic"
         values="1 0 0 0 0 0 1 0 0 0 0 0 1 0 0 -0.2125 -0.7154 -0.0721 1 0 " />
      <feColorMatrix
         id="feColorMatrix19355-95"
         values="0"
         type="hueRotate" />
      <feColorMatrix
         id="feColorMatrix19357-70"
         result="result3"
         values="1 0 0 0 0 0 1 0 0 0 0 0 1 0 0 0 0 0 1 0 " />
      <feComposite
         id="feComposite19359-53"
         operator="atop"
         result="result6"
         in2="result3" />
      <feComposite
         k4="0"
         id="feComposite19361-00"
         result="result4"
         in="result6"
         k3="0.5"
         k1="0.5"
         k2="0.5"
         operator="arithmetic"
         in2="result6" />
      <feBlend
         id="feBlend19363-64"
         in="result4"
         result="result2"
         mode="normal"
         in2="fbSourceGraphic" />
      <feComposite
         k4="0"
         k3="0"
         k1="0"
         id="feComposite19365-94"
         result="result5"
         k2="1"
         operator="arithmetic"
         in2="result2" />
      <feComposite
         id="feComposite19367-42"
         result="result5"
         operator="in"
         in2="SourceGraphic" />
    </filter>
    <filter
       height="1"
       width="1"
       y="0"
       x="0"
       id="filter19349-35"
       style="color-interpolation-filters:sRGB"
       inkscape:menu-tooltip="Blend an image with its hue opposite"
       inkscape:menu="Color"
       inkscape:label="Blend Opposites">
      <feColorMatrix
         id="feColorMatrix19351-6"
         in="SourceGraphic"
         result="fbSourceGraphic"
         values="180"
         type="hueRotate" />
      <feColorMatrix
         id="feColorMatrix19353-52"
         result="result1"
         in="SourceGraphic"
         values="1 0 0 0 0 0 1 0 0 0 0 0 1 0 0 -0.2125 -0.7154 -0.0721 1 0 " />
      <feColorMatrix
         id="feColorMatrix19355-0"
         values="0"
         type="hueRotate" />
      <feColorMatrix
         id="feColorMatrix19357-0"
         result="result3"
         values="1 0 0 0 0 0 1 0 0 0 0 0 1 0 0 0 0 0 1 0 " />
      <feComposite
         id="feComposite19359-9"
         operator="atop"
         result="result6"
         in2="result3" />
      <feComposite
         k4="0"
         id="feComposite19361-83"
         result="result4"
         in="result6"
         k3="0.5"
         k1="0.5"
         k2="0.5"
         operator="arithmetic"
         in2="result6" />
      <feBlend
         id="feBlend19363-46"
         in="result4"
         result="result2"
         mode="normal"
         in2="fbSourceGraphic" />
      <feComposite
         k4="0"
         k3="0"
         k1="0"
         id="feComposite19365-3"
         result="result5"
         k2="1"
         operator="arithmetic"
         in2="result2" />
      <feComposite
         id="feComposite19367-78"
         result="result5"
         operator="in"
         in2="SourceGraphic" />
    </filter>
    <filter
       height="1"
       width="1"
       y="0"
       x="0"
       id="filter19349-83"
       style="color-interpolation-filters:sRGB"
       inkscape:menu-tooltip="Blend an image with its hue opposite"
       inkscape:menu="Color"
       inkscape:label="Blend Opposites">
      <feColorMatrix
         id="feColorMatrix19351-05"
         in="SourceGraphic"
         result="fbSourceGraphic"
         values="180"
         type="hueRotate" />
      <feColorMatrix
         id="feColorMatrix19353-20"
         result="result1"
         in="SourceGraphic"
         values="1 0 0 0 0 0 1 0 0 0 0 0 1 0 0 -0.2125 -0.7154 -0.0721 1 0 " />
      <feColorMatrix
         id="feColorMatrix19355-06"
         values="0"
         type="hueRotate" />
      <feColorMatrix
         id="feColorMatrix19357-02"
         result="result3"
         values="1 0 0 0 0 0 1 0 0 0 0 0 1 0 0 0 0 0 1 0 " />
      <feComposite
         id="feComposite19359-46"
         operator="atop"
         result="result6"
         in2="result3" />
      <feComposite
         k4="0"
         id="feComposite19361-2"
         result="result4"
         in="result6"
         k3="0.5"
         k1="0.5"
         k2="0.5"
         operator="arithmetic"
         in2="result6" />
      <feBlend
         id="feBlend19363-81"
         in="result4"
         result="result2"
         mode="normal"
         in2="fbSourceGraphic" />
      <feComposite
         k4="0"
         k3="0"
         k1="0"
         id="feComposite19365-63"
         result="result5"
         k2="1"
         operator="arithmetic"
         in2="result2" />
      <feComposite
         id="feComposite19367-64"
         result="result5"
         operator="in"
         in2="SourceGraphic" />
    </filter>
    <filter
       height="1"
       width="1"
       y="0"
       x="0"
       id="filter19349-807"
       style="color-interpolation-filters:sRGB"
       inkscape:menu-tooltip="Blend an image with its hue opposite"
       inkscape:menu="Color"
       inkscape:label="Blend Opposites">
      <feColorMatrix
         id="feColorMatrix19351-12"
         in="SourceGraphic"
         result="fbSourceGraphic"
         values="180"
         type="hueRotate" />
      <feColorMatrix
         id="feColorMatrix19353-56"
         result="result1"
         in="SourceGraphic"
         values="1 0 0 0 0 0 1 0 0 0 0 0 1 0 0 -0.2125 -0.7154 -0.0721 1 0 " />
      <feColorMatrix
         id="feColorMatrix19355-83"
         values="0"
         type="hueRotate" />
      <feColorMatrix
         id="feColorMatrix19357-173"
         result="result3"
         values="1 0 0 0 0 0 1 0 0 0 0 0 1 0 0 0 0 0 1 0 " />
      <feComposite
         id="feComposite19359-90"
         operator="atop"
         result="result6"
         in2="result3" />
      <feComposite
         k4="0"
         id="feComposite19361-34"
         result="result4"
         in="result6"
         k3="0.5"
         k1="0.5"
         k2="0.5"
         operator="arithmetic"
         in2="result6" />
      <feBlend
         id="feBlend19363-33"
         in="result4"
         result="result2"
         mode="normal"
         in2="fbSourceGraphic" />
      <feComposite
         k4="0"
         k3="0"
         k1="0"
         id="feComposite19365-71"
         result="result5"
         k2="1"
         operator="arithmetic"
         in2="result2" />
      <feComposite
         id="feComposite19367-5"
         result="result5"
         operator="in"
         in2="SourceGraphic" />
    </filter>
    <filter
       height="1"
       width="1"
       y="0"
       x="0"
       id="filter19349-9"
       style="color-interpolation-filters:sRGB"
       inkscape:menu-tooltip="Blend an image with its hue opposite"
       inkscape:menu="Color"
       inkscape:label="Blend Opposites">
      <feColorMatrix
         id="feColorMatrix19351-72"
         in="SourceGraphic"
         result="fbSourceGraphic"
         values="180"
         type="hueRotate" />
      <feColorMatrix
         id="feColorMatrix19353-38"
         result="result1"
         in="SourceGraphic"
         values="1 0 0 0 0 0 1 0 0 0 0 0 1 0 0 -0.2125 -0.7154 -0.0721 1 0 " />
      <feColorMatrix
         id="feColorMatrix19355-5"
         values="0"
         type="hueRotate" />
      <feColorMatrix
         id="feColorMatrix19357-11"
         result="result3"
         values="1 0 0 0 0 0 1 0 0 0 0 0 1 0 0 0 0 0 1 0 " />
      <feComposite
         id="feComposite19359-36"
         operator="atop"
         result="result6"
         in2="result3" />
      <feComposite
         k4="0"
         id="feComposite19361-05"
         result="result4"
         in="result6"
         k3="0.5"
         k1="0.5"
         k2="0.5"
         operator="arithmetic"
         in2="result6" />
      <feBlend
         id="feBlend19363-53"
         in="result4"
         result="result2"
         mode="normal"
         in2="fbSourceGraphic" />
      <feComposite
         k4="0"
         k3="0"
         k1="0"
         id="feComposite19365-70"
         result="result5"
         k2="1"
         operator="arithmetic"
         in2="result2" />
      <feComposite
         id="feComposite19367-95"
         result="result5"
         operator="in"
         in2="SourceGraphic" />
    </filter>
    <filter
       height="1"
       width="1"
       y="0"
       x="0"
       id="filter19349-30"
       style="color-interpolation-filters:sRGB"
       inkscape:menu-tooltip="Blend an image with its hue opposite"
       inkscape:menu="Color"
       inkscape:label="Blend Opposites">
      <feColorMatrix
         id="feColorMatrix19351-38"
         in="SourceGraphic"
         result="fbSourceGraphic"
         values="180"
         type="hueRotate" />
      <feColorMatrix
         id="feColorMatrix19353-25"
         result="result1"
         in="SourceGraphic"
         values="1 0 0 0 0 0 1 0 0 0 0 0 1 0 0 -0.2125 -0.7154 -0.0721 1 0 " />
      <feColorMatrix
         id="feColorMatrix19355-28"
         values="0"
         type="hueRotate" />
      <feColorMatrix
         id="feColorMatrix19357-855"
         result="result3"
         values="1 0 0 0 0 0 1 0 0 0 0 0 1 0 0 0 0 0 1 0 " />
      <feComposite
         id="feComposite19359-13"
         operator="atop"
         result="result6"
         in2="result3" />
      <feComposite
         k4="0"
         id="feComposite19361-79"
         result="result4"
         in="result6"
         k3="0.5"
         k1="0.5"
         k2="0.5"
         operator="arithmetic"
         in2="result6" />
      <feBlend
         id="feBlend19363-72"
         in="result4"
         result="result2"
         mode="normal"
         in2="fbSourceGraphic" />
      <feComposite
         k4="0"
         k3="0"
         k1="0"
         id="feComposite19365-72"
         result="result5"
         k2="1"
         operator="arithmetic"
         in2="result2" />
      <feComposite
         id="feComposite19367-48"
         result="result5"
         operator="in"
         in2="SourceGraphic" />
    </filter>
    <filter
       height="1"
       width="1"
       y="0"
       x="0"
       id="filter19349-72"
       style="color-interpolation-filters:sRGB"
       inkscape:menu-tooltip="Blend an image with its hue opposite"
       inkscape:menu="Color"
       inkscape:label="Blend Opposites">
      <feColorMatrix
         id="feColorMatrix19351-02"
         in="SourceGraphic"
         result="fbSourceGraphic"
         values="180"
         type="hueRotate" />
      <feColorMatrix
         id="feColorMatrix19353-73"
         result="result1"
         in="SourceGraphic"
         values="1 0 0 0 0 0 1 0 0 0 0 0 1 0 0 -0.2125 -0.7154 -0.0721 1 0 " />
      <feColorMatrix
         id="feColorMatrix19355-09"
         values="0"
         type="hueRotate" />
      <feColorMatrix
         id="feColorMatrix19357-47"
         result="result3"
         values="1 0 0 0 0 0 1 0 0 0 0 0 1 0 0 0 0 0 1 0 " />
      <feComposite
         id="feComposite19359-47"
         operator="atop"
         result="result6"
         in2="result3" />
      <feComposite
         k4="0"
         id="feComposite19361-22"
         result="result4"
         in="result6"
         k3="0.5"
         k1="0.5"
         k2="0.5"
         operator="arithmetic"
         in2="result6" />
      <feBlend
         id="feBlend19363-9"
         in="result4"
         result="result2"
         mode="normal"
         in2="fbSourceGraphic" />
      <feComposite
         k4="0"
         k3="0"
         k1="0"
         id="feComposite19365-84"
         result="result5"
         k2="1"
         operator="arithmetic"
         in2="result2" />
      <feComposite
         id="feComposite19367-98"
         result="result5"
         operator="in"
         in2="SourceGraphic" />
    </filter>
    <filter
       height="1"
       width="1"
       y="0"
       x="0"
       id="filter19349-25"
       style="color-interpolation-filters:sRGB"
       inkscape:menu-tooltip="Blend an image with its hue opposite"
       inkscape:menu="Color"
       inkscape:label="Blend Opposites">
      <feColorMatrix
         id="feColorMatrix19351-07"
         in="SourceGraphic"
         result="fbSourceGraphic"
         values="180"
         type="hueRotate" />
      <feColorMatrix
         id="feColorMatrix19353-41"
         result="result1"
         in="SourceGraphic"
         values="1 0 0 0 0 0 1 0 0 0 0 0 1 0 0 -0.2125 -0.7154 -0.0721 1 0 " />
      <feColorMatrix
         id="feColorMatrix19355-46"
         values="0"
         type="hueRotate" />
      <feColorMatrix
         id="feColorMatrix19357-88"
         result="result3"
         values="1 0 0 0 0 0 1 0 0 0 0 0 1 0 0 0 0 0 1 0 " />
      <feComposite
         id="feComposite19359-28"
         operator="atop"
         result="result6"
         in2="result3" />
      <feComposite
         k4="0"
         id="feComposite19361-56"
         result="result4"
         in="result6"
         k3="0.5"
         k1="0.5"
         k2="0.5"
         operator="arithmetic"
         in2="result6" />
      <feBlend
         id="feBlend19363-1"
         in="result4"
         result="result2"
         mode="normal"
         in2="fbSourceGraphic" />
      <feComposite
         k4="0"
         k3="0"
         k1="0"
         id="feComposite19365-75"
         result="result5"
         k2="1"
         operator="arithmetic"
         in2="result2" />
      <feComposite
         id="feComposite19367-494"
         result="result5"
         operator="in"
         in2="SourceGraphic" />
    </filter>
    <filter
       height="1"
       width="1"
       y="0"
       x="0"
       id="filter19349-1"
       style="color-interpolation-filters:sRGB"
       inkscape:menu-tooltip="Blend an image with its hue opposite"
       inkscape:menu="Color"
       inkscape:label="Blend Opposites">
      <feColorMatrix
         id="feColorMatrix19351-70"
         in="SourceGraphic"
         result="fbSourceGraphic"
         values="180"
         type="hueRotate" />
      <feColorMatrix
         id="feColorMatrix19353-8"
         result="result1"
         in="SourceGraphic"
         values="1 0 0 0 0 0 1 0 0 0 0 0 1 0 0 -0.2125 -0.7154 -0.0721 1 0 " />
      <feColorMatrix
         id="feColorMatrix19355-13"
         values="0"
         type="hueRotate" />
      <feColorMatrix
         id="feColorMatrix19357-99"
         result="result3"
         values="1 0 0 0 0 0 1 0 0 0 0 0 1 0 0 0 0 0 1 0 " />
      <feComposite
         id="feComposite19359-98"
         operator="atop"
         result="result6"
         in2="result3" />
      <feComposite
         k4="0"
         id="feComposite19361-03"
         result="result4"
         in="result6"
         k3="0.5"
         k1="0.5"
         k2="0.5"
         operator="arithmetic"
         in2="result6" />
      <feBlend
         id="feBlend19363-50"
         in="result4"
         result="result2"
         mode="normal"
         in2="fbSourceGraphic" />
      <feComposite
         k4="0"
         k3="0"
         k1="0"
         id="feComposite19365-09"
         result="result5"
         k2="1"
         operator="arithmetic"
         in2="result2" />
      <feComposite
         id="feComposite19367-1"
         result="result5"
         operator="in"
         in2="SourceGraphic" />
    </filter>
    <filter
       height="1"
       width="1"
       y="0"
       x="0"
       id="filter19349-68"
       style="color-interpolation-filters:sRGB"
       inkscape:menu-tooltip="Blend an image with its hue opposite"
       inkscape:menu="Color"
       inkscape:label="Blend Opposites">
      <feColorMatrix
         id="feColorMatrix19351-14"
         in="SourceGraphic"
         result="fbSourceGraphic"
         values="180"
         type="hueRotate" />
      <feColorMatrix
         id="feColorMatrix19353-21"
         result="result1"
         in="SourceGraphic"
         values="1 0 0 0 0 0 1 0 0 0 0 0 1 0 0 -0.2125 -0.7154 -0.0721 1 0 " />
      <feColorMatrix
         id="feColorMatrix19355-99"
         values="0"
         type="hueRotate" />
      <feColorMatrix
         id="feColorMatrix19357-27"
         result="result3"
         values="1 0 0 0 0 0 1 0 0 0 0 0 1 0 0 0 0 0 1 0 " />
      <feComposite
         id="feComposite19359-49"
         operator="atop"
         result="result6"
         in2="result3" />
      <feComposite
         k4="0"
         id="feComposite19361-61"
         result="result4"
         in="result6"
         k3="0.5"
         k1="0.5"
         k2="0.5"
         operator="arithmetic"
         in2="result6" />
      <feBlend
         id="feBlend19363-05"
         in="result4"
         result="result2"
         mode="normal"
         in2="fbSourceGraphic" />
      <feComposite
         k4="0"
         k3="0"
         k1="0"
         id="feComposite19365-1"
         result="result5"
         k2="1"
         operator="arithmetic"
         in2="result2" />
      <feComposite
         id="feComposite19367-07"
         result="result5"
         operator="in"
         in2="SourceGraphic" />
    </filter>
    <filter
       height="1"
       width="1"
       y="0"
       x="0"
       id="filter19349-69"
       style="color-interpolation-filters:sRGB"
       inkscape:menu-tooltip="Blend an image with its hue opposite"
       inkscape:menu="Color"
       inkscape:label="Blend Opposites">
      <feColorMatrix
         id="feColorMatrix19351-88"
         in="SourceGraphic"
         result="fbSourceGraphic"
         values="180"
         type="hueRotate" />
      <feColorMatrix
         id="feColorMatrix19353-78"
         result="result1"
         in="SourceGraphic"
         values="1 0 0 0 0 0 1 0 0 0 0 0 1 0 0 -0.2125 -0.7154 -0.0721 1 0 " />
      <feColorMatrix
         id="feColorMatrix19355-130"
         values="0"
         type="hueRotate" />
      <feColorMatrix
         id="feColorMatrix19357-44"
         result="result3"
         values="1 0 0 0 0 0 1 0 0 0 0 0 1 0 0 0 0 0 1 0 " />
      <feComposite
         id="feComposite19359-30"
         operator="atop"
         result="result6"
         in2="result3" />
      <feComposite
         k4="0"
         id="feComposite19361-4"
         result="result4"
         in="result6"
         k3="0.5"
         k1="0.5"
         k2="0.5"
         operator="arithmetic"
         in2="result6" />
      <feBlend
         id="feBlend19363-47"
         in="result4"
         result="result2"
         mode="normal"
         in2="fbSourceGraphic" />
      <feComposite
         k4="0"
         k3="0"
         k1="0"
         id="feComposite19365-76"
         result="result5"
         k2="1"
         operator="arithmetic"
         in2="result2" />
      <feComposite
         id="feComposite19367-68"
         result="result5"
         operator="in"
         in2="SourceGraphic" />
    </filter>
    <filter
       height="1"
       width="1"
       y="0"
       x="0"
       id="filter19349-03"
       style="color-interpolation-filters:sRGB"
       inkscape:menu-tooltip="Blend an image with its hue opposite"
       inkscape:menu="Color"
       inkscape:label="Blend Opposites">
      <feColorMatrix
         id="feColorMatrix19351-4"
         in="SourceGraphic"
         result="fbSourceGraphic"
         values="180"
         type="hueRotate" />
      <feColorMatrix
         id="feColorMatrix19353-92"
         result="result1"
         in="SourceGraphic"
         values="1 0 0 0 0 0 1 0 0 0 0 0 1 0 0 -0.2125 -0.7154 -0.0721 1 0 " />
      <feColorMatrix
         id="feColorMatrix19355-59"
         values="0"
         type="hueRotate" />
      <feColorMatrix
         id="feColorMatrix19357-999"
         result="result3"
         values="1 0 0 0 0 0 1 0 0 0 0 0 1 0 0 0 0 0 1 0 " />
      <feComposite
         id="feComposite19359-87"
         operator="atop"
         result="result6"
         in2="result3" />
      <feComposite
         k4="0"
         id="feComposite19361-07"
         result="result4"
         in="result6"
         k3="0.5"
         k1="0.5"
         k2="0.5"
         operator="arithmetic"
         in2="result6" />
      <feBlend
         id="feBlend19363-507"
         in="result4"
         result="result2"
         mode="normal"
         in2="fbSourceGraphic" />
      <feComposite
         k4="0"
         k3="0"
         k1="0"
         id="feComposite19365-95"
         result="result5"
         k2="1"
         operator="arithmetic"
         in2="result2" />
      <feComposite
         id="feComposite19367-05"
         result="result5"
         operator="in"
         in2="SourceGraphic" />
    </filter>
    <filter
       height="1"
       width="1"
       y="0"
       x="0"
       id="filter19349-93"
       style="color-interpolation-filters:sRGB"
       inkscape:menu-tooltip="Blend an image with its hue opposite"
       inkscape:menu="Color"
       inkscape:label="Blend Opposites">
      <feColorMatrix
         id="feColorMatrix19351-76"
         in="SourceGraphic"
         result="fbSourceGraphic"
         values="180"
         type="hueRotate" />
      <feColorMatrix
         id="feColorMatrix19353-04"
         result="result1"
         in="SourceGraphic"
         values="1 0 0 0 0 0 1 0 0 0 0 0 1 0 0 -0.2125 -0.7154 -0.0721 1 0 " />
      <feColorMatrix
         id="feColorMatrix19355-58"
         values="0"
         type="hueRotate" />
      <feColorMatrix
         id="feColorMatrix19357-13"
         result="result3"
         values="1 0 0 0 0 0 1 0 0 0 0 0 1 0 0 0 0 0 1 0 " />
      <feComposite
         id="feComposite19359-86"
         operator="atop"
         result="result6"
         in2="result3" />
      <feComposite
         k4="0"
         id="feComposite19361-90"
         result="result4"
         in="result6"
         k3="0.5"
         k1="0.5"
         k2="0.5"
         operator="arithmetic"
         in2="result6" />
      <feBlend
         id="feBlend19363-07"
         in="result4"
         result="result2"
         mode="normal"
         in2="fbSourceGraphic" />
      <feComposite
         k4="0"
         k3="0"
         k1="0"
         id="feComposite19365-10"
         result="result5"
         k2="1"
         operator="arithmetic"
         in2="result2" />
      <feComposite
         id="feComposite19367-63"
         result="result5"
         operator="in"
         in2="SourceGraphic" />
    </filter>
    <filter
       height="1"
       width="1"
       y="0"
       x="0"
       id="filter19349-833"
       style="color-interpolation-filters:sRGB"
       inkscape:menu-tooltip="Blend an image with its hue opposite"
       inkscape:menu="Color"
       inkscape:label="Blend Opposites">
      <feColorMatrix
         id="feColorMatrix19351-71"
         in="SourceGraphic"
         result="fbSourceGraphic"
         values="180"
         type="hueRotate" />
      <feColorMatrix
         id="feColorMatrix19353-37"
         result="result1"
         in="SourceGraphic"
         values="1 0 0 0 0 0 1 0 0 0 0 0 1 0 0 -0.2125 -0.7154 -0.0721 1 0 " />
      <feColorMatrix
         id="feColorMatrix19355-287"
         values="0"
         type="hueRotate" />
      <feColorMatrix
         id="feColorMatrix19357-702"
         result="result3"
         values="1 0 0 0 0 0 1 0 0 0 0 0 1 0 0 0 0 0 1 0 " />
      <feComposite
         id="feComposite19359-464"
         operator="atop"
         result="result6"
         in2="result3" />
      <feComposite
         k4="0"
         id="feComposite19361-91"
         result="result4"
         in="result6"
         k3="0.5"
         k1="0.5"
         k2="0.5"
         operator="arithmetic"
         in2="result6" />
      <feBlend
         id="feBlend19363-20"
         in="result4"
         result="result2"
         mode="normal"
         in2="fbSourceGraphic" />
      <feComposite
         k4="0"
         k3="0"
         k1="0"
         id="feComposite19365-638"
         result="result5"
         k2="1"
         operator="arithmetic"
         in2="result2" />
      <feComposite
         id="feComposite19367-55"
         result="result5"
         operator="in"
         in2="SourceGraphic" />
    </filter>
    <filter
       height="1"
       width="1"
       y="0"
       x="0"
       id="filter19349-92"
       style="color-interpolation-filters:sRGB"
       inkscape:menu-tooltip="Blend an image with its hue opposite"
       inkscape:menu="Color"
       inkscape:label="Blend Opposites">
      <feColorMatrix
         id="feColorMatrix19351-61"
         in="SourceGraphic"
         result="fbSourceGraphic"
         values="180"
         type="hueRotate" />
      <feColorMatrix
         id="feColorMatrix19353-091"
         result="result1"
         in="SourceGraphic"
         values="1 0 0 0 0 0 1 0 0 0 0 0 1 0 0 -0.2125 -0.7154 -0.0721 1 0 " />
      <feColorMatrix
         id="feColorMatrix19355-63"
         values="0"
         type="hueRotate" />
      <feColorMatrix
         id="feColorMatrix19357-97"
         result="result3"
         values="1 0 0 0 0 0 1 0 0 0 0 0 1 0 0 0 0 0 1 0 " />
      <feComposite
         id="feComposite19359-88"
         operator="atop"
         result="result6"
         in2="result3" />
      <feComposite
         k4="0"
         id="feComposite19361-97"
         result="result4"
         in="result6"
         k3="0.5"
         k1="0.5"
         k2="0.5"
         operator="arithmetic"
         in2="result6" />
      <feBlend
         id="feBlend19363-58"
         in="result4"
         result="result2"
         mode="normal"
         in2="fbSourceGraphic" />
      <feComposite
         k4="0"
         k3="0"
         k1="0"
         id="feComposite19365-99"
         result="result5"
         k2="1"
         operator="arithmetic"
         in2="result2" />
      <feComposite
         id="feComposite19367-27"
         result="result5"
         operator="in"
         in2="SourceGraphic" />
    </filter>
    <filter
       height="1"
       width="1"
       y="0"
       x="0"
       id="filter19349-41"
       style="color-interpolation-filters:sRGB"
       inkscape:menu-tooltip="Blend an image with its hue opposite"
       inkscape:menu="Color"
       inkscape:label="Blend Opposites">
      <feColorMatrix
         id="feColorMatrix19351-883"
         in="SourceGraphic"
         result="fbSourceGraphic"
         values="180"
         type="hueRotate" />
      <feColorMatrix
         id="feColorMatrix19353-63"
         result="result1"
         in="SourceGraphic"
         values="1 0 0 0 0 0 1 0 0 0 0 0 1 0 0 -0.2125 -0.7154 -0.0721 1 0 " />
      <feColorMatrix
         id="feColorMatrix19355-218"
         values="0"
         type="hueRotate" />
      <feColorMatrix
         id="feColorMatrix19357-36"
         result="result3"
         values="1 0 0 0 0 0 1 0 0 0 0 0 1 0 0 0 0 0 1 0 " />
      <feComposite
         id="feComposite19359-56"
         operator="atop"
         result="result6"
         in2="result3" />
      <feComposite
         k4="0"
         id="feComposite19361-64"
         result="result4"
         in="result6"
         k3="0.5"
         k1="0.5"
         k2="0.5"
         operator="arithmetic"
         in2="result6" />
      <feBlend
         id="feBlend19363-729"
         in="result4"
         result="result2"
         mode="normal"
         in2="fbSourceGraphic" />
      <feComposite
         k4="0"
         k3="0"
         k1="0"
         id="feComposite19365-61"
         result="result5"
         k2="1"
         operator="arithmetic"
         in2="result2" />
      <feComposite
         id="feComposite19367-842"
         result="result5"
         operator="in"
         in2="SourceGraphic" />
    </filter>
    <filter
       height="1"
       width="1"
       y="0"
       x="0"
       id="filter19349-71"
       style="color-interpolation-filters:sRGB"
       inkscape:menu-tooltip="Blend an image with its hue opposite"
       inkscape:menu="Color"
       inkscape:label="Blend Opposites">
      <feColorMatrix
         id="feColorMatrix19351-06"
         in="SourceGraphic"
         result="fbSourceGraphic"
         values="180"
         type="hueRotate" />
      <feColorMatrix
         id="feColorMatrix19353-13"
         result="result1"
         in="SourceGraphic"
         values="1 0 0 0 0 0 1 0 0 0 0 0 1 0 0 -0.2125 -0.7154 -0.0721 1 0 " />
      <feColorMatrix
         id="feColorMatrix19355-37"
         values="0"
         type="hueRotate" />
      <feColorMatrix
         id="feColorMatrix19357-43"
         result="result3"
         values="1 0 0 0 0 0 1 0 0 0 0 0 1 0 0 0 0 0 1 0 " />
      <feComposite
         id="feComposite19359-50"
         operator="atop"
         result="result6"
         in2="result3" />
      <feComposite
         k4="0"
         id="feComposite19361-99"
         result="result4"
         in="result6"
         k3="0.5"
         k1="0.5"
         k2="0.5"
         operator="arithmetic"
         in2="result6" />
      <feBlend
         id="feBlend19363-42"
         in="result4"
         result="result2"
         mode="normal"
         in2="fbSourceGraphic" />
      <feComposite
         k4="0"
         k3="0"
         k1="0"
         id="feComposite19365-97"
         result="result5"
         k2="1"
         operator="arithmetic"
         in2="result2" />
      <feComposite
         id="feComposite19367-845"
         result="result5"
         operator="in"
         in2="SourceGraphic" />
    </filter>
    <filter
       height="1"
       width="1"
       y="0"
       x="0"
       id="filter19349-51"
       style="color-interpolation-filters:sRGB"
       inkscape:menu-tooltip="Blend an image with its hue opposite"
       inkscape:menu="Color"
       inkscape:label="Blend Opposites">
      <feColorMatrix
         id="feColorMatrix19351-29"
         in="SourceGraphic"
         result="fbSourceGraphic"
         values="180"
         type="hueRotate" />
      <feColorMatrix
         id="feColorMatrix19353-01"
         result="result1"
         in="SourceGraphic"
         values="1 0 0 0 0 0 1 0 0 0 0 0 1 0 0 -0.2125 -0.7154 -0.0721 1 0 " />
      <feColorMatrix
         id="feColorMatrix19355-18"
         values="0"
         type="hueRotate" />
      <feColorMatrix
         id="feColorMatrix19357-53"
         result="result3"
         values="1 0 0 0 0 0 1 0 0 0 0 0 1 0 0 0 0 0 1 0 " />
      <feComposite
         id="feComposite19359-59"
         operator="atop"
         result="result6"
         in2="result3" />
      <feComposite
         k4="0"
         id="feComposite19361-43"
         result="result4"
         in="result6"
         k3="0.5"
         k1="0.5"
         k2="0.5"
         operator="arithmetic"
         in2="result6" />
      <feBlend
         id="feBlend19363-27"
         in="result4"
         result="result2"
         mode="normal"
         in2="fbSourceGraphic" />
      <feComposite
         k4="0"
         k3="0"
         k1="0"
         id="feComposite19365-89"
         result="result5"
         k2="1"
         operator="arithmetic"
         in2="result2" />
      <feComposite
         id="feComposite19367-316"
         result="result5"
         operator="in"
         in2="SourceGraphic" />
    </filter>
    <filter
       height="1"
       width="1"
       y="0"
       x="0"
       id="filter19349-32"
       style="color-interpolation-filters:sRGB"
       inkscape:menu-tooltip="Blend an image with its hue opposite"
       inkscape:menu="Color"
       inkscape:label="Blend Opposites">
      <feColorMatrix
         id="feColorMatrix19351-77"
         in="SourceGraphic"
         result="fbSourceGraphic"
         values="180"
         type="hueRotate" />
      <feColorMatrix
         id="feColorMatrix19353-57"
         result="result1"
         in="SourceGraphic"
         values="1 0 0 0 0 0 1 0 0 0 0 0 1 0 0 -0.2125 -0.7154 -0.0721 1 0 " />
      <feColorMatrix
         id="feColorMatrix19355-65"
         values="0"
         type="hueRotate" />
      <feColorMatrix
         id="feColorMatrix19357-31"
         result="result3"
         values="1 0 0 0 0 0 1 0 0 0 0 0 1 0 0 0 0 0 1 0 " />
      <feComposite
         id="feComposite19359-246"
         operator="atop"
         result="result6"
         in2="result3" />
      <feComposite
         k4="0"
         id="feComposite19361-25"
         result="result4"
         in="result6"
         k3="0.5"
         k1="0.5"
         k2="0.5"
         operator="arithmetic"
         in2="result6" />
      <feBlend
         id="feBlend19363-75"
         in="result4"
         result="result2"
         mode="normal"
         in2="fbSourceGraphic" />
      <feComposite
         k4="0"
         k3="0"
         k1="0"
         id="feComposite19365-54"
         result="result5"
         k2="1"
         operator="arithmetic"
         in2="result2" />
      <feComposite
         id="feComposite19367-83"
         result="result5"
         operator="in"
         in2="SourceGraphic" />
    </filter>
    <filter
       height="1"
       width="1"
       y="0"
       x="0"
       id="filter19349-34"
       style="color-interpolation-filters:sRGB"
       inkscape:menu-tooltip="Blend an image with its hue opposite"
       inkscape:menu="Color"
       inkscape:label="Blend Opposites">
      <feColorMatrix
         id="feColorMatrix19351-67"
         in="SourceGraphic"
         result="fbSourceGraphic"
         values="180"
         type="hueRotate" />
      <feColorMatrix
         id="feColorMatrix19353-35"
         result="result1"
         in="SourceGraphic"
         values="1 0 0 0 0 0 1 0 0 0 0 0 1 0 0 -0.2125 -0.7154 -0.0721 1 0 " />
      <feColorMatrix
         id="feColorMatrix19355-67"
         values="0"
         type="hueRotate" />
      <feColorMatrix
         id="feColorMatrix19357-852"
         result="result3"
         values="1 0 0 0 0 0 1 0 0 0 0 0 1 0 0 0 0 0 1 0 " />
      <feComposite
         id="feComposite19359-12"
         operator="atop"
         result="result6"
         in2="result3" />
      <feComposite
         k4="0"
         id="feComposite19361-28"
         result="result4"
         in="result6"
         k3="0.5"
         k1="0.5"
         k2="0.5"
         operator="arithmetic"
         in2="result6" />
      <feBlend
         id="feBlend19363-10"
         in="result4"
         result="result2"
         mode="normal"
         in2="fbSourceGraphic" />
      <feComposite
         k4="0"
         k3="0"
         k1="0"
         id="feComposite19365-55"
         result="result5"
         k2="1"
         operator="arithmetic"
         in2="result2" />
      <feComposite
         id="feComposite19367-481"
         result="result5"
         operator="in"
         in2="SourceGraphic" />
    </filter>
    <filter
       height="1"
       width="1"
       y="0"
       x="0"
       id="filter19349-02"
       style="color-interpolation-filters:sRGB"
       inkscape:menu-tooltip="Blend an image with its hue opposite"
       inkscape:menu="Color"
       inkscape:label="Blend Opposites">
      <feColorMatrix
         id="feColorMatrix19351-677"
         in="SourceGraphic"
         result="fbSourceGraphic"
         values="180"
         type="hueRotate" />
      <feColorMatrix
         id="feColorMatrix19353-417"
         result="result1"
         in="SourceGraphic"
         values="1 0 0 0 0 0 1 0 0 0 0 0 1 0 0 -0.2125 -0.7154 -0.0721 1 0 " />
      <feColorMatrix
         id="feColorMatrix19355-77"
         values="0"
         type="hueRotate" />
      <feColorMatrix
         id="feColorMatrix19357-434"
         result="result3"
         values="1 0 0 0 0 0 1 0 0 0 0 0 1 0 0 0 0 0 1 0 " />
      <feComposite
         id="feComposite19359-70"
         operator="atop"
         result="result6"
         in2="result3" />
      <feComposite
         k4="0"
         id="feComposite19361-36"
         result="result4"
         in="result6"
         k3="0.5"
         k1="0.5"
         k2="0.5"
         operator="arithmetic"
         in2="result6" />
      <feBlend
         id="feBlend19363-98"
         in="result4"
         result="result2"
         mode="normal"
         in2="fbSourceGraphic" />
      <feComposite
         k4="0"
         k3="0"
         k1="0"
         id="feComposite19365-922"
         result="result5"
         k2="1"
         operator="arithmetic"
         in2="result2" />
      <feComposite
         id="feComposite19367-30"
         result="result5"
         operator="in"
         in2="SourceGraphic" />
    </filter>
    <filter
       height="1"
       width="1"
       y="0"
       x="0"
       id="filter19349-43"
       style="color-interpolation-filters:sRGB"
       inkscape:menu-tooltip="Blend an image with its hue opposite"
       inkscape:menu="Color"
       inkscape:label="Blend Opposites">
      <feColorMatrix
         id="feColorMatrix19351-519"
         in="SourceGraphic"
         result="fbSourceGraphic"
         values="180"
         type="hueRotate" />
      <feColorMatrix
         id="feColorMatrix19353-54"
         result="result1"
         in="SourceGraphic"
         values="1 0 0 0 0 0 1 0 0 0 0 0 1 0 0 -0.2125 -0.7154 -0.0721 1 0 " />
      <feColorMatrix
         id="feColorMatrix19355-97"
         values="0"
         type="hueRotate" />
      <feColorMatrix
         id="feColorMatrix19357-18"
         result="result3"
         values="1 0 0 0 0 0 1 0 0 0 0 0 1 0 0 0 0 0 1 0 " />
      <feComposite
         id="feComposite19359-67"
         operator="atop"
         result="result6"
         in2="result3" />
      <feComposite
         k4="0"
         id="feComposite19361-26"
         result="result4"
         in="result6"
         k3="0.5"
         k1="0.5"
         k2="0.5"
         operator="arithmetic"
         in2="result6" />
      <feBlend
         id="feBlend19363-49"
         in="result4"
         result="result2"
         mode="normal"
         in2="fbSourceGraphic" />
      <feComposite
         k4="0"
         k3="0"
         k1="0"
         id="feComposite19365-095"
         result="result5"
         k2="1"
         operator="arithmetic"
         in2="result2" />
      <feComposite
         id="feComposite19367-90"
         result="result5"
         operator="in"
         in2="SourceGraphic" />
    </filter>
    <filter
       height="1"
       width="1"
       y="0"
       x="0"
       id="filter19349-86"
       style="color-interpolation-filters:sRGB"
       inkscape:menu-tooltip="Blend an image with its hue opposite"
       inkscape:menu="Color"
       inkscape:label="Blend Opposites">
      <feColorMatrix
         id="feColorMatrix19351-98"
         in="SourceGraphic"
         result="fbSourceGraphic"
         values="180"
         type="hueRotate" />
      <feColorMatrix
         id="feColorMatrix19353-71"
         result="result1"
         in="SourceGraphic"
         values="1 0 0 0 0 0 1 0 0 0 0 0 1 0 0 -0.2125 -0.7154 -0.0721 1 0 " />
      <feColorMatrix
         id="feColorMatrix19355-10"
         values="0"
         type="hueRotate" />
      <feColorMatrix
         id="feColorMatrix19357-37"
         result="result3"
         values="1 0 0 0 0 0 1 0 0 0 0 0 1 0 0 0 0 0 1 0 " />
      <feComposite
         id="feComposite19359-58"
         operator="atop"
         result="result6"
         in2="result3" />
      <feComposite
         k4="0"
         id="feComposite19361-076"
         result="result4"
         in="result6"
         k3="0.5"
         k1="0.5"
         k2="0.5"
         operator="arithmetic"
         in2="result6" />
      <feBlend
         id="feBlend19363-465"
         in="result4"
         result="result2"
         mode="normal"
         in2="fbSourceGraphic" />
      <feComposite
         k4="0"
         k3="0"
         k1="0"
         id="feComposite19365-77"
         result="result5"
         k2="1"
         operator="arithmetic"
         in2="result2" />
      <feComposite
         id="feComposite19367-44"
         result="result5"
         operator="in"
         in2="SourceGraphic" />
    </filter>
    <filter
       height="1"
       width="1"
       y="0"
       x="0"
       id="filter19349-90"
       style="color-interpolation-filters:sRGB"
       inkscape:menu-tooltip="Blend an image with its hue opposite"
       inkscape:menu="Color"
       inkscape:label="Blend Opposites">
      <feColorMatrix
         id="feColorMatrix19351-80"
         in="SourceGraphic"
         result="fbSourceGraphic"
         values="180"
         type="hueRotate" />
      <feColorMatrix
         id="feColorMatrix19353-205"
         result="result1"
         in="SourceGraphic"
         values="1 0 0 0 0 0 1 0 0 0 0 0 1 0 0 -0.2125 -0.7154 -0.0721 1 0 " />
      <feColorMatrix
         id="feColorMatrix19355-106"
         values="0"
         type="hueRotate" />
      <feColorMatrix
         id="feColorMatrix19357-79"
         result="result3"
         values="1 0 0 0 0 0 1 0 0 0 0 0 1 0 0 0 0 0 1 0 " />
      <feComposite
         id="feComposite19359-44"
         operator="atop"
         result="result6"
         in2="result3" />
      <feComposite
         k4="0"
         id="feComposite19361-27"
         result="result4"
         in="result6"
         k3="0.5"
         k1="0.5"
         k2="0.5"
         operator="arithmetic"
         in2="result6" />
      <feBlend
         id="feBlend19363-65"
         in="result4"
         result="result2"
         mode="normal"
         in2="fbSourceGraphic" />
      <feComposite
         k4="0"
         k3="0"
         k1="0"
         id="feComposite19365-64"
         result="result5"
         k2="1"
         operator="arithmetic"
         in2="result2" />
      <feComposite
         id="feComposite19367-56"
         result="result5"
         operator="in"
         in2="SourceGraphic" />
    </filter>
    <filter
       height="1"
       width="1"
       y="0"
       x="0"
       id="filter19349-11"
       style="color-interpolation-filters:sRGB"
       inkscape:menu-tooltip="Blend an image with its hue opposite"
       inkscape:menu="Color"
       inkscape:label="Blend Opposites">
      <feColorMatrix
         id="feColorMatrix19351-39"
         in="SourceGraphic"
         result="fbSourceGraphic"
         values="180"
         type="hueRotate" />
      <feColorMatrix
         id="feColorMatrix19353-90"
         result="result1"
         in="SourceGraphic"
         values="1 0 0 0 0 0 1 0 0 0 0 0 1 0 0 -0.2125 -0.7154 -0.0721 1 0 " />
      <feColorMatrix
         id="feColorMatrix19355-637"
         values="0"
         type="hueRotate" />
      <feColorMatrix
         id="feColorMatrix19357-73"
         result="result3"
         values="1 0 0 0 0 0 1 0 0 0 0 0 1 0 0 0 0 0 1 0 " />
      <feComposite
         id="feComposite19359-77"
         operator="atop"
         result="result6"
         in2="result3" />
      <feComposite
         k4="0"
         id="feComposite19361-57"
         result="result4"
         in="result6"
         k3="0.5"
         k1="0.5"
         k2="0.5"
         operator="arithmetic"
         in2="result6" />
      <feBlend
         id="feBlend19363-567"
         in="result4"
         result="result2"
         mode="normal"
         in2="fbSourceGraphic" />
      <feComposite
         k4="0"
         k3="0"
         k1="0"
         id="feComposite19365-16"
         result="result5"
         k2="1"
         operator="arithmetic"
         in2="result2" />
      <feComposite
         id="feComposite19367-87"
         result="result5"
         operator="in"
         in2="SourceGraphic" />
    </filter>
    <filter
       height="1"
       width="1"
       y="0"
       x="0"
       id="filter19349-207"
       style="color-interpolation-filters:sRGB"
       inkscape:menu-tooltip="Blend an image with its hue opposite"
       inkscape:menu="Color"
       inkscape:label="Blend Opposites">
      <feColorMatrix
         id="feColorMatrix19351-95"
         in="SourceGraphic"
         result="fbSourceGraphic"
         values="180"
         type="hueRotate" />
      <feColorMatrix
         id="feColorMatrix19353-353"
         result="result1"
         in="SourceGraphic"
         values="1 0 0 0 0 0 1 0 0 0 0 0 1 0 0 -0.2125 -0.7154 -0.0721 1 0 " />
      <feColorMatrix
         id="feColorMatrix19355-26"
         values="0"
         type="hueRotate" />
      <feColorMatrix
         id="feColorMatrix19357-65"
         result="result3"
         values="1 0 0 0 0 0 1 0 0 0 0 0 1 0 0 0 0 0 1 0 " />
      <feComposite
         id="feComposite19359-75"
         operator="atop"
         result="result6"
         in2="result3" />
      <feComposite
         k4="0"
         id="feComposite19361-74"
         result="result4"
         in="result6"
         k3="0.5"
         k1="0.5"
         k2="0.5"
         operator="arithmetic"
         in2="result6" />
      <feBlend
         id="feBlend19363-84"
         in="result4"
         result="result2"
         mode="normal"
         in2="fbSourceGraphic" />
      <feComposite
         k4="0"
         k3="0"
         k1="0"
         id="feComposite19365-33"
         result="result5"
         k2="1"
         operator="arithmetic"
         in2="result2" />
      <feComposite
         id="feComposite19367-410"
         result="result5"
         operator="in"
         in2="SourceGraphic" />
    </filter>
    <filter
       height="1"
       width="1"
       y="0"
       x="0"
       id="filter19349-18"
       style="color-interpolation-filters:sRGB"
       inkscape:menu-tooltip="Blend an image with its hue opposite"
       inkscape:menu="Color"
       inkscape:label="Blend Opposites">
      <feColorMatrix
         id="feColorMatrix19351-91"
         in="SourceGraphic"
         result="fbSourceGraphic"
         values="180"
         type="hueRotate" />
      <feColorMatrix
         id="feColorMatrix19353-95"
         result="result1"
         in="SourceGraphic"
         values="1 0 0 0 0 0 1 0 0 0 0 0 1 0 0 -0.2125 -0.7154 -0.0721 1 0 " />
      <feColorMatrix
         id="feColorMatrix19355-98"
         values="0"
         type="hueRotate" />
      <feColorMatrix
         id="feColorMatrix19357-90"
         result="result3"
         values="1 0 0 0 0 0 1 0 0 0 0 0 1 0 0 0 0 0 1 0 " />
      <feComposite
         id="feComposite19359-507"
         operator="atop"
         result="result6"
         in2="result3" />
      <feComposite
         k4="0"
         id="feComposite19361-15"
         result="result4"
         in="result6"
         k3="0.5"
         k1="0.5"
         k2="0.5"
         operator="arithmetic"
         in2="result6" />
      <feBlend
         id="feBlend19363-25"
         in="result4"
         result="result2"
         mode="normal"
         in2="fbSourceGraphic" />
      <feComposite
         k4="0"
         k3="0"
         k1="0"
         id="feComposite19365-39"
         result="result5"
         k2="1"
         operator="arithmetic"
         in2="result2" />
      <feComposite
         id="feComposite19367-01"
         result="result5"
         operator="in"
         in2="SourceGraphic" />
    </filter>
    <filter
       height="1"
       width="1"
       y="0"
       x="0"
       id="filter19349-697"
       style="color-interpolation-filters:sRGB"
       inkscape:menu-tooltip="Blend an image with its hue opposite"
       inkscape:menu="Color"
       inkscape:label="Blend Opposites">
      <feColorMatrix
         id="feColorMatrix19351-760"
         in="SourceGraphic"
         result="fbSourceGraphic"
         values="180"
         type="hueRotate" />
      <feColorMatrix
         id="feColorMatrix19353-00"
         result="result1"
         in="SourceGraphic"
         values="1 0 0 0 0 0 1 0 0 0 0 0 1 0 0 -0.2125 -0.7154 -0.0721 1 0 " />
      <feColorMatrix
         id="feColorMatrix19355-33"
         values="0"
         type="hueRotate" />
      <feColorMatrix
         id="feColorMatrix19357-112"
         result="result3"
         values="1 0 0 0 0 0 1 0 0 0 0 0 1 0 0 0 0 0 1 0 " />
      <feComposite
         id="feComposite19359-22"
         operator="atop"
         result="result6"
         in2="result3" />
      <feComposite
         k4="0"
         id="feComposite19361-941"
         result="result4"
         in="result6"
         k3="0.5"
         k1="0.5"
         k2="0.5"
         operator="arithmetic"
         in2="result6" />
      <feBlend
         id="feBlend19363-848"
         in="result4"
         result="result2"
         mode="normal"
         in2="fbSourceGraphic" />
      <feComposite
         k4="0"
         k3="0"
         k1="0"
         id="feComposite19365-93"
         result="result5"
         k2="1"
         operator="arithmetic"
         in2="result2" />
      <feComposite
         id="feComposite19367-94"
         result="result5"
         operator="in"
         in2="SourceGraphic" />
    </filter>
  </defs>
  <sodipodi:namedview
     id="base"
     pagecolor="#ffffff"
     bordercolor="#666666"
     borderopacity="1.0"
     inkscape:pageopacity="0.0"
     inkscape:pageshadow="2"
     inkscape:zoom="0.35"
     inkscape:cx="375"
     inkscape:cy="748.57145"
     inkscape:document-units="px"
     inkscape:current-layer="layer1"
     showgrid="false"
     fit-margin-top="0"
     fit-margin-left="0"
     fit-margin-right="0"
     fit-margin-bottom="0"
     inkscape:window-width="1871"
     inkscape:window-height="1056"
     inkscape:window-x="49"
     inkscape:window-y="24"
     inkscape:window-maximized="1" />
  <metadata
     id="metadata15600">
    <rdf:RDF>
      <cc:Work
         rdf:about="">
        <dc:format>image/svg+xml</dc:format>
        <dc:type
           rdf:resource="http://purl.org/dc/dcmitype/StillImage" />
        <dc:title></dc:title>
      </cc:Work>
    </rdf:RDF>
  </metadata>
  <g
     inkscape:label="Layer 1"
     inkscape:groupmode="layer"
     id="layer1"
     transform="translate(1.153949e-6,-740.5512)">
    <g
       transform="matrix(1.0044823,0,0,1.0032089,-1792.6579,1820.0806)"
       style="filter:url(#filter19349-697)"
       id="g100965">
      <rect
         ry="10.59592"
         rx="10.582486"
         style="display:inline;fill:#ffffff;fill-opacity:1;stroke:#000000;stroke-width:0.99291563;stroke-miterlimit:4;stroke-dasharray:none;stroke-opacity:1"
         id="rect5709"
         width="222.23224"
         height="310.81366"
         x="1784.6586"
         y="-1076.0764" />
      <path
         sodipodi:nodetypes="cccscsccc"
         inkscape:connector-curvature="0"
         style="display:inline;opacity:1;fill:#d40000"
         d="m 1801.7993,-1006.3268 c 0,0 -2.2148,-3.1796 -5.2024,-6.9179 -1.9987,-2.5017 -3.5966,-5.2105 -3.7452,-7.5438 -0.1703,-2.6653 1.4425,-5.3393 4.3625,-5.4689 2.9184,-0.1295 4.1029,2.0551 4.5851,3.8563 0.4822,-1.8012 1.6668,-3.9858 4.585,-3.8563 2.9201,0.1296 4.533,2.8036 4.3626,5.4689 -0.1485,2.3333 -1.7465,5.0421 -3.7451,7.5438 -2.9877,3.7383 -5.2025,6.9179 -5.2025,6.9179 z"
         id="path10038-5-0" />
      <path
         sodipodi:nodetypes="cccscsccc"
         inkscape:connector-curvature="0"
         style="display:inline;opacity:1;fill:#d40000"
         d="m 1989.7513,-835.01193 c 0,0 -2.2147,3.17958 -5.2023,6.91791 -1.9988,2.50166 -3.5966,5.2105 -3.7453,7.54374 -0.1703,2.66533 1.4426,5.33927 4.3626,5.46888 2.9183,0.12951 4.1028,-2.05509 4.585,-3.85622 0.4823,1.80113 1.6669,3.98573 4.5851,3.85622 2.92,-0.12961 4.533,-2.80355 4.3625,-5.46888 -0.1485,-2.33324 -1.7464,-5.04208 -3.7451,-7.54374 -2.9877,-3.73833 -5.2025,-6.91791 -5.2025,-6.91791 z"
         id="path10040-7-6" />
      <path
         sodipodi:nodetypes="cccscsccc"
         id="path10046-1-1"
         d="m 1844.2395,-995.63952 c 0,0 -4.6455,-7.63098 -10.912,-16.60298 -4.1922,-6.004 -7.5438,-12.5052 -7.8554,-18.105 -0.3574,-6.3968 3.0257,-12.8143 9.1504,-13.1253 6.1211,-0.3108 8.6056,4.9322 9.617,9.2549 1.0115,-4.3227 3.496,-9.5657 9.6171,-9.2549 6.1248,0.311 9.5078,6.7285 9.1504,13.1253 -0.3116,5.5998 -3.6632,12.101 -7.8554,18.105 -6.2665,8.972 -10.9121,16.60298 -10.9121,16.60298 z"
         style="display:inline;opacity:1;fill:#d40000"
         inkscape:connector-curvature="0" />
      <path
         sodipodi:nodetypes="cccscsccc"
         id="path10048-2-0"
         d="m 1947.3103,-896.74621 c 0,0 -4.6455,-7.63099 -10.912,-16.60299 -4.1922,-6.00399 -7.5438,-12.5052 -7.8554,-18.10499 -0.3574,-6.39678 3.0257,-12.81426 9.1504,-13.12529 6.1211,-0.31085 8.6057,4.9322 9.617,9.25491 1.0115,-4.32271 3.4961,-9.56576 9.6171,-9.25491 6.1248,0.31103 9.5078,6.72851 9.1504,13.12529 -0.3116,5.59979 -3.6632,12.101 -7.8554,18.10499 -6.2665,8.972 -10.9121,16.60299 -10.9121,16.60299 z"
         style="display:inline;opacity:1;fill:#d40000"
         inkscape:connector-curvature="0" />
      <path
         sodipodi:nodetypes="cccscsccc"
         id="path10052-3-1"
         d="m 1947.3103,-995.63952 c 0,0 -4.6455,-7.63098 -10.912,-16.60298 -4.1922,-6.004 -7.5438,-12.5052 -7.8554,-18.105 -0.3574,-6.3968 3.0257,-12.8143 9.1504,-13.1253 6.1211,-0.3108 8.6057,4.9322 9.617,9.2549 1.0115,-4.3227 3.4961,-9.5657 9.6171,-9.2549 6.1248,0.311 9.5078,6.7285 9.1504,13.1253 -0.3116,5.5998 -3.6632,12.101 -7.8554,18.105 -6.2665,8.972 -10.9121,16.60298 -10.9121,16.60298 z"
         style="display:inline;opacity:1;fill:#d40000"
         inkscape:connector-curvature="0" />
      <path
         sodipodi:nodetypes="cccscsccc"
         id="path10056-4-2"
         d="m 1844.2395,-896.74621 c 0,0 -4.6455,-7.63099 -10.912,-16.60298 -4.1922,-6.00399 -7.5438,-12.5052 -7.8554,-18.10499 -0.3574,-6.39678 3.0257,-12.81426 9.1504,-13.12529 6.1211,-0.31085 8.6056,4.9322 9.617,9.25491 1.0115,-4.32271 3.496,-9.56576 9.6171,-9.25491 6.1248,0.31103 9.5078,6.72851 9.1504,13.12529 -0.3116,5.59979 -3.6632,12.101 -7.8554,18.10499 -6.2665,8.97199 -10.9121,16.60298 -10.9121,16.60298 z"
         style="display:inline;opacity:1;fill:#d40000"
         inkscape:connector-curvature="0" />
      <path
         sodipodi:nodetypes="cccscsccc"
         inkscape:connector-curvature="0"
         style="display:inline;opacity:1;fill:#d40000"
         d="m 1947.3103,-845.69936 c 0,0 -4.6455,7.63098 -10.912,16.60298 -4.1922,6.004 -7.5438,12.5052 -7.8554,18.10499 -0.3574,6.39679 3.0257,12.81426 9.1504,13.1253 6.1211,0.31085 8.6057,-4.93221 9.617,-9.25492 1.0115,4.32271 3.4961,9.56577 9.6171,9.25492 6.1248,-0.31104 9.5078,-6.72851 9.1504,-13.1253 -0.3116,-5.59979 -3.6632,-12.10099 -7.8554,-18.10499 -6.2665,-8.972 -10.9121,-16.60298 -10.9121,-16.60298 z"
         id="path10066-9-2" />
      <path
         sodipodi:nodetypes="cccscsccc"
         id="path10068-1-2"
         d="m 1844.2395,-845.69936 c 0,0 -4.6455,7.63098 -10.912,16.60298 -4.1922,6.004 -7.5438,12.5052 -7.8554,18.10499 -0.3574,6.39679 3.0257,12.81426 9.1504,13.1253 6.1211,0.31085 8.6056,-4.93221 9.617,-9.25492 1.0115,4.32271 3.496,9.56577 9.6171,9.25492 6.1248,-0.31104 9.5078,-6.72851 9.1504,-13.1253 -0.3116,-5.59979 -3.6632,-12.10099 -7.8554,-18.10499 -6.2665,-8.972 -10.9121,-16.60298 -10.9121,-16.60298 z"
         style="display:inline;opacity:1;fill:#d40000;stroke:none;stroke-opacity:1"
         inkscape:connector-curvature="0" />
      <path
         d="m 1792.1501,-1039.5081 c -0.4045,-2.7686 -0.3942,-9.9257 -0.064,-12.0429 1.0201,-6.4861 3.4942,-9.4542 7.6386,-10.4228 4.0255,-0.9438 9.6804,0.107 10.9206,5.5279 l -3.365,0.065 c -1.8201,-3.6652 -6.4253,-2.6862 -9.0198,-1.0912 -2.0696,1.2701 -3.0053,6.5735 -2.6047,6.8999 0,0 3.9141,-2.903 7.0001,-2.689 6.5943,0.6879 9.3142,6.4143 9.0837,11.8209 -0.2099,6.5044 -2.2693,11.706 -9.2591,12.0519 -6.6455,-0.2572 -9.6905,-3.8846 -10.3304,-10.12 l 0,0 z m 16.3896,-1.7178 c 0.036,-4.5125 -2.0095,-7.8946 -5.8838,-8.2653 -3.8705,-0.3733 -7.7757,3.4095 -7.5056,8.0094 0.27,4.6195 2.0555,8.5054 6.7504,8.4845 5.0494,-0.02 6.6147,-5.0163 6.639,-8.2286 l 0,0 z m 0,0"
         id="path23-5-2-7-3"
         inkscape:connector-curvature="0"
         style="opacity:1;fill:#d40000;fill-opacity:1;stroke-width:1;stroke-miterlimit:4;stroke-dasharray:none" />
      <path
         d="m 1999.3977,-801.83063 c 0.4045,2.76862 0.3941,9.92565 0.064,12.04286 -1.0201,6.48608 -3.4943,9.45426 -7.6388,10.42285 -4.0254,0.94377 -9.6803,-0.10706 -10.9205,-5.52796 l 3.365,-0.0648 c 1.8201,3.66524 6.4254,2.68628 9.0199,1.0912 2.0696,-1.27003 3.0052,-6.57351 2.6046,-6.89986 0,0 -3.9142,2.90298 -7.0001,2.68897 -6.5942,-0.68789 -9.3142,-6.41432 -9.0837,-11.82087 0.2098,-6.50443 2.2693,-11.70604 9.2591,-12.05193 6.6456,0.25718 9.6904,3.88464 10.3305,10.12003 l 0,0 z m -16.3898,1.71779 c -0.036,4.51252 2.0095,7.89457 5.884,8.26528 3.8704,0.3733 7.7756,-3.40946 7.5055,-8.0094 -0.27,-4.61948 -2.0555,-8.50541 -6.7503,-8.48448 -5.0494,0.0199 -6.6148,5.01631 -6.6392,8.2286 l 0,0 z m 0,0"
         id="path23-6-5-1-7-1"
         inkscape:connector-curvature="0"
         style="opacity:1;fill:#d40000;fill-opacity:1" />
    </g>
  </g>
</svg>
