<?xml version="1.0" encoding="UTF-8" standalone="no"?>
<!-- Created with Inkscape (http://www.inkscape.org/) -->

<svg
   xmlns:dc="http://purl.org/dc/elements/1.1/"
   xmlns:cc="http://creativecommons.org/ns#"
   xmlns:rdf="http://www.w3.org/1999/02/22-rdf-syntax-ns#"
   xmlns:svg="http://www.w3.org/2000/svg"
   xmlns="http://www.w3.org/2000/svg"
   xmlns:sodipodi="http://sodipodi.sourceforge.net/DTD/sodipodi-0.dtd"
   xmlns:inkscape="http://www.inkscape.org/namespaces/inkscape"
   width="63mm"
   height="88mm"
   viewBox="0 0 223.22835 311.81102"
   id="svg15595"
   version="1.1"
   inkscape:version="0.91 r13725"
   sodipodi:docname="s02.svg">
  <defs
     id="defs15597">
    <filter
       height="1"
       width="1"
       y="0"
       x="0"
       id="filter19349"
       style="color-interpolation-filters:sRGB"
       inkscape:menu-tooltip="Blend an image with its hue opposite"
       inkscape:menu="Color"
       inkscape:label="Blend Opposites">
      <feColorMatrix
         id="feColorMatrix19351"
         in="SourceGraphic"
         result="fbSourceGraphic"
         values="180"
         type="hueRotate" />
      <feColorMatrix
         id="feColorMatrix19353"
         result="result1"
         in="SourceGraphic"
         values="1 0 0 0 0 0 1 0 0 0 0 0 1 0 0 -0.2125 -0.7154 -0.0721 1 0 " />
      <feColorMatrix
         id="feColorMatrix19355"
         values="0"
         type="hueRotate" />
      <feColorMatrix
         id="feColorMatrix19357"
         result="result3"
         values="1 0 0 0 0 0 1 0 0 0 0 0 1 0 0 0 0 0 1 0 " />
      <feComposite
         id="feComposite19359"
         operator="atop"
         result="result6"
         in2="result3" />
      <feComposite
         k4="0"
         id="feComposite19361"
         result="result4"
         in="result6"
         k3="0.5"
         k1="0.5"
         k2="0.5"
         operator="arithmetic"
         in2="result6" />
      <feBlend
         id="feBlend19363"
         in="result4"
         result="result2"
         mode="normal"
         in2="fbSourceGraphic" />
      <feComposite
         k4="0"
         k3="0"
         k1="0"
         id="feComposite19365"
         result="result5"
         k2="1"
         operator="arithmetic"
         in2="result2" />
      <feComposite
         id="feComposite19367"
         result="result5"
         operator="in"
         in2="SourceGraphic" />
    </filter>
    <filter
       height="1"
       width="1"
       y="0"
       x="0"
       id="filter19349-2"
       style="color-interpolation-filters:sRGB"
       inkscape:menu-tooltip="Blend an image with its hue opposite"
       inkscape:menu="Color"
       inkscape:label="Blend Opposites">
      <feColorMatrix
         id="feColorMatrix19351-7"
         in="SourceGraphic"
         result="fbSourceGraphic"
         values="180"
         type="hueRotate" />
      <feColorMatrix
         id="feColorMatrix19353-9"
         result="result1"
         in="SourceGraphic"
         values="1 0 0 0 0 0 1 0 0 0 0 0 1 0 0 -0.2125 -0.7154 -0.0721 1 0 " />
      <feColorMatrix
         id="feColorMatrix19355-8"
         values="0"
         type="hueRotate" />
      <feColorMatrix
         id="feColorMatrix19357-3"
         result="result3"
         values="1 0 0 0 0 0 1 0 0 0 0 0 1 0 0 0 0 0 1 0 " />
      <feComposite
         id="feComposite19359-4"
         operator="atop"
         result="result6"
         in2="result3" />
      <feComposite
         k4="0"
         id="feComposite19361-1"
         result="result4"
         in="result6"
         k3="0.5"
         k1="0.5"
         k2="0.5"
         operator="arithmetic"
         in2="result6" />
      <feBlend
         id="feBlend19363-4"
         in="result4"
         result="result2"
         mode="normal"
         in2="fbSourceGraphic" />
      <feComposite
         k4="0"
         k3="0"
         k1="0"
         id="feComposite19365-5"
         result="result5"
         k2="1"
         operator="arithmetic"
         in2="result2" />
      <feComposite
         id="feComposite19367-8"
         result="result5"
         operator="in"
         in2="SourceGraphic" />
    </filter>
    <filter
       height="1"
       width="1"
       y="0"
       x="0"
       id="filter19349-0"
       style="color-interpolation-filters:sRGB"
       inkscape:menu-tooltip="Blend an image with its hue opposite"
       inkscape:menu="Color"
       inkscape:label="Blend Opposites">
      <feColorMatrix
         id="feColorMatrix19351-0"
         in="SourceGraphic"
         result="fbSourceGraphic"
         values="180"
         type="hueRotate" />
      <feColorMatrix
         id="feColorMatrix19353-1"
         result="result1"
         in="SourceGraphic"
         values="1 0 0 0 0 0 1 0 0 0 0 0 1 0 0 -0.2125 -0.7154 -0.0721 1 0 " />
      <feColorMatrix
         id="feColorMatrix19355-7"
         values="0"
         type="hueRotate" />
      <feColorMatrix
         id="feColorMatrix19357-32"
         result="result3"
         values="1 0 0 0 0 0 1 0 0 0 0 0 1 0 0 0 0 0 1 0 " />
      <feComposite
         id="feComposite19359-3"
         operator="atop"
         result="result6"
         in2="result3" />
      <feComposite
         k4="0"
         id="feComposite19361-6"
         result="result4"
         in="result6"
         k3="0.5"
         k1="0.5"
         k2="0.5"
         operator="arithmetic"
         in2="result6" />
      <feBlend
         id="feBlend19363-44"
         in="result4"
         result="result2"
         mode="normal"
         in2="fbSourceGraphic" />
      <feComposite
         k4="0"
         k3="0"
         k1="0"
         id="feComposite19365-6"
         result="result5"
         k2="1"
         operator="arithmetic"
         in2="result2" />
      <feComposite
         id="feComposite19367-7"
         result="result5"
         operator="in"
         in2="SourceGraphic" />
    </filter>
    <filter
       height="1"
       width="1"
       y="0"
       x="0"
       id="filter19349-20"
       style="color-interpolation-filters:sRGB"
       inkscape:menu-tooltip="Blend an image with its hue opposite"
       inkscape:menu="Color"
       inkscape:label="Blend Opposites">
      <feColorMatrix
         id="feColorMatrix19351-2"
         in="SourceGraphic"
         result="fbSourceGraphic"
         values="180"
         type="hueRotate" />
      <feColorMatrix
         id="feColorMatrix19353-6"
         result="result1"
         in="SourceGraphic"
         values="1 0 0 0 0 0 1 0 0 0 0 0 1 0 0 -0.2125 -0.7154 -0.0721 1 0 " />
      <feColorMatrix
         id="feColorMatrix19355-2"
         values="0"
         type="hueRotate" />
      <feColorMatrix
         id="feColorMatrix19357-6"
         result="result3"
         values="1 0 0 0 0 0 1 0 0 0 0 0 1 0 0 0 0 0 1 0 " />
      <feComposite
         id="feComposite19359-0"
         operator="atop"
         result="result6"
         in2="result3" />
      <feComposite
         k4="0"
         id="feComposite19361-66"
         result="result4"
         in="result6"
         k3="0.5"
         k1="0.5"
         k2="0.5"
         operator="arithmetic"
         in2="result6" />
      <feBlend
         id="feBlend19363-43"
         in="result4"
         result="result2"
         mode="normal"
         in2="fbSourceGraphic" />
      <feComposite
         k4="0"
         k3="0"
         k1="0"
         id="feComposite19365-7"
         result="result5"
         k2="1"
         operator="arithmetic"
         in2="result2" />
      <feComposite
         id="feComposite19367-3"
         result="result5"
         operator="in"
         in2="SourceGraphic" />
    </filter>
    <filter
       height="1"
       width="1"
       y="0"
       x="0"
       id="filter19349-8"
       style="color-interpolation-filters:sRGB"
       inkscape:menu-tooltip="Blend an image with its hue opposite"
       inkscape:menu="Color"
       inkscape:label="Blend Opposites">
      <feColorMatrix
         id="feColorMatrix19351-26"
         in="SourceGraphic"
         result="fbSourceGraphic"
         values="180"
         type="hueRotate" />
      <feColorMatrix
         id="feColorMatrix19353-2"
         result="result1"
         in="SourceGraphic"
         values="1 0 0 0 0 0 1 0 0 0 0 0 1 0 0 -0.2125 -0.7154 -0.0721 1 0 " />
      <feColorMatrix
         id="feColorMatrix19355-9"
         values="0"
         type="hueRotate" />
      <feColorMatrix
         id="feColorMatrix19357-7"
         result="result3"
         values="1 0 0 0 0 0 1 0 0 0 0 0 1 0 0 0 0 0 1 0 " />
      <feComposite
         id="feComposite19359-5"
         operator="atop"
         result="result6"
         in2="result3" />
      <feComposite
         k4="0"
         id="feComposite19361-9"
         result="result4"
         in="result6"
         k3="0.5"
         k1="0.5"
         k2="0.5"
         operator="arithmetic"
         in2="result6" />
      <feBlend
         id="feBlend19363-8"
         in="result4"
         result="result2"
         mode="normal"
         in2="fbSourceGraphic" />
      <feComposite
         k4="0"
         k3="0"
         k1="0"
         id="feComposite19365-2"
         result="result5"
         k2="1"
         operator="arithmetic"
         in2="result2" />
      <feComposite
         id="feComposite19367-33"
         result="result5"
         operator="in"
         in2="SourceGraphic" />
    </filter>
    <filter
       height="1"
       width="1"
       y="0"
       x="0"
       id="filter19349-7"
       style="color-interpolation-filters:sRGB"
       inkscape:menu-tooltip="Blend an image with its hue opposite"
       inkscape:menu="Color"
       inkscape:label="Blend Opposites">
      <feColorMatrix
         id="feColorMatrix19351-1"
         in="SourceGraphic"
         result="fbSourceGraphic"
         values="180"
         type="hueRotate" />
      <feColorMatrix
         id="feColorMatrix19353-7"
         result="result1"
         in="SourceGraphic"
         values="1 0 0 0 0 0 1 0 0 0 0 0 1 0 0 -0.2125 -0.7154 -0.0721 1 0 " />
      <feColorMatrix
         id="feColorMatrix19355-29"
         values="0"
         type="hueRotate" />
      <feColorMatrix
         id="feColorMatrix19357-4"
         result="result3"
         values="1 0 0 0 0 0 1 0 0 0 0 0 1 0 0 0 0 0 1 0 " />
      <feComposite
         id="feComposite19359-6"
         operator="atop"
         result="result6"
         in2="result3" />
      <feComposite
         k4="0"
         id="feComposite19361-18"
         result="result4"
         in="result6"
         k3="0.5"
         k1="0.5"
         k2="0.5"
         operator="arithmetic"
         in2="result6" />
      <feBlend
         id="feBlend19363-2"
         in="result4"
         result="result2"
         mode="normal"
         in2="fbSourceGraphic" />
      <feComposite
         k4="0"
         k3="0"
         k1="0"
         id="feComposite19365-4"
         result="result5"
         k2="1"
         operator="arithmetic"
         in2="result2" />
      <feComposite
         id="feComposite19367-4"
         result="result5"
         operator="in"
         in2="SourceGraphic" />
    </filter>
    <filter
       height="1"
       width="1"
       y="0"
       x="0"
       id="filter19349-4"
       style="color-interpolation-filters:sRGB"
       inkscape:menu-tooltip="Blend an image with its hue opposite"
       inkscape:menu="Color"
       inkscape:label="Blend Opposites">
      <feColorMatrix
         id="feColorMatrix19351-03"
         in="SourceGraphic"
         result="fbSourceGraphic"
         values="180"
         type="hueRotate" />
      <feColorMatrix
         id="feColorMatrix19353-15"
         result="result1"
         in="SourceGraphic"
         values="1 0 0 0 0 0 1 0 0 0 0 0 1 0 0 -0.2125 -0.7154 -0.0721 1 0 " />
      <feColorMatrix
         id="feColorMatrix19355-24"
         values="0"
         type="hueRotate" />
      <feColorMatrix
         id="feColorMatrix19357-64"
         result="result3"
         values="1 0 0 0 0 0 1 0 0 0 0 0 1 0 0 0 0 0 1 0 " />
      <feComposite
         id="feComposite19359-2"
         operator="atop"
         result="result6"
         in2="result3" />
      <feComposite
         k4="0"
         id="feComposite19361-8"
         result="result4"
         in="result6"
         k3="0.5"
         k1="0.5"
         k2="0.5"
         operator="arithmetic"
         in2="result6" />
      <feBlend
         id="feBlend19363-5"
         in="result4"
         result="result2"
         mode="normal"
         in2="fbSourceGraphic" />
      <feComposite
         k4="0"
         k3="0"
         k1="0"
         id="feComposite19365-9"
         result="result5"
         k2="1"
         operator="arithmetic"
         in2="result2" />
      <feComposite
         id="feComposite19367-35"
         result="result5"
         operator="in"
         in2="SourceGraphic" />
    </filter>
    <filter
       height="1"
       width="1"
       y="0"
       x="0"
       id="filter19349-08"
       style="color-interpolation-filters:sRGB"
       inkscape:menu-tooltip="Blend an image with its hue opposite"
       inkscape:menu="Color"
       inkscape:label="Blend Opposites">
      <feColorMatrix
         id="feColorMatrix19351-035"
         in="SourceGraphic"
         result="fbSourceGraphic"
         values="180"
         type="hueRotate" />
      <feColorMatrix
         id="feColorMatrix19353-12"
         result="result1"
         in="SourceGraphic"
         values="1 0 0 0 0 0 1 0 0 0 0 0 1 0 0 -0.2125 -0.7154 -0.0721 1 0 " />
      <feColorMatrix
         id="feColorMatrix19355-90"
         values="0"
         type="hueRotate" />
      <feColorMatrix
         id="feColorMatrix19357-75"
         result="result3"
         values="1 0 0 0 0 0 1 0 0 0 0 0 1 0 0 0 0 0 1 0 " />
      <feComposite
         id="feComposite19359-1"
         operator="atop"
         result="result6"
         in2="result3" />
      <feComposite
         k4="0"
         id="feComposite19361-7"
         result="result4"
         in="result6"
         k3="0.5"
         k1="0.5"
         k2="0.5"
         operator="arithmetic"
         in2="result6" />
      <feBlend
         id="feBlend19363-0"
         in="result4"
         result="result2"
         mode="normal"
         in2="fbSourceGraphic" />
      <feComposite
         k4="0"
         k3="0"
         k1="0"
         id="feComposite19365-74"
         result="result5"
         k2="1"
         operator="arithmetic"
         in2="result2" />
      <feComposite
         id="feComposite19367-49"
         result="result5"
         operator="in"
         in2="SourceGraphic" />
    </filter>
    <filter
       height="1"
       width="1"
       y="0"
       x="0"
       id="filter19349-75"
       style="color-interpolation-filters:sRGB"
       inkscape:menu-tooltip="Blend an image with its hue opposite"
       inkscape:menu="Color"
       inkscape:label="Blend Opposites">
      <feColorMatrix
         id="feColorMatrix19351-5"
         in="SourceGraphic"
         result="fbSourceGraphic"
         values="180"
         type="hueRotate" />
      <feColorMatrix
         id="feColorMatrix19353-11"
         result="result1"
         in="SourceGraphic"
         values="1 0 0 0 0 0 1 0 0 0 0 0 1 0 0 -0.2125 -0.7154 -0.0721 1 0 " />
      <feColorMatrix
         id="feColorMatrix19355-1"
         values="0"
         type="hueRotate" />
      <feColorMatrix
         id="feColorMatrix19357-8"
         result="result3"
         values="1 0 0 0 0 0 1 0 0 0 0 0 1 0 0 0 0 0 1 0 " />
      <feComposite
         id="feComposite19359-61"
         operator="atop"
         result="result6"
         in2="result3" />
      <feComposite
         k4="0"
         id="feComposite19361-3"
         result="result4"
         in="result6"
         k3="0.5"
         k1="0.5"
         k2="0.5"
         operator="arithmetic"
         in2="result6" />
      <feBlend
         id="feBlend19363-57"
         in="result4"
         result="result2"
         mode="normal"
         in2="fbSourceGraphic" />
      <feComposite
         k4="0"
         k3="0"
         k1="0"
         id="feComposite19365-8"
         result="result5"
         k2="1"
         operator="arithmetic"
         in2="result2" />
      <feComposite
         id="feComposite19367-75"
         result="result5"
         operator="in"
         in2="SourceGraphic" />
    </filter>
    <filter
       height="1"
       width="1"
       y="0"
       x="0"
       id="filter19349-80"
       style="color-interpolation-filters:sRGB"
       inkscape:menu-tooltip="Blend an image with its hue opposite"
       inkscape:menu="Color"
       inkscape:label="Blend Opposites">
      <feColorMatrix
         id="feColorMatrix19351-21"
         in="SourceGraphic"
         result="fbSourceGraphic"
         values="180"
         type="hueRotate" />
      <feColorMatrix
         id="feColorMatrix19353-5"
         result="result1"
         in="SourceGraphic"
         values="1 0 0 0 0 0 1 0 0 0 0 0 1 0 0 -0.2125 -0.7154 -0.0721 1 0 " />
      <feColorMatrix
         id="feColorMatrix19355-21"
         values="0"
         type="hueRotate" />
      <feColorMatrix
         id="feColorMatrix19357-49"
         result="result3"
         values="1 0 0 0 0 0 1 0 0 0 0 0 1 0 0 0 0 0 1 0 " />
      <feComposite
         id="feComposite19359-51"
         operator="atop"
         result="result6"
         in2="result3" />
      <feComposite
         k4="0"
         id="feComposite19361-94"
         result="result4"
         in="result6"
         k3="0.5"
         k1="0.5"
         k2="0.5"
         operator="arithmetic"
         in2="result6" />
      <feBlend
         id="feBlend19363-56"
         in="result4"
         result="result2"
         mode="normal"
         in2="fbSourceGraphic" />
      <feComposite
         k4="0"
         k3="0"
         k1="0"
         id="feComposite19365-44"
         result="result5"
         k2="1"
         operator="arithmetic"
         in2="result2" />
      <feComposite
         id="feComposite19367-31"
         result="result5"
         operator="in"
         in2="SourceGraphic" />
    </filter>
    <filter
       height="1"
       width="1"
       y="0"
       x="0"
       id="filter19349-6"
       style="color-interpolation-filters:sRGB"
       inkscape:menu-tooltip="Blend an image with its hue opposite"
       inkscape:menu="Color"
       inkscape:label="Blend Opposites">
      <feColorMatrix
         id="feColorMatrix19351-74"
         in="SourceGraphic"
         result="fbSourceGraphic"
         values="180"
         type="hueRotate" />
      <feColorMatrix
         id="feColorMatrix19353-4"
         result="result1"
         in="SourceGraphic"
         values="1 0 0 0 0 0 1 0 0 0 0 0 1 0 0 -0.2125 -0.7154 -0.0721 1 0 " />
      <feColorMatrix
         id="feColorMatrix19355-3"
         values="0"
         type="hueRotate" />
      <feColorMatrix
         id="feColorMatrix19357-5"
         result="result3"
         values="1 0 0 0 0 0 1 0 0 0 0 0 1 0 0 0 0 0 1 0 " />
      <feComposite
         id="feComposite19359-7"
         operator="atop"
         result="result6"
         in2="result3" />
      <feComposite
         k4="0"
         id="feComposite19361-0"
         result="result4"
         in="result6"
         k3="0.5"
         k1="0.5"
         k2="0.5"
         operator="arithmetic"
         in2="result6" />
      <feBlend
         id="feBlend19363-48"
         in="result4"
         result="result2"
         mode="normal"
         in2="fbSourceGraphic" />
      <feComposite
         k4="0"
         k3="0"
         k1="0"
         id="feComposite19365-81"
         result="result5"
         k2="1"
         operator="arithmetic"
         in2="result2" />
      <feComposite
         id="feComposite19367-6"
         result="result5"
         operator="in"
         in2="SourceGraphic" />
    </filter>
    <filter
       height="1"
       width="1"
       y="0"
       x="0"
       id="filter19349-06"
       style="color-interpolation-filters:sRGB"
       inkscape:menu-tooltip="Blend an image with its hue opposite"
       inkscape:menu="Color"
       inkscape:label="Blend Opposites">
      <feColorMatrix
         id="feColorMatrix19351-8"
         in="SourceGraphic"
         result="fbSourceGraphic"
         values="180"
         type="hueRotate" />
      <feColorMatrix
         id="feColorMatrix19353-58"
         result="result1"
         in="SourceGraphic"
         values="1 0 0 0 0 0 1 0 0 0 0 0 1 0 0 -0.2125 -0.7154 -0.0721 1 0 " />
      <feColorMatrix
         id="feColorMatrix19355-19"
         values="0"
         type="hueRotate" />
      <feColorMatrix
         id="feColorMatrix19357-9"
         result="result3"
         values="1 0 0 0 0 0 1 0 0 0 0 0 1 0 0 0 0 0 1 0 " />
      <feComposite
         id="feComposite19359-8"
         operator="atop"
         result="result6"
         in2="result3" />
      <feComposite
         k4="0"
         id="feComposite19361-11"
         result="result4"
         in="result6"
         k3="0.5"
         k1="0.5"
         k2="0.5"
         operator="arithmetic"
         in2="result6" />
      <feBlend
         id="feBlend19363-3"
         in="result4"
         result="result2"
         mode="normal"
         in2="fbSourceGraphic" />
      <feComposite
         k4="0"
         k3="0"
         k1="0"
         id="feComposite19365-87"
         result="result5"
         k2="1"
         operator="arithmetic"
         in2="result2" />
      <feComposite
         id="feComposite19367-73"
         result="result5"
         operator="in"
         in2="SourceGraphic" />
    </filter>
    <filter
       height="1"
       width="1"
       y="0"
       x="0"
       id="filter19349-209"
       style="color-interpolation-filters:sRGB"
       inkscape:menu-tooltip="Blend an image with its hue opposite"
       inkscape:menu="Color"
       inkscape:label="Blend Opposites">
      <feColorMatrix
         id="feColorMatrix19351-9"
         in="SourceGraphic"
         result="fbSourceGraphic"
         values="180"
         type="hueRotate" />
      <feColorMatrix
         id="feColorMatrix19353-45"
         result="result1"
         in="SourceGraphic"
         values="1 0 0 0 0 0 1 0 0 0 0 0 1 0 0 -0.2125 -0.7154 -0.0721 1 0 " />
      <feColorMatrix
         id="feColorMatrix19355-4"
         values="0"
         type="hueRotate" />
      <feColorMatrix
         id="feColorMatrix19357-1"
         result="result3"
         values="1 0 0 0 0 0 1 0 0 0 0 0 1 0 0 0 0 0 1 0 " />
      <feComposite
         id="feComposite19359-25"
         operator="atop"
         result="result6"
         in2="result3" />
      <feComposite
         k4="0"
         id="feComposite19361-60"
         result="result4"
         in="result6"
         k3="0.5"
         k1="0.5"
         k2="0.5"
         operator="arithmetic"
         in2="result6" />
      <feBlend
         id="feBlend19363-579"
         in="result4"
         result="result2"
         mode="normal"
         in2="fbSourceGraphic" />
      <feComposite
         k4="0"
         k3="0"
         k1="0"
         id="feComposite19365-53"
         result="result5"
         k2="1"
         operator="arithmetic"
         in2="result2" />
      <feComposite
         id="feComposite19367-9"
         result="result5"
         operator="in"
         in2="SourceGraphic" />
    </filter>
    <filter
       height="1"
       width="1"
       y="0"
       x="0"
       id="filter19349-3"
       style="color-interpolation-filters:sRGB"
       inkscape:menu-tooltip="Blend an image with its hue opposite"
       inkscape:menu="Color"
       inkscape:label="Blend Opposites">
      <feColorMatrix
         id="feColorMatrix19351-3"
         in="SourceGraphic"
         result="fbSourceGraphic"
         values="180"
         type="hueRotate" />
      <feColorMatrix
         id="feColorMatrix19353-0"
         result="result1"
         in="SourceGraphic"
         values="1 0 0 0 0 0 1 0 0 0 0 0 1 0 0 -0.2125 -0.7154 -0.0721 1 0 " />
      <feColorMatrix
         id="feColorMatrix19355-45"
         values="0"
         type="hueRotate" />
      <feColorMatrix
         id="feColorMatrix19357-17"
         result="result3"
         values="1 0 0 0 0 0 1 0 0 0 0 0 1 0 0 0 0 0 1 0 " />
      <feComposite
         id="feComposite19359-64"
         operator="atop"
         result="result6"
         in2="result3" />
      <feComposite
         k4="0"
         id="feComposite19361-63"
         result="result4"
         in="result6"
         k3="0.5"
         k1="0.5"
         k2="0.5"
         operator="arithmetic"
         in2="result6" />
      <feBlend
         id="feBlend19363-39"
         in="result4"
         result="result2"
         mode="normal"
         in2="fbSourceGraphic" />
      <feComposite
         k4="0"
         k3="0"
         k1="0"
         id="feComposite19365-73"
         result="result5"
         k2="1"
         operator="arithmetic"
         in2="result2" />
      <feComposite
         id="feComposite19367-0"
         result="result5"
         operator="in"
         in2="SourceGraphic" />
    </filter>
    <filter
       height="1"
       width="1"
       y="0"
       x="0"
       id="filter19349-79"
       style="color-interpolation-filters:sRGB"
       inkscape:menu-tooltip="Blend an image with its hue opposite"
       inkscape:menu="Color"
       inkscape:label="Blend Opposites">
      <feColorMatrix
         id="feColorMatrix19351-51"
         in="SourceGraphic"
         result="fbSourceGraphic"
         values="180"
         type="hueRotate" />
      <feColorMatrix
         id="feColorMatrix19353-09"
         result="result1"
         in="SourceGraphic"
         values="1 0 0 0 0 0 1 0 0 0 0 0 1 0 0 -0.2125 -0.7154 -0.0721 1 0 " />
      <feColorMatrix
         id="feColorMatrix19355-6"
         values="0"
         type="hueRotate" />
      <feColorMatrix
         id="feColorMatrix19357-80"
         result="result3"
         values="1 0 0 0 0 0 1 0 0 0 0 0 1 0 0 0 0 0 1 0 " />
      <feComposite
         id="feComposite19359-38"
         operator="atop"
         result="result6"
         in2="result3" />
      <feComposite
         k4="0"
         id="feComposite19361-113"
         result="result4"
         in="result6"
         k3="0.5"
         k1="0.5"
         k2="0.5"
         operator="arithmetic"
         in2="result6" />
      <feBlend
         id="feBlend19363-04"
         in="result4"
         result="result2"
         mode="normal"
         in2="fbSourceGraphic" />
      <feComposite
         k4="0"
         k3="0"
         k1="0"
         id="feComposite19365-92"
         result="result5"
         k2="1"
         operator="arithmetic"
         in2="result2" />
      <feComposite
         id="feComposite19367-84"
         result="result5"
         operator="in"
         in2="SourceGraphic" />
    </filter>
  </defs>
  <sodipodi:namedview
     id="base"
     pagecolor="#ffffff"
     bordercolor="#666666"
     borderopacity="1.0"
     inkscape:pageopacity="0.0"
     inkscape:pageshadow="2"
     inkscape:zoom="0.35"
     inkscape:cx="-82.142856"
     inkscape:cy="977.14288"
     inkscape:document-units="px"
     inkscape:current-layer="layer1"
     showgrid="false"
     fit-margin-top="0"
     fit-margin-left="0"
     fit-margin-right="0"
     fit-margin-bottom="0"
     inkscape:window-width="1871"
     inkscape:window-height="1056"
     inkscape:window-x="49"
     inkscape:window-y="24"
     inkscape:window-maximized="1" />
  <metadata
     id="metadata15600">
    <rdf:RDF>
      <cc:Work
         rdf:about="">
        <dc:format>image/svg+xml</dc:format>
        <dc:type
           rdf:resource="http://purl.org/dc/dcmitype/StillImage" />
        <dc:title></dc:title>
      </cc:Work>
    </rdf:RDF>
  </metadata>
  <g
     inkscape:label="Layer 1"
     inkscape:groupmode="layer"
     id="layer1"
     transform="translate(1.153949e-6,-740.5512)">
    <g
       transform="matrix(1.0044823,0,0,1.0032089,-731.02064,1466.1407)"
       style="filter:url(#filter19349-79)"
       id="g100763">
      <rect
         y="-723.26862"
         x="727.75861"
         height="310.81366"
         width="222.23224"
         id="rect5282"
         style="display:inline;opacity:1;fill:#ffffff;fill-opacity:1;stroke:#000000;stroke-width:0.99291563;stroke-miterlimit:4;stroke-dasharray:none;stroke-opacity:1"
         rx="10.582486"
         ry="10.59592" />
      <path
         style="display:inline;opacity:1"
         sodipodi:nodetypes="cccccccccccc"
         inkscape:connector-curvature="0"
         id="path6748-4-0"
         d="m 744.89899,-673.45504 c -4.29136,5.4646 -8.88298,8.60927 -8.95924,12.87258 -0.0259,1.38052 0.81027,3.72696 3.42853,4.17609 1.69869,0.29004 4.03741,-0.93761 4.08629,-3.43171 -0.01,-0.49656 0.58876,-0.48365 0.58318,0.19675 -0.0796,1.96733 -0.77741,4.25783 -1.94956,6.12231 1.8739,0 3.7477,0 5.6216,0 -1.17214,-1.86448 -1.86962,-4.15498 -1.94956,-6.12231 -0.01,-0.6804 0.59066,-0.69331 0.58319,-0.19675 0.0488,2.4941 2.3876,3.72175 4.08628,3.43171 2.61827,-0.44913 3.45412,-2.79557 3.42854,-4.17609 -0.0767,-4.26331 -4.66798,-7.40798 -8.95925,-12.87258 z" />
      <path
         style="display:inline;opacity:1"
         sodipodi:nodetypes="cccccccccccc"
         inkscape:connector-curvature="0"
         id="path6752-9-1"
         d="m 932.85104,-462.26809 c -4.29136,-5.4646 -8.88298,-8.60927 -8.95924,-12.87258 -0.0259,-1.38052 0.81027,-3.72696 3.42853,-4.17609 1.69869,-0.29004 4.03741,0.93761 4.08629,3.43171 -0.01,0.49656 0.58876,0.48365 0.58318,-0.19675 -0.0796,-1.96733 -0.77741,-4.25783 -1.94956,-6.12231 1.8739,0 3.7477,0 5.6216,0 -1.17214,1.86448 -1.86962,4.15498 -1.94956,6.12231 -0.01,0.6804 0.59066,0.69331 0.58319,0.19675 0.0488,-2.4941 2.3876,-3.72175 4.08628,-3.43171 2.61827,0.44913 3.45412,2.79557 3.42854,4.17609 -0.0767,4.26331 -4.66798,7.40798 -8.95925,12.87258 z" />
      <path
         sodipodi:nodetypes="cccccccccccc"
         inkscape:connector-curvature="0"
         id="path6760-2-4"
         d="m 838.87465,-690.67818 c -9.18483,13.11504 -19.01248,20.66227 -19.17575,30.8942 -0.0548,3.31327 1.73433,8.94471 7.33821,10.02262 3.6357,0.69609 8.64137,-2.25026 8.7459,-8.2361 -0.0159,-1.19172 1.26025,-1.16075 1.2483,0.47221 -0.17123,4.72157 -1.66394,10.21877 -4.17269,14.69354 4.01072,0 8.02134,0 12.03206,0 -2.50875,-4.47477 -4.00146,-9.97197 -4.17269,-14.69354 -0.0119,-1.63296 1.26423,-1.66393 1.2483,-0.47221 0.10453,5.98584 5.1102,8.93219 8.7459,8.2361 5.60388,-1.07791 7.39296,-6.70935 7.33821,-10.02262 -0.16327,-10.23193 -9.99092,-17.77916 -19.17575,-30.8942 z"
         style="display:inline;opacity:1" />
      <path
         sodipodi:nodetypes="cccccccccccc"
         inkscape:connector-curvature="0"
         id="path6774-6-2"
         d="m 838.87465,-445.04508 c -9.18483,-13.11504 -19.01248,-20.66227 -19.17575,-30.8942 -0.0548,-3.31326 1.73433,-8.94471 7.33821,-10.02261 3.6357,-0.6961 8.64137,2.25025 8.7459,8.23609 -0.0159,1.19172 1.26025,1.16075 1.2483,-0.47221 -0.17123,-4.72157 -1.66394,-10.21877 -4.17269,-14.69354 4.01072,0 8.02134,0 12.03206,0 -2.50875,4.47477 -4.00146,9.97197 -4.17269,14.69354 -0.0119,1.63296 1.26423,1.66393 1.2483,0.47221 0.10453,-5.98584 5.1102,-8.93219 8.7459,-8.23609 5.60388,1.0779 7.39296,6.70935 7.33821,10.02261 -0.16327,10.23193 -9.99092,17.77916 -19.17575,30.8942 z"
         style="display:inline;opacity:1" />
      <path
         d="m 735.5475,-676.6511 0.16008,-2.02839 c 0.50554,-6.26818 1.85071,-8.3828 9.48051,-14.9264 3.70419,-3.17192 4.91885,-4.737 5.08909,-6.55267 0.48512,-4.28276 -3.29971,-5.61947 -5.76486,-5.63901 -3.19478,-0.0289 -6.80938,1.91755 -5.08402,6.44173 l -3.58513,1.07425 c -0.72057,-4.22005 0.0209,-8.17905 3.37527,-9.93601 4.47983,-2.29085 10.22418,-1.39283 13.12458,2.21639 1.94936,2.42133 2.39476,5.77217 1.34905,8.39456 -3.05521,6.6989 -13.41895,9.64624 -14.27402,17.39727 l 11.45426,0 0,-4.31535 3.37527,0 0,7.94421 -18.70008,-0.0708 z m 0,0"
         id="path15-3-8-9"
         inkscape:connector-curvature="0"
         style="opacity:1" />
      <path
         style="display:inline;opacity:1"
         d="m 942.19963,-459.07203 -0.16008,2.02839 c -0.50554,6.26819 -1.85071,8.3828 -9.48051,14.9264 -3.70419,3.17192 -4.91885,4.737 -5.08909,6.55267 -0.48512,4.28276 3.29971,5.61947 5.76486,5.63901 3.19478,0.0289 6.80938,-1.91755 5.08402,-6.44173 l 3.58513,-1.07425 c 0.72057,4.22006 -0.0209,8.17905 -3.37528,9.93601 -4.47982,2.29085 -10.22417,1.39283 -13.12457,-2.21638 -1.94936,-2.42133 -2.39476,-5.77218 -1.34905,-8.39457 3.0552,-6.6989 13.41895,-9.64624 14.27402,-17.39727 l -11.45426,0 0,4.31535 -3.37527,0 0,-7.94421 18.70008,0.0708 z m 0,0"
         id="path15-3-5-1-4"
         inkscape:connector-curvature="0" />
    </g>
  </g>
</svg>
