<?xml version="1.0" encoding="UTF-8" standalone="no"?>
<!-- Created with Inkscape (http://www.inkscape.org/) -->

<svg
   xmlns:dc="http://purl.org/dc/elements/1.1/"
   xmlns:cc="http://creativecommons.org/ns#"
   xmlns:rdf="http://www.w3.org/1999/02/22-rdf-syntax-ns#"
   xmlns:svg="http://www.w3.org/2000/svg"
   xmlns="http://www.w3.org/2000/svg"
   xmlns:sodipodi="http://sodipodi.sourceforge.net/DTD/sodipodi-0.dtd"
   xmlns:inkscape="http://www.inkscape.org/namespaces/inkscape"
   width="63mm"
   height="88mm"
   viewBox="0 0 223.22835 311.81102"
   id="svg15595"
   version="1.1"
   inkscape:version="0.91 r13725"
   sodipodi:docname="s04.svg">
  <defs
     id="defs15597">
    <filter
       height="1"
       width="1"
       y="0"
       x="0"
       id="filter19349"
       style="color-interpolation-filters:sRGB"
       inkscape:menu-tooltip="Blend an image with its hue opposite"
       inkscape:menu="Color"
       inkscape:label="Blend Opposites">
      <feColorMatrix
         id="feColorMatrix19351"
         in="SourceGraphic"
         result="fbSourceGraphic"
         values="180"
         type="hueRotate" />
      <feColorMatrix
         id="feColorMatrix19353"
         result="result1"
         in="SourceGraphic"
         values="1 0 0 0 0 0 1 0 0 0 0 0 1 0 0 -0.2125 -0.7154 -0.0721 1 0 " />
      <feColorMatrix
         id="feColorMatrix19355"
         values="0"
         type="hueRotate" />
      <feColorMatrix
         id="feColorMatrix19357"
         result="result3"
         values="1 0 0 0 0 0 1 0 0 0 0 0 1 0 0 0 0 0 1 0 " />
      <feComposite
         id="feComposite19359"
         operator="atop"
         result="result6"
         in2="result3" />
      <feComposite
         k4="0"
         id="feComposite19361"
         result="result4"
         in="result6"
         k3="0.5"
         k1="0.5"
         k2="0.5"
         operator="arithmetic"
         in2="result6" />
      <feBlend
         id="feBlend19363"
         in="result4"
         result="result2"
         mode="normal"
         in2="fbSourceGraphic" />
      <feComposite
         k4="0"
         k3="0"
         k1="0"
         id="feComposite19365"
         result="result5"
         k2="1"
         operator="arithmetic"
         in2="result2" />
      <feComposite
         id="feComposite19367"
         result="result5"
         operator="in"
         in2="SourceGraphic" />
    </filter>
    <filter
       height="1"
       width="1"
       y="0"
       x="0"
       id="filter19349-2"
       style="color-interpolation-filters:sRGB"
       inkscape:menu-tooltip="Blend an image with its hue opposite"
       inkscape:menu="Color"
       inkscape:label="Blend Opposites">
      <feColorMatrix
         id="feColorMatrix19351-7"
         in="SourceGraphic"
         result="fbSourceGraphic"
         values="180"
         type="hueRotate" />
      <feColorMatrix
         id="feColorMatrix19353-9"
         result="result1"
         in="SourceGraphic"
         values="1 0 0 0 0 0 1 0 0 0 0 0 1 0 0 -0.2125 -0.7154 -0.0721 1 0 " />
      <feColorMatrix
         id="feColorMatrix19355-8"
         values="0"
         type="hueRotate" />
      <feColorMatrix
         id="feColorMatrix19357-3"
         result="result3"
         values="1 0 0 0 0 0 1 0 0 0 0 0 1 0 0 0 0 0 1 0 " />
      <feComposite
         id="feComposite19359-4"
         operator="atop"
         result="result6"
         in2="result3" />
      <feComposite
         k4="0"
         id="feComposite19361-1"
         result="result4"
         in="result6"
         k3="0.5"
         k1="0.5"
         k2="0.5"
         operator="arithmetic"
         in2="result6" />
      <feBlend
         id="feBlend19363-4"
         in="result4"
         result="result2"
         mode="normal"
         in2="fbSourceGraphic" />
      <feComposite
         k4="0"
         k3="0"
         k1="0"
         id="feComposite19365-5"
         result="result5"
         k2="1"
         operator="arithmetic"
         in2="result2" />
      <feComposite
         id="feComposite19367-8"
         result="result5"
         operator="in"
         in2="SourceGraphic" />
    </filter>
    <filter
       height="1"
       width="1"
       y="0"
       x="0"
       id="filter19349-0"
       style="color-interpolation-filters:sRGB"
       inkscape:menu-tooltip="Blend an image with its hue opposite"
       inkscape:menu="Color"
       inkscape:label="Blend Opposites">
      <feColorMatrix
         id="feColorMatrix19351-0"
         in="SourceGraphic"
         result="fbSourceGraphic"
         values="180"
         type="hueRotate" />
      <feColorMatrix
         id="feColorMatrix19353-1"
         result="result1"
         in="SourceGraphic"
         values="1 0 0 0 0 0 1 0 0 0 0 0 1 0 0 -0.2125 -0.7154 -0.0721 1 0 " />
      <feColorMatrix
         id="feColorMatrix19355-7"
         values="0"
         type="hueRotate" />
      <feColorMatrix
         id="feColorMatrix19357-32"
         result="result3"
         values="1 0 0 0 0 0 1 0 0 0 0 0 1 0 0 0 0 0 1 0 " />
      <feComposite
         id="feComposite19359-3"
         operator="atop"
         result="result6"
         in2="result3" />
      <feComposite
         k4="0"
         id="feComposite19361-6"
         result="result4"
         in="result6"
         k3="0.5"
         k1="0.5"
         k2="0.5"
         operator="arithmetic"
         in2="result6" />
      <feBlend
         id="feBlend19363-44"
         in="result4"
         result="result2"
         mode="normal"
         in2="fbSourceGraphic" />
      <feComposite
         k4="0"
         k3="0"
         k1="0"
         id="feComposite19365-6"
         result="result5"
         k2="1"
         operator="arithmetic"
         in2="result2" />
      <feComposite
         id="feComposite19367-7"
         result="result5"
         operator="in"
         in2="SourceGraphic" />
    </filter>
    <filter
       height="1"
       width="1"
       y="0"
       x="0"
       id="filter19349-20"
       style="color-interpolation-filters:sRGB"
       inkscape:menu-tooltip="Blend an image with its hue opposite"
       inkscape:menu="Color"
       inkscape:label="Blend Opposites">
      <feColorMatrix
         id="feColorMatrix19351-2"
         in="SourceGraphic"
         result="fbSourceGraphic"
         values="180"
         type="hueRotate" />
      <feColorMatrix
         id="feColorMatrix19353-6"
         result="result1"
         in="SourceGraphic"
         values="1 0 0 0 0 0 1 0 0 0 0 0 1 0 0 -0.2125 -0.7154 -0.0721 1 0 " />
      <feColorMatrix
         id="feColorMatrix19355-2"
         values="0"
         type="hueRotate" />
      <feColorMatrix
         id="feColorMatrix19357-6"
         result="result3"
         values="1 0 0 0 0 0 1 0 0 0 0 0 1 0 0 0 0 0 1 0 " />
      <feComposite
         id="feComposite19359-0"
         operator="atop"
         result="result6"
         in2="result3" />
      <feComposite
         k4="0"
         id="feComposite19361-66"
         result="result4"
         in="result6"
         k3="0.5"
         k1="0.5"
         k2="0.5"
         operator="arithmetic"
         in2="result6" />
      <feBlend
         id="feBlend19363-43"
         in="result4"
         result="result2"
         mode="normal"
         in2="fbSourceGraphic" />
      <feComposite
         k4="0"
         k3="0"
         k1="0"
         id="feComposite19365-7"
         result="result5"
         k2="1"
         operator="arithmetic"
         in2="result2" />
      <feComposite
         id="feComposite19367-3"
         result="result5"
         operator="in"
         in2="SourceGraphic" />
    </filter>
    <filter
       height="1"
       width="1"
       y="0"
       x="0"
       id="filter19349-8"
       style="color-interpolation-filters:sRGB"
       inkscape:menu-tooltip="Blend an image with its hue opposite"
       inkscape:menu="Color"
       inkscape:label="Blend Opposites">
      <feColorMatrix
         id="feColorMatrix19351-26"
         in="SourceGraphic"
         result="fbSourceGraphic"
         values="180"
         type="hueRotate" />
      <feColorMatrix
         id="feColorMatrix19353-2"
         result="result1"
         in="SourceGraphic"
         values="1 0 0 0 0 0 1 0 0 0 0 0 1 0 0 -0.2125 -0.7154 -0.0721 1 0 " />
      <feColorMatrix
         id="feColorMatrix19355-9"
         values="0"
         type="hueRotate" />
      <feColorMatrix
         id="feColorMatrix19357-7"
         result="result3"
         values="1 0 0 0 0 0 1 0 0 0 0 0 1 0 0 0 0 0 1 0 " />
      <feComposite
         id="feComposite19359-5"
         operator="atop"
         result="result6"
         in2="result3" />
      <feComposite
         k4="0"
         id="feComposite19361-9"
         result="result4"
         in="result6"
         k3="0.5"
         k1="0.5"
         k2="0.5"
         operator="arithmetic"
         in2="result6" />
      <feBlend
         id="feBlend19363-8"
         in="result4"
         result="result2"
         mode="normal"
         in2="fbSourceGraphic" />
      <feComposite
         k4="0"
         k3="0"
         k1="0"
         id="feComposite19365-2"
         result="result5"
         k2="1"
         operator="arithmetic"
         in2="result2" />
      <feComposite
         id="feComposite19367-33"
         result="result5"
         operator="in"
         in2="SourceGraphic" />
    </filter>
    <filter
       height="1"
       width="1"
       y="0"
       x="0"
       id="filter19349-7"
       style="color-interpolation-filters:sRGB"
       inkscape:menu-tooltip="Blend an image with its hue opposite"
       inkscape:menu="Color"
       inkscape:label="Blend Opposites">
      <feColorMatrix
         id="feColorMatrix19351-1"
         in="SourceGraphic"
         result="fbSourceGraphic"
         values="180"
         type="hueRotate" />
      <feColorMatrix
         id="feColorMatrix19353-7"
         result="result1"
         in="SourceGraphic"
         values="1 0 0 0 0 0 1 0 0 0 0 0 1 0 0 -0.2125 -0.7154 -0.0721 1 0 " />
      <feColorMatrix
         id="feColorMatrix19355-29"
         values="0"
         type="hueRotate" />
      <feColorMatrix
         id="feColorMatrix19357-4"
         result="result3"
         values="1 0 0 0 0 0 1 0 0 0 0 0 1 0 0 0 0 0 1 0 " />
      <feComposite
         id="feComposite19359-6"
         operator="atop"
         result="result6"
         in2="result3" />
      <feComposite
         k4="0"
         id="feComposite19361-18"
         result="result4"
         in="result6"
         k3="0.5"
         k1="0.5"
         k2="0.5"
         operator="arithmetic"
         in2="result6" />
      <feBlend
         id="feBlend19363-2"
         in="result4"
         result="result2"
         mode="normal"
         in2="fbSourceGraphic" />
      <feComposite
         k4="0"
         k3="0"
         k1="0"
         id="feComposite19365-4"
         result="result5"
         k2="1"
         operator="arithmetic"
         in2="result2" />
      <feComposite
         id="feComposite19367-4"
         result="result5"
         operator="in"
         in2="SourceGraphic" />
    </filter>
    <filter
       height="1"
       width="1"
       y="0"
       x="0"
       id="filter19349-4"
       style="color-interpolation-filters:sRGB"
       inkscape:menu-tooltip="Blend an image with its hue opposite"
       inkscape:menu="Color"
       inkscape:label="Blend Opposites">
      <feColorMatrix
         id="feColorMatrix19351-03"
         in="SourceGraphic"
         result="fbSourceGraphic"
         values="180"
         type="hueRotate" />
      <feColorMatrix
         id="feColorMatrix19353-15"
         result="result1"
         in="SourceGraphic"
         values="1 0 0 0 0 0 1 0 0 0 0 0 1 0 0 -0.2125 -0.7154 -0.0721 1 0 " />
      <feColorMatrix
         id="feColorMatrix19355-24"
         values="0"
         type="hueRotate" />
      <feColorMatrix
         id="feColorMatrix19357-64"
         result="result3"
         values="1 0 0 0 0 0 1 0 0 0 0 0 1 0 0 0 0 0 1 0 " />
      <feComposite
         id="feComposite19359-2"
         operator="atop"
         result="result6"
         in2="result3" />
      <feComposite
         k4="0"
         id="feComposite19361-8"
         result="result4"
         in="result6"
         k3="0.5"
         k1="0.5"
         k2="0.5"
         operator="arithmetic"
         in2="result6" />
      <feBlend
         id="feBlend19363-5"
         in="result4"
         result="result2"
         mode="normal"
         in2="fbSourceGraphic" />
      <feComposite
         k4="0"
         k3="0"
         k1="0"
         id="feComposite19365-9"
         result="result5"
         k2="1"
         operator="arithmetic"
         in2="result2" />
      <feComposite
         id="feComposite19367-35"
         result="result5"
         operator="in"
         in2="SourceGraphic" />
    </filter>
    <filter
       height="1"
       width="1"
       y="0"
       x="0"
       id="filter19349-08"
       style="color-interpolation-filters:sRGB"
       inkscape:menu-tooltip="Blend an image with its hue opposite"
       inkscape:menu="Color"
       inkscape:label="Blend Opposites">
      <feColorMatrix
         id="feColorMatrix19351-035"
         in="SourceGraphic"
         result="fbSourceGraphic"
         values="180"
         type="hueRotate" />
      <feColorMatrix
         id="feColorMatrix19353-12"
         result="result1"
         in="SourceGraphic"
         values="1 0 0 0 0 0 1 0 0 0 0 0 1 0 0 -0.2125 -0.7154 -0.0721 1 0 " />
      <feColorMatrix
         id="feColorMatrix19355-90"
         values="0"
         type="hueRotate" />
      <feColorMatrix
         id="feColorMatrix19357-75"
         result="result3"
         values="1 0 0 0 0 0 1 0 0 0 0 0 1 0 0 0 0 0 1 0 " />
      <feComposite
         id="feComposite19359-1"
         operator="atop"
         result="result6"
         in2="result3" />
      <feComposite
         k4="0"
         id="feComposite19361-7"
         result="result4"
         in="result6"
         k3="0.5"
         k1="0.5"
         k2="0.5"
         operator="arithmetic"
         in2="result6" />
      <feBlend
         id="feBlend19363-0"
         in="result4"
         result="result2"
         mode="normal"
         in2="fbSourceGraphic" />
      <feComposite
         k4="0"
         k3="0"
         k1="0"
         id="feComposite19365-74"
         result="result5"
         k2="1"
         operator="arithmetic"
         in2="result2" />
      <feComposite
         id="feComposite19367-49"
         result="result5"
         operator="in"
         in2="SourceGraphic" />
    </filter>
    <filter
       height="1"
       width="1"
       y="0"
       x="0"
       id="filter19349-75"
       style="color-interpolation-filters:sRGB"
       inkscape:menu-tooltip="Blend an image with its hue opposite"
       inkscape:menu="Color"
       inkscape:label="Blend Opposites">
      <feColorMatrix
         id="feColorMatrix19351-5"
         in="SourceGraphic"
         result="fbSourceGraphic"
         values="180"
         type="hueRotate" />
      <feColorMatrix
         id="feColorMatrix19353-11"
         result="result1"
         in="SourceGraphic"
         values="1 0 0 0 0 0 1 0 0 0 0 0 1 0 0 -0.2125 -0.7154 -0.0721 1 0 " />
      <feColorMatrix
         id="feColorMatrix19355-1"
         values="0"
         type="hueRotate" />
      <feColorMatrix
         id="feColorMatrix19357-8"
         result="result3"
         values="1 0 0 0 0 0 1 0 0 0 0 0 1 0 0 0 0 0 1 0 " />
      <feComposite
         id="feComposite19359-61"
         operator="atop"
         result="result6"
         in2="result3" />
      <feComposite
         k4="0"
         id="feComposite19361-3"
         result="result4"
         in="result6"
         k3="0.5"
         k1="0.5"
         k2="0.5"
         operator="arithmetic"
         in2="result6" />
      <feBlend
         id="feBlend19363-57"
         in="result4"
         result="result2"
         mode="normal"
         in2="fbSourceGraphic" />
      <feComposite
         k4="0"
         k3="0"
         k1="0"
         id="feComposite19365-8"
         result="result5"
         k2="1"
         operator="arithmetic"
         in2="result2" />
      <feComposite
         id="feComposite19367-75"
         result="result5"
         operator="in"
         in2="SourceGraphic" />
    </filter>
    <filter
       height="1"
       width="1"
       y="0"
       x="0"
       id="filter19349-80"
       style="color-interpolation-filters:sRGB"
       inkscape:menu-tooltip="Blend an image with its hue opposite"
       inkscape:menu="Color"
       inkscape:label="Blend Opposites">
      <feColorMatrix
         id="feColorMatrix19351-21"
         in="SourceGraphic"
         result="fbSourceGraphic"
         values="180"
         type="hueRotate" />
      <feColorMatrix
         id="feColorMatrix19353-5"
         result="result1"
         in="SourceGraphic"
         values="1 0 0 0 0 0 1 0 0 0 0 0 1 0 0 -0.2125 -0.7154 -0.0721 1 0 " />
      <feColorMatrix
         id="feColorMatrix19355-21"
         values="0"
         type="hueRotate" />
      <feColorMatrix
         id="feColorMatrix19357-49"
         result="result3"
         values="1 0 0 0 0 0 1 0 0 0 0 0 1 0 0 0 0 0 1 0 " />
      <feComposite
         id="feComposite19359-51"
         operator="atop"
         result="result6"
         in2="result3" />
      <feComposite
         k4="0"
         id="feComposite19361-94"
         result="result4"
         in="result6"
         k3="0.5"
         k1="0.5"
         k2="0.5"
         operator="arithmetic"
         in2="result6" />
      <feBlend
         id="feBlend19363-56"
         in="result4"
         result="result2"
         mode="normal"
         in2="fbSourceGraphic" />
      <feComposite
         k4="0"
         k3="0"
         k1="0"
         id="feComposite19365-44"
         result="result5"
         k2="1"
         operator="arithmetic"
         in2="result2" />
      <feComposite
         id="feComposite19367-31"
         result="result5"
         operator="in"
         in2="SourceGraphic" />
    </filter>
    <filter
       height="1"
       width="1"
       y="0"
       x="0"
       id="filter19349-6"
       style="color-interpolation-filters:sRGB"
       inkscape:menu-tooltip="Blend an image with its hue opposite"
       inkscape:menu="Color"
       inkscape:label="Blend Opposites">
      <feColorMatrix
         id="feColorMatrix19351-74"
         in="SourceGraphic"
         result="fbSourceGraphic"
         values="180"
         type="hueRotate" />
      <feColorMatrix
         id="feColorMatrix19353-4"
         result="result1"
         in="SourceGraphic"
         values="1 0 0 0 0 0 1 0 0 0 0 0 1 0 0 -0.2125 -0.7154 -0.0721 1 0 " />
      <feColorMatrix
         id="feColorMatrix19355-3"
         values="0"
         type="hueRotate" />
      <feColorMatrix
         id="feColorMatrix19357-5"
         result="result3"
         values="1 0 0 0 0 0 1 0 0 0 0 0 1 0 0 0 0 0 1 0 " />
      <feComposite
         id="feComposite19359-7"
         operator="atop"
         result="result6"
         in2="result3" />
      <feComposite
         k4="0"
         id="feComposite19361-0"
         result="result4"
         in="result6"
         k3="0.5"
         k1="0.5"
         k2="0.5"
         operator="arithmetic"
         in2="result6" />
      <feBlend
         id="feBlend19363-48"
         in="result4"
         result="result2"
         mode="normal"
         in2="fbSourceGraphic" />
      <feComposite
         k4="0"
         k3="0"
         k1="0"
         id="feComposite19365-81"
         result="result5"
         k2="1"
         operator="arithmetic"
         in2="result2" />
      <feComposite
         id="feComposite19367-6"
         result="result5"
         operator="in"
         in2="SourceGraphic" />
    </filter>
    <filter
       height="1"
       width="1"
       y="0"
       x="0"
       id="filter19349-06"
       style="color-interpolation-filters:sRGB"
       inkscape:menu-tooltip="Blend an image with its hue opposite"
       inkscape:menu="Color"
       inkscape:label="Blend Opposites">
      <feColorMatrix
         id="feColorMatrix19351-8"
         in="SourceGraphic"
         result="fbSourceGraphic"
         values="180"
         type="hueRotate" />
      <feColorMatrix
         id="feColorMatrix19353-58"
         result="result1"
         in="SourceGraphic"
         values="1 0 0 0 0 0 1 0 0 0 0 0 1 0 0 -0.2125 -0.7154 -0.0721 1 0 " />
      <feColorMatrix
         id="feColorMatrix19355-19"
         values="0"
         type="hueRotate" />
      <feColorMatrix
         id="feColorMatrix19357-9"
         result="result3"
         values="1 0 0 0 0 0 1 0 0 0 0 0 1 0 0 0 0 0 1 0 " />
      <feComposite
         id="feComposite19359-8"
         operator="atop"
         result="result6"
         in2="result3" />
      <feComposite
         k4="0"
         id="feComposite19361-11"
         result="result4"
         in="result6"
         k3="0.5"
         k1="0.5"
         k2="0.5"
         operator="arithmetic"
         in2="result6" />
      <feBlend
         id="feBlend19363-3"
         in="result4"
         result="result2"
         mode="normal"
         in2="fbSourceGraphic" />
      <feComposite
         k4="0"
         k3="0"
         k1="0"
         id="feComposite19365-87"
         result="result5"
         k2="1"
         operator="arithmetic"
         in2="result2" />
      <feComposite
         id="feComposite19367-73"
         result="result5"
         operator="in"
         in2="SourceGraphic" />
    </filter>
    <filter
       height="1"
       width="1"
       y="0"
       x="0"
       id="filter19349-209"
       style="color-interpolation-filters:sRGB"
       inkscape:menu-tooltip="Blend an image with its hue opposite"
       inkscape:menu="Color"
       inkscape:label="Blend Opposites">
      <feColorMatrix
         id="feColorMatrix19351-9"
         in="SourceGraphic"
         result="fbSourceGraphic"
         values="180"
         type="hueRotate" />
      <feColorMatrix
         id="feColorMatrix19353-45"
         result="result1"
         in="SourceGraphic"
         values="1 0 0 0 0 0 1 0 0 0 0 0 1 0 0 -0.2125 -0.7154 -0.0721 1 0 " />
      <feColorMatrix
         id="feColorMatrix19355-4"
         values="0"
         type="hueRotate" />
      <feColorMatrix
         id="feColorMatrix19357-1"
         result="result3"
         values="1 0 0 0 0 0 1 0 0 0 0 0 1 0 0 0 0 0 1 0 " />
      <feComposite
         id="feComposite19359-25"
         operator="atop"
         result="result6"
         in2="result3" />
      <feComposite
         k4="0"
         id="feComposite19361-60"
         result="result4"
         in="result6"
         k3="0.5"
         k1="0.5"
         k2="0.5"
         operator="arithmetic"
         in2="result6" />
      <feBlend
         id="feBlend19363-579"
         in="result4"
         result="result2"
         mode="normal"
         in2="fbSourceGraphic" />
      <feComposite
         k4="0"
         k3="0"
         k1="0"
         id="feComposite19365-53"
         result="result5"
         k2="1"
         operator="arithmetic"
         in2="result2" />
      <feComposite
         id="feComposite19367-9"
         result="result5"
         operator="in"
         in2="SourceGraphic" />
    </filter>
    <filter
       height="1"
       width="1"
       y="0"
       x="0"
       id="filter19349-3"
       style="color-interpolation-filters:sRGB"
       inkscape:menu-tooltip="Blend an image with its hue opposite"
       inkscape:menu="Color"
       inkscape:label="Blend Opposites">
      <feColorMatrix
         id="feColorMatrix19351-3"
         in="SourceGraphic"
         result="fbSourceGraphic"
         values="180"
         type="hueRotate" />
      <feColorMatrix
         id="feColorMatrix19353-0"
         result="result1"
         in="SourceGraphic"
         values="1 0 0 0 0 0 1 0 0 0 0 0 1 0 0 -0.2125 -0.7154 -0.0721 1 0 " />
      <feColorMatrix
         id="feColorMatrix19355-45"
         values="0"
         type="hueRotate" />
      <feColorMatrix
         id="feColorMatrix19357-17"
         result="result3"
         values="1 0 0 0 0 0 1 0 0 0 0 0 1 0 0 0 0 0 1 0 " />
      <feComposite
         id="feComposite19359-64"
         operator="atop"
         result="result6"
         in2="result3" />
      <feComposite
         k4="0"
         id="feComposite19361-63"
         result="result4"
         in="result6"
         k3="0.5"
         k1="0.5"
         k2="0.5"
         operator="arithmetic"
         in2="result6" />
      <feBlend
         id="feBlend19363-39"
         in="result4"
         result="result2"
         mode="normal"
         in2="fbSourceGraphic" />
      <feComposite
         k4="0"
         k3="0"
         k1="0"
         id="feComposite19365-73"
         result="result5"
         k2="1"
         operator="arithmetic"
         in2="result2" />
      <feComposite
         id="feComposite19367-0"
         result="result5"
         operator="in"
         in2="SourceGraphic" />
    </filter>
    <filter
       height="1"
       width="1"
       y="0"
       x="0"
       id="filter19349-79"
       style="color-interpolation-filters:sRGB"
       inkscape:menu-tooltip="Blend an image with its hue opposite"
       inkscape:menu="Color"
       inkscape:label="Blend Opposites">
      <feColorMatrix
         id="feColorMatrix19351-51"
         in="SourceGraphic"
         result="fbSourceGraphic"
         values="180"
         type="hueRotate" />
      <feColorMatrix
         id="feColorMatrix19353-09"
         result="result1"
         in="SourceGraphic"
         values="1 0 0 0 0 0 1 0 0 0 0 0 1 0 0 -0.2125 -0.7154 -0.0721 1 0 " />
      <feColorMatrix
         id="feColorMatrix19355-6"
         values="0"
         type="hueRotate" />
      <feColorMatrix
         id="feColorMatrix19357-80"
         result="result3"
         values="1 0 0 0 0 0 1 0 0 0 0 0 1 0 0 0 0 0 1 0 " />
      <feComposite
         id="feComposite19359-38"
         operator="atop"
         result="result6"
         in2="result3" />
      <feComposite
         k4="0"
         id="feComposite19361-113"
         result="result4"
         in="result6"
         k3="0.5"
         k1="0.5"
         k2="0.5"
         operator="arithmetic"
         in2="result6" />
      <feBlend
         id="feBlend19363-04"
         in="result4"
         result="result2"
         mode="normal"
         in2="fbSourceGraphic" />
      <feComposite
         k4="0"
         k3="0"
         k1="0"
         id="feComposite19365-92"
         result="result5"
         k2="1"
         operator="arithmetic"
         in2="result2" />
      <feComposite
         id="feComposite19367-84"
         result="result5"
         operator="in"
         in2="SourceGraphic" />
    </filter>
    <filter
       height="1"
       width="1"
       y="0"
       x="0"
       id="filter19349-5"
       style="color-interpolation-filters:sRGB"
       inkscape:menu-tooltip="Blend an image with its hue opposite"
       inkscape:menu="Color"
       inkscape:label="Blend Opposites">
      <feColorMatrix
         id="feColorMatrix19351-52"
         in="SourceGraphic"
         result="fbSourceGraphic"
         values="180"
         type="hueRotate" />
      <feColorMatrix
         id="feColorMatrix19353-69"
         result="result1"
         in="SourceGraphic"
         values="1 0 0 0 0 0 1 0 0 0 0 0 1 0 0 -0.2125 -0.7154 -0.0721 1 0 " />
      <feColorMatrix
         id="feColorMatrix19355-22"
         values="0"
         type="hueRotate" />
      <feColorMatrix
         id="feColorMatrix19357-85"
         result="result3"
         values="1 0 0 0 0 0 1 0 0 0 0 0 1 0 0 0 0 0 1 0 " />
      <feComposite
         id="feComposite19359-24"
         operator="atop"
         result="result6"
         in2="result3" />
      <feComposite
         k4="0"
         id="feComposite19361-08"
         result="result4"
         in="result6"
         k3="0.5"
         k1="0.5"
         k2="0.5"
         operator="arithmetic"
         in2="result6" />
      <feBlend
         id="feBlend19363-6"
         in="result4"
         result="result2"
         mode="normal"
         in2="fbSourceGraphic" />
      <feComposite
         k4="0"
         k3="0"
         k1="0"
         id="feComposite19365-0"
         result="result5"
         k2="1"
         operator="arithmetic"
         in2="result2" />
      <feComposite
         id="feComposite19367-41"
         result="result5"
         operator="in"
         in2="SourceGraphic" />
    </filter>
    <filter
       height="1"
       width="1"
       y="0"
       x="0"
       id="filter19349-27"
       style="color-interpolation-filters:sRGB"
       inkscape:menu-tooltip="Blend an image with its hue opposite"
       inkscape:menu="Color"
       inkscape:label="Blend Opposites">
      <feColorMatrix
         id="feColorMatrix19351-50"
         in="SourceGraphic"
         result="fbSourceGraphic"
         values="180"
         type="hueRotate" />
      <feColorMatrix
         id="feColorMatrix19353-27"
         result="result1"
         in="SourceGraphic"
         values="1 0 0 0 0 0 1 0 0 0 0 0 1 0 0 -0.2125 -0.7154 -0.0721 1 0 " />
      <feColorMatrix
         id="feColorMatrix19355-82"
         values="0"
         type="hueRotate" />
      <feColorMatrix
         id="feColorMatrix19357-2"
         result="result3"
         values="1 0 0 0 0 0 1 0 0 0 0 0 1 0 0 0 0 0 1 0 " />
      <feComposite
         id="feComposite19359-74"
         operator="atop"
         result="result6"
         in2="result3" />
      <feComposite
         k4="0"
         id="feComposite19361-5"
         result="result4"
         in="result6"
         k3="0.5"
         k1="0.5"
         k2="0.5"
         operator="arithmetic"
         in2="result6" />
      <feBlend
         id="feBlend19363-7"
         in="result4"
         result="result2"
         mode="normal"
         in2="fbSourceGraphic" />
      <feComposite
         k4="0"
         k3="0"
         k1="0"
         id="feComposite19365-52"
         result="result5"
         k2="1"
         operator="arithmetic"
         in2="result2" />
      <feComposite
         id="feComposite19367-2"
         result="result5"
         operator="in"
         in2="SourceGraphic" />
    </filter>
  </defs>
  <sodipodi:namedview
     id="base"
     pagecolor="#ffffff"
     bordercolor="#666666"
     borderopacity="1.0"
     inkscape:pageopacity="0.0"
     inkscape:pageshadow="2"
     inkscape:zoom="0.35"
     inkscape:cx="-82.142856"
     inkscape:cy="977.14288"
     inkscape:document-units="px"
     inkscape:current-layer="layer1"
     showgrid="false"
     fit-margin-top="0"
     fit-margin-left="0"
     fit-margin-right="0"
     fit-margin-bottom="0"
     inkscape:window-width="1871"
     inkscape:window-height="1056"
     inkscape:window-x="49"
     inkscape:window-y="24"
     inkscape:window-maximized="1" />
  <metadata
     id="metadata15600">
    <rdf:RDF>
      <cc:Work
         rdf:about="">
        <dc:format>image/svg+xml</dc:format>
        <dc:type
           rdf:resource="http://purl.org/dc/dcmitype/StillImage" />
        <dc:title></dc:title>
      </cc:Work>
    </rdf:RDF>
  </metadata>
  <g
     inkscape:label="Layer 1"
     inkscape:groupmode="layer"
     id="layer1"
     transform="translate(1.153949e-6,-740.5512)">
    <g
       transform="matrix(1.0044823,0,0,1.0032089,-1261.8391,1466.1407)"
       style="filter:url(#filter19349-27)"
       id="g100858">
      <rect
         y="-723.26862"
         x="1256.2084"
         height="310.81366"
         width="222.23224"
         id="rect5318"
         style="display:inline;opacity:1;fill:#ffffff;fill-opacity:1;stroke:#000000;stroke-width:0.99291563;stroke-miterlimit:4;stroke-dasharray:none;stroke-opacity:1"
         rx="10.582486"
         ry="10.59592" />
      <path
         style="display:inline;opacity:1"
         sodipodi:nodetypes="cccccccccccc"
         inkscape:connector-curvature="0"
         id="path6882-1-0"
         d="m 1315.7895,-690.67818 c -9.1849,13.11504 -19.0125,20.66227 -19.1758,30.8942 -0.055,3.31327 1.7344,8.94471 7.3382,10.02262 3.6357,0.69609 8.6414,-2.25026 8.7459,-8.2361 -0.016,-1.19172 1.2603,-1.16075 1.2483,0.47221 -0.1712,4.72157 -1.6639,10.21877 -4.1727,14.69354 4.0108,0 8.0214,0 12.0321,0 -2.5087,-4.47477 -4.0015,-9.97197 -4.1727,-14.69354 -0.012,-1.63296 1.2642,-1.66393 1.2483,-0.47221 0.1045,5.98584 5.1102,8.93219 8.7459,8.2361 5.6039,-1.07791 7.393,-6.70935 7.3382,-10.02262 -0.1632,-10.23193 -9.9909,-17.77916 -19.1757,-30.8942 z" />
      <path
         style="display:inline;opacity:1"
         sodipodi:nodetypes="cccccccccccc"
         inkscape:connector-curvature="0"
         id="path6884-6-5"
         d="m 1273.3492,-673.45504 c -4.2914,5.4646 -8.883,8.60927 -8.9592,12.87258 -0.026,1.38052 0.8102,3.72696 3.4285,4.17609 1.6987,0.29004 4.0374,-0.93761 4.0863,-3.43171 -0.01,-0.49656 0.5887,-0.48365 0.5832,0.19675 -0.08,1.96733 -0.7775,4.25783 -1.9496,6.12231 1.8739,0 3.7477,0 5.6216,0 -1.1721,-1.86448 -1.8696,-4.15498 -1.9496,-6.12231 -0.01,-0.6804 0.5907,-0.69331 0.5832,-0.19675 0.049,2.4941 2.3876,3.72175 4.0863,3.43171 2.6183,-0.44913 3.4541,-2.79557 3.4285,-4.17609 -0.077,-4.26331 -4.6679,-7.40798 -8.9592,-12.87258 z" />
      <path
         style="display:inline;opacity:1"
         sodipodi:nodetypes="cccccccccccc"
         inkscape:connector-curvature="0"
         id="path6888-1-5"
         d="m 1461.3013,-462.26809 c -4.2914,-5.4646 -8.883,-8.60927 -8.9593,-12.87258 -0.026,-1.38052 0.8103,-3.72696 3.4285,-4.17609 1.6987,-0.29004 4.0374,0.93761 4.0863,3.43171 -0.01,0.49656 0.5888,0.48365 0.5832,-0.19675 -0.08,-1.96733 -0.7774,-4.25783 -1.9495,-6.12231 1.8739,0 3.7477,0 5.6216,0 -1.1722,1.86448 -1.8697,4.15498 -1.9496,6.12231 -0.01,0.6804 0.5906,0.69331 0.5832,0.19675 0.049,-2.4941 2.3876,-3.72175 4.0863,-3.43171 2.6182,0.44913 3.4541,2.79557 3.4285,4.17609 -0.077,4.26331 -4.668,7.40798 -8.9592,12.87258 z" />
      <path
         sodipodi:nodetypes="cccccccccccc"
         inkscape:connector-curvature="0"
         id="path6890-4-9"
         d="m 1418.8603,-690.67818 c -9.1848,13.11504 -19.0125,20.66227 -19.1758,30.8942 -0.055,3.31327 1.7344,8.94471 7.3382,10.02262 3.6357,0.69609 8.6414,-2.25026 8.7459,-8.2361 -0.016,-1.19172 1.2603,-1.16075 1.2483,0.47221 -0.1712,4.72157 -1.6639,10.21877 -4.1727,14.69354 4.0108,0 8.0214,0 12.0321,0 -2.5087,-4.47477 -4.0014,-9.97197 -4.1727,-14.69354 -0.012,-1.63296 1.2643,-1.66393 1.2483,-0.47221 0.1046,5.98584 5.1102,8.93219 8.7459,8.2361 5.6039,-1.07791 7.393,-6.70935 7.3382,-10.02262 -0.1632,-10.23193 -9.9909,-17.77916 -19.1757,-30.8942 z"
         style="display:inline;opacity:1" />
      <path
         sodipodi:nodetypes="cccccccccccc"
         inkscape:connector-curvature="0"
         id="path6902-7-5"
         d="m 1315.7895,-445.04508 c -9.1849,-13.11504 -19.0125,-20.66227 -19.1758,-30.8942 -0.055,-3.31326 1.7344,-8.94471 7.3382,-10.02261 3.6357,-0.6961 8.6414,2.25025 8.7459,8.23609 -0.016,1.19172 1.2603,1.16075 1.2483,-0.47221 -0.1712,-4.72157 -1.6639,-10.21877 -4.1727,-14.69354 4.0108,0 8.0214,0 12.0321,0 -2.5087,4.47477 -4.0015,9.97197 -4.1727,14.69354 -0.012,1.63296 1.2642,1.66393 1.2483,0.47221 0.1045,-5.98584 5.1102,-8.93219 8.7459,-8.23609 5.6039,1.0779 7.393,6.70935 7.3382,10.02261 -0.1632,10.23193 -9.9909,17.77916 -19.1757,30.8942 z"
         style="display:inline;opacity:1" />
      <path
         sodipodi:nodetypes="cccccccccccc"
         inkscape:connector-curvature="0"
         id="path6904-9-7"
         d="m 1418.8603,-445.04508 c -9.1848,-13.11504 -19.0125,-20.66227 -19.1758,-30.8942 -0.055,-3.31326 1.7344,-8.94471 7.3382,-10.02261 3.6357,-0.6961 8.6414,2.25025 8.7459,8.23609 -0.016,1.19172 1.2603,1.16075 1.2483,-0.47221 -0.1712,-4.72157 -1.6639,-10.21877 -4.1727,-14.69354 4.0108,0 8.0214,0 12.0321,0 -2.5087,4.47477 -4.0014,9.97197 -4.1727,14.69354 -0.012,1.63296 1.2643,1.66393 1.2483,0.47221 0.1046,-5.98584 5.1102,-8.93219 8.7459,-8.23609 5.6039,1.0779 7.393,6.70935 7.3382,10.02261 -0.1632,10.23193 -9.9909,17.77916 -19.1757,30.8942 z"
         style="display:inline;opacity:1" />
      <path
         d="m 1273.5782,-676.58461 0,-2.90528 2.6187,0 0,-4.79262 -13.0989,0 0,-3.38175 14.1741,-21.81081 2.3154,0.012 0,21.79905 4.0101,0 0,3.38175 -4.0101,0 -0.076,4.79262 2.195,0 0,2.90927 -8.1288,0 z m 2.6187,-24.90538 -8.9992,13.82703 8.9992,0 0,-13.82703 z m 0,0"
         id="path19-08-0-9"
         inkscape:connector-curvature="0"
         style="opacity:1" />
      <path
         transform="matrix(-1,0,0,1,2922.6024,0)"
         style="display:inline;opacity:1"
         d="m 1461.5316,-459.13852 0,2.90528 2.6188,0 0,4.79262 -13.099,0 0,3.38175 14.1742,21.81081 2.3154,-0.012 0,-21.79905 4.01,0 0,-3.38175 -4.01,0 -0.076,-4.79262 2.1951,0 0,-2.90927 -8.1289,0 z m 2.6188,24.90538 -8.9993,-13.82703 8.9993,0 0,13.82703 z m 0,0"
         id="path19-08-1-1-4"
         inkscape:connector-curvature="0" />
    </g>
  </g>
</svg>
